%!PS-Adobe-3.0 EPSF-3.0
%%Creator: MATLAB, The MathWorks, Inc. Version 7.14.0.739 (R2012a). Operating System: Linux 3.13.0-35-generic #62-Ubuntu SMP Fri Aug 15 01:58:42 UTC 2014 x86_64.
%%Title: ./oneplusone_esareslow_lognbeval_reval0_0.eps
%%CreationDate: 08/29/2014  22:25:09
%%DocumentNeededFonts: Helvetica
%%+ AvantGarde-Book
%%+ AvantGarde-Demi
%%DocumentProcessColors: Cyan Magenta Yellow Black
%%LanguageLevel: 2
%%Pages: 1
%%BoundingBox:   105   246   477   550
%%EndComments

%%BeginProlog
% MathWorks dictionary
/MathWorks 160 dict begin
% definition operators
/bdef {bind def} bind def
/ldef {load def} bind def
/xdef {exch def} bdef
/xstore {exch store} bdef
% operator abbreviations
/c  /clip ldef
/cc /concat ldef
/cp /closepath ldef
/gr /grestore ldef
/gs /gsave ldef
/mt /moveto ldef
/np /newpath ldef
/cm /currentmatrix ldef
/sm /setmatrix ldef
/rm /rmoveto ldef
/rl /rlineto ldef
/s {show newpath} bdef
/sc {setcmykcolor} bdef
/sr /setrgbcolor ldef
/sg /setgray ldef
/w /setlinewidth ldef
/j /setlinejoin ldef
/cap /setlinecap ldef
/rc {rectclip} bdef
/rf {rectfill} bdef
% page state control
/pgsv () def
/bpage {/pgsv save def} bdef
/epage {pgsv restore} bdef
/bplot /gsave ldef
/eplot {stroke grestore} bdef
% orientation switch
/portraitMode 0 def /landscapeMode 1 def /rotateMode 2 def
% coordinate system mappings
/dpi2point 0 def
% font control
/FontSize 0 def
/FMS {/FontSize xstore findfont [FontSize 0 0 FontSize neg 0 0]
  makefont setfont} bdef
/reencode {exch dup where {pop load} {pop StandardEncoding} ifelse
  exch dup 3 1 roll findfont dup length dict begin
  { 1 index /FID ne {def}{pop pop} ifelse } forall
  /Encoding exch def currentdict end definefont pop} bdef
/isroman {findfont /CharStrings get /Agrave known} bdef
/FMSR {3 1 roll 1 index dup isroman {reencode} {pop pop} ifelse
  exch FMS} bdef
/csm {1 dpi2point div -1 dpi2point div scale neg translate
 dup landscapeMode eq {pop -90 rotate}
  {rotateMode eq {90 rotate} if} ifelse} bdef
% line types: solid, dotted, dashed, dotdash
/SO { [] 0 setdash } bdef
/DO { [.5 dpi2point mul 4 dpi2point mul] 0 setdash } bdef
/DA { [6 dpi2point mul] 0 setdash } bdef
/DD { [.5 dpi2point mul 4 dpi2point mul 6 dpi2point mul 4
  dpi2point mul] 0 setdash } bdef
% macros for lines and objects
/L {lineto stroke} bdef
/MP {3 1 roll moveto 1 sub {rlineto} repeat} bdef
/AP {{rlineto} repeat} bdef
/PDlw -1 def
/W {/PDlw currentlinewidth def setlinewidth} def
/PP {closepath eofill} bdef
/DP {closepath stroke} bdef
/MR {4 -2 roll moveto dup  0 exch rlineto exch 0 rlineto
  neg 0 exch rlineto closepath} bdef
/FR {MR stroke} bdef
/PR {MR fill} bdef
/L1i {{currentfile picstr readhexstring pop} image} bdef
/tMatrix matrix def
/MakeOval {newpath tMatrix currentmatrix pop translate scale
0 0 1 0 360 arc tMatrix setmatrix} bdef
/FO {MakeOval stroke} bdef
/PO {MakeOval fill} bdef
/PD {currentlinewidth 2 div 0 360 arc fill
   PDlw -1 eq not {PDlw w /PDlw -1 def} if} def
/FA {newpath tMatrix currentmatrix pop translate scale
  0 0 1 5 -2 roll arc tMatrix setmatrix stroke} bdef
/PA {newpath tMatrix currentmatrix pop	translate 0 0 moveto scale
  0 0 1 5 -2 roll arc closepath tMatrix setmatrix fill} bdef
/FAn {newpath tMatrix currentmatrix pop translate scale
  0 0 1 5 -2 roll arcn tMatrix setmatrix stroke} bdef
/PAn {newpath tMatrix currentmatrix pop translate 0 0 moveto scale
  0 0 1 5 -2 roll arcn closepath tMatrix setmatrix fill} bdef
/vradius 0 def /hradius 0 def /lry 0 def
/lrx 0 def /uly 0 def /ulx 0 def /rad 0 def
/MRR {/vradius xdef /hradius xdef /lry xdef /lrx xdef /uly xdef
  /ulx xdef newpath tMatrix currentmatrix pop ulx hradius add uly
  vradius add translate hradius vradius scale 0 0 1 180 270 arc 
  tMatrix setmatrix lrx hradius sub uly vradius add translate
  hradius vradius scale 0 0 1 270 360 arc tMatrix setmatrix
  lrx hradius sub lry vradius sub translate hradius vradius scale
  0 0 1 0 90 arc tMatrix setmatrix ulx hradius add lry vradius sub
  translate hradius vradius scale 0 0 1 90 180 arc tMatrix setmatrix
  closepath} bdef
/FRR {MRR stroke } bdef
/PRR {MRR fill } bdef
/MlrRR {/lry xdef /lrx xdef /uly xdef /ulx xdef /rad lry uly sub 2 div def
  newpath tMatrix currentmatrix pop ulx rad add uly rad add translate
  rad rad scale 0 0 1 90 270 arc tMatrix setmatrix lrx rad sub lry rad
  sub translate rad rad scale 0 0 1 270 90 arc tMatrix setmatrix
  closepath} bdef
/FlrRR {MlrRR stroke } bdef
/PlrRR {MlrRR fill } bdef
/MtbRR {/lry xdef /lrx xdef /uly xdef /ulx xdef /rad lrx ulx sub 2 div def
  newpath tMatrix currentmatrix pop ulx rad add uly rad add translate
  rad rad scale 0 0 1 180 360 arc tMatrix setmatrix lrx rad sub lry rad
  sub translate rad rad scale 0 0 1 0 180 arc tMatrix setmatrix
  closepath} bdef
/FtbRR {MtbRR stroke } bdef
/PtbRR {MtbRR fill } bdef
/stri 6 array def /dtri 6 array def
/smat 6 array def /dmat 6 array def
/tmat1 6 array def /tmat2 6 array def /dif 3 array def
/asub {/ind2 exch def /ind1 exch def dup dup
  ind1 get exch ind2 get sub exch } bdef
/tri_to_matrix {
  2 0 asub 3 1 asub 4 0 asub 5 1 asub
  dup 0 get exch 1 get 7 -1 roll astore } bdef
/compute_transform {
  dmat dtri tri_to_matrix tmat1 invertmatrix 
  smat stri tri_to_matrix tmat2 concatmatrix } bdef
/ds {stri astore pop} bdef
/dt {dtri astore pop} bdef
/db {2 copy /cols xdef /rows xdef mul dup 3 mul string
  currentfile 
  3 index 0 eq {/ASCIIHexDecode filter}
  {/ASCII85Decode filter 3 index 2 eq {/RunLengthDecode filter} if }
  ifelse exch readstring pop
  dup 0 3 index getinterval /rbmap xdef
  dup 2 index dup getinterval /gbmap xdef
  1 index dup 2 mul exch getinterval /bbmap xdef pop pop}bdef
/it {gs np dtri aload pop moveto lineto lineto cp c
  cols rows 8 compute_transform 
  rbmap gbmap bbmap true 3 colorimage gr}bdef
/il {newpath moveto lineto stroke}bdef
currentdict end def
%%EndProlog

%%BeginSetup
MathWorks begin

0 cap

end
%%EndSetup

%%Page: 1 1
%%BeginPageSetup
%%PageBoundingBox:   105   246   477   550
MathWorks begin
bpage
%%EndPageSetup

%%BeginObject: obj1
bplot

/dpi2point 12 def
portraitMode 1260 6552 csm

    0   -48  4467  3648 rc
89 dict begin %Colortable dictionary
/c0 { 0.000000 0.000000 0.000000 sr} bdef
/c1 { 1.000000 1.000000 1.000000 sr} bdef
/c2 { 0.900000 0.000000 0.000000 sr} bdef
/c3 { 0.000000 0.820000 0.000000 sr} bdef
/c4 { 0.000000 0.000000 0.800000 sr} bdef
/c5 { 0.910000 0.820000 0.320000 sr} bdef
/c6 { 1.000000 0.260000 0.820000 sr} bdef
/c7 { 0.000000 0.820000 0.820000 sr} bdef
c0
1 j
1 sg
   0    0 4801 3601 rf
6 w
0 2793 3720 0 0 -2793 624 3150 4 MP
PP
-3720 0 0 2793 3720 0 0 -2793 624 3150 5 MP stroke
4 w
DO
0.3 sg
 624 2821 mt 4344 2821 L
4344 2821 mt 4344 2821 L
 624 1999 mt 4344 1999 L
4344 1999 mt 4344 1999 L
 624 1178 mt 4344 1178 L
4344 1178 mt 4344 1178 L
SO
6 w
 624 3150 mt 4344 3150 L
 624 3150 mt  624  357 L
 624 3150 mt  624 3224 L
%%IncludeResource: font Helvetica
/Helvetica /ISOLatin1Encoding 120 FMSR

 591 3369 mt 
(2) s
 772 3150 mt  772 3187 L
 921 3150 mt  921 3187 L
1070 3150 mt 1070 3187 L
1219 3150 mt 1219 3187 L
1368 3150 mt 1368 3187 L
1368 3150 mt 1368 3187 L
1368 3150 mt 1368 3187 L
1368 3150 mt 1368 3187 L
1368 3150 mt 1368 3187 L
1368 3150 mt 1368 3224 L
1335 3369 mt 
(3) s
1516 3150 mt 1516 3187 L
1665 3150 mt 1665 3187 L
1814 3150 mt 1814 3187 L
1963 3150 mt 1963 3187 L
2112 3150 mt 2112 3187 L
2112 3150 mt 2112 3187 L
2112 3150 mt 2112 3187 L
2112 3150 mt 2112 3187 L
2112 3150 mt 2112 3187 L
2112 3150 mt 2112 3224 L
2079 3369 mt 
(4) s
2260 3150 mt 2260 3187 L
2409 3150 mt 2409 3187 L
2558 3150 mt 2558 3187 L
2707 3150 mt 2707 3187 L
2856 3150 mt 2856 3187 L
2856 3150 mt 2856 3187 L
2856 3150 mt 2856 3187 L
2856 3150 mt 2856 3187 L
2856 3150 mt 2856 3187 L
2856 3150 mt 2856 3224 L
2823 3369 mt 
(5) s
3004 3150 mt 3004 3187 L
3153 3150 mt 3153 3187 L
3302 3150 mt 3302 3187 L
3451 3150 mt 3451 3187 L
3600 3150 mt 3600 3187 L
3600 3150 mt 3600 3187 L
3600 3150 mt 3600 3187 L
3600 3150 mt 3600 3187 L
3600 3150 mt 3600 3187 L
3600 3150 mt 3600 3224 L
3567 3369 mt 
(6) s
3748 3150 mt 3748 3187 L
3897 3150 mt 3897 3187 L
4046 3150 mt 4046 3187 L
4195 3150 mt 4195 3187 L
4344 3150 mt 4344 3187 L
4344 3150 mt 4344 3187 L
4344 3150 mt 4344 3187 L
4344 3150 mt 4344 3187 L
4344 3150 mt 4344 3187 L
4344 3150 mt 4344 3224 L
4311 3369 mt 
(7) s
 624 2903 mt  586 2903 L
 624 2985 mt  586 2985 L
 624 3067 mt  586 3067 L
 624 3150 mt  586 3150 L
 624 2821 mt  549 2821 L
 379 2865 mt 
(-1) s
 624 2739 mt  586 2739 L
 624 2657 mt  586 2657 L
 624 2574 mt  586 2574 L
 624 2492 mt  586 2492 L
 624 2410 mt  586 2410 L
 624 2328 mt  586 2328 L
 624 2246 mt  586 2246 L
 624 2164 mt  586 2164 L
 624 2082 mt  586 2082 L
 624 1999 mt  549 1999 L
 279 2043 mt 
(-0.5) s
 624 1917 mt  586 1917 L
 624 1835 mt  586 1835 L
 624 1753 mt  586 1753 L
 624 1671 mt  586 1671 L
 624 1589 mt  586 1589 L
 624 1507 mt  586 1507 L
 624 1424 mt  586 1424 L
 624 1342 mt  586 1342 L
 624 1260 mt  586 1260 L
 624 1178 mt  549 1178 L
 449 1222 mt 
(0) s
 624 1096 mt  586 1096 L
 624 1014 mt  586 1014 L
 624  932 mt  586  932 L
 624  849 mt  586  849 L
 624  767 mt  586  767 L
 624  685 mt  586  685 L
 624  603 mt  586  603 L
 624  521 mt  586  521 L
 624  439 mt  586  439 L
gs 624 357 3721 2794 rc
10.8 w
/c8 { 0.000000 0.500000 0.000000 sr} bdef
c8
9 -23 10 2 9 9 10 -6 10 -6 10 11 11 -3 10 -13 
10 12 11 -10 11 13 11 -6 11 21 11 9 12 -33 12 18 
12 -18 12 -4 12 0 12 -16 13 15 13 -16 13 18 14 3 
13 -12 14 3 14 1 15 -13 14 4 15 15 16 -12 15 2 
16 -22 17 -14 16 15 17 5 18 10 18 -25 18 23 19 13 
19 -15 20 -18 20 -15 21 17 22 -2 22 -20 23 -5 23 22 
24 -15 26 3 26 16 27 -33 27 -17 30 13 30 7 31 -15 
33 7 35 5 36 19 38 -40 40 -2 42 -16 45 -35 48 12 
51 -6 54 -14 59 -4 65 -11 70 -15 77 1 87 -21 98 -13 
113 -52 133 21 163 -1 208 20 289 150 481 220 920 1488 79 MP stroke
gs 811 1379 3399 629 rc
 866 1488 mt  974 1488 L
 920 1434 mt  920 1542 L
1347 1708 mt 1455 1708 L
1401 1654 mt 1401 1762 L
1636 1858 mt 1744 1858 L
1690 1804 mt 1690 1912 L
1844 1878 mt 1952 1878 L
1898 1824 mt 1898 1932 L
2007 1877 mt 2115 1877 L
2061 1823 mt 2061 1931 L
2140 1898 mt 2248 1898 L
2194 1844 mt 2194 1952 L
2253 1846 mt 2361 1846 L
2307 1792 mt 2307 1900 L
2351 1833 mt 2459 1833 L
2405 1779 mt 2405 1887 L
2438 1812 mt 2546 1812 L
2492 1758 mt 2492 1866 L
2515 1813 mt 2623 1813 L
2569 1759 mt 2569 1867 L
2585 1798 mt 2693 1798 L
2639 1744 mt 2639 1852 L
2650 1787 mt 2758 1787 L
2704 1733 mt 2704 1841 L
2709 1783 mt 2817 1783 L
2763 1729 mt 2763 1837 L
2763 1769 mt 2871 1769 L
2817 1715 mt 2817 1823 L
2814 1763 mt 2922 1763 L
2868 1709 mt 2868 1817 L
2862 1775 mt 2970 1775 L
2916 1721 mt 2916 1829 L
2907 1740 mt 3015 1740 L
2961 1686 mt 2961 1794 L
2949 1724 mt 3057 1724 L
3003 1670 mt 3003 1778 L
2989 1722 mt 3097 1722 L
3043 1668 mt 3043 1776 L
3027 1682 mt 3135 1682 L
3081 1628 mt 3081 1736 L
3063 1701 mt 3171 1701 L
3117 1647 mt 3117 1755 L
3098 1706 mt 3206 1706 L
3152 1652 mt 3152 1760 L
3131 1713 mt 3239 1713 L
3185 1659 mt 3185 1767 L
3162 1698 mt 3270 1698 L
3216 1644 mt 3216 1752 L
3192 1705 mt 3300 1705 L
3246 1651 mt 3246 1759 L
3222 1718 mt 3330 1718 L
3276 1664 mt 3276 1772 L
3249 1701 mt 3357 1701 L
3303 1647 mt 3303 1755 L
3276 1668 mt 3384 1668 L
3330 1614 mt 3330 1722 L
3302 1684 mt 3410 1684 L
3356 1630 mt 3356 1738 L
3328 1687 mt 3436 1687 L
3382 1633 mt 3382 1741 L
3352 1672 mt 3460 1672 L
3406 1618 mt 3406 1726 L
3375 1694 mt 3483 1694 L
3429 1640 mt 3429 1748 L
3398 1689 mt 3506 1689 L
3452 1635 mt 3452 1743 L
3420 1669 mt 3528 1669 L
3474 1615 mt 3474 1723 L
3442 1667 mt 3550 1667 L
3496 1613 mt 3496 1721 L
3463 1684 mt 3571 1684 L
3517 1630 mt 3517 1738 L
3483 1669 mt 3591 1669 L
3537 1615 mt 3537 1723 L
3503 1651 mt 3611 1651 L
3557 1597 mt 3557 1705 L
3522 1636 mt 3630 1636 L
3576 1582 mt 3576 1690 L
3541 1649 mt 3649 1649 L
3595 1595 mt 3595 1703 L
3559 1672 mt 3667 1672 L
3613 1618 mt 3613 1726 L
3577 1647 mt 3685 1647 L
3631 1593 mt 3631 1701 L
3595 1657 mt 3703 1657 L
3649 1603 mt 3649 1711 L
3612 1662 mt 3720 1662 L
3666 1608 mt 3666 1716 L
3628 1677 mt 3736 1677 L
3682 1623 mt 3682 1731 L
3645 1663 mt 3753 1663 L
3699 1609 mt 3699 1717 L
3661 1641 mt 3769 1641 L
3715 1587 mt 3715 1695 L
3676 1643 mt 3784 1643 L
3730 1589 mt 3730 1697 L
3692 1631 mt 3800 1631 L
3746 1577 mt 3746 1685 L
3707 1646 mt 3815 1646 L
3761 1592 mt 3761 1700 L
3721 1650 mt 3829 1650 L
3775 1596 mt 3775 1704 L
3736 1637 mt 3844 1637 L
3790 1583 mt 3790 1691 L
3750 1638 mt 3858 1638 L
3804 1584 mt 3804 1692 L
3764 1641 mt 3872 1641 L
3818 1587 mt 3818 1695 L
3777 1629 mt 3885 1629 L
3831 1575 mt 3831 1683 L
3791 1632 mt 3899 1632 L
3845 1578 mt 3845 1686 L
3804 1650 mt 3912 1650 L
3858 1596 mt 3858 1704 L
3817 1634 mt 3925 1634 L
3871 1580 mt 3871 1688 L
3830 1649 mt 3938 1649 L
3884 1595 mt 3884 1703 L
3842 1633 mt 3950 1633 L
3896 1579 mt 3896 1687 L
3854 1633 mt 3962 1633 L
3908 1579 mt 3908 1687 L
3866 1629 mt 3974 1629 L
3920 1575 mt 3920 1683 L
3878 1611 mt 3986 1611 L
3932 1557 mt 3932 1665 L
3890 1629 mt 3998 1629 L
3944 1575 mt 3944 1683 L
3902 1596 mt 4010 1596 L
3956 1542 mt 3956 1650 L
3913 1605 mt 4021 1605 L
3967 1551 mt 3967 1659 L
3924 1626 mt 4032 1626 L
3978 1572 mt 3978 1680 L
3935 1620 mt 4043 1620 L
3989 1566 mt 3989 1674 L
3946 1633 mt 4054 1633 L
4000 1579 mt 4000 1687 L
3957 1623 mt 4065 1623 L
4011 1569 mt 4011 1677 L
3967 1635 mt 4075 1635 L
4021 1581 mt 4021 1689 L
3977 1622 mt 4085 1622 L
4031 1568 mt 4031 1676 L
3988 1619 mt 4096 1619 L
4042 1565 mt 4042 1673 L
3998 1630 mt 4106 1630 L
4052 1576 mt 4052 1684 L
4008 1624 mt 4116 1624 L
4062 1570 mt 4062 1678 L
4018 1618 mt 4126 1618 L
4072 1564 mt 4072 1672 L
4027 1627 mt 4135 1627 L
4081 1573 mt 4081 1681 L
4037 1629 mt 4145 1629 L
4091 1575 mt 4091 1683 L
4046 1606 mt 4154 1606 L
4100 1552 mt 4100 1660 L
gr

/c9 { 0.000000 0.000000 0.500000 sr} bdef
c9
9 -10 10 9 9 -6 10 -4 10 -1 10 -3 11 -5 10 11 
10 4 11 2 11 -15 11 7 11 10 11 1 12 -10 12 9 
12 -1 12 1 12 -5 12 3 13 -9 13 6 13 -8 14 1 
13 -17 14 7 14 7 15 -9 14 0 15 18 16 -11 15 4 
16 5 17 -7 16 -6 17 -2 18 -1 18 -3 18 6 19 3 
19 -3 20 -11 20 0 21 3 22 -9 22 -7 23 -11 23 5 
24 4 26 8 26 -14 27 -15 27 12 30 -6 30 9 31 1 
33 4 35 -14 36 -6 38 0 40 -2 42 3 45 -11 48 -3 
51 -12 54 -17 59 1 65 2 70 -4 77 -15 87 -17 98 23 
113 -15 133 -4 163 35 208 31 289 76 481 129 920 1323 79 MP stroke
gs 811 1214 3399 494 rc
  54   54  920 1323 FO
  54   54 1401 1452 FO
  54   54 1690 1528 FO
  54   54 1898 1559 FO
  54   54 2061 1594 FO
  54   54 2194 1590 FO
  54   54 2307 1575 FO
  54   54 2405 1598 FO
  54   54 2492 1581 FO
  54   54 2569 1566 FO
  54   54 2639 1562 FO
  54   54 2704 1564 FO
  54   54 2763 1565 FO
  54   54 2817 1548 FO
  54   54 2868 1536 FO
  54   54 2916 1533 FO
  54   54 2961 1522 FO
  54   54 3003 1525 FO
  54   54 3043 1523 FO
  54   54 3081 1523 FO
  54   54 3117 1517 FO
  54   54 3152 1503 FO
  54   54 3185 1507 FO
  54   54 3216 1508 FO
  54   54 3246 1517 FO
  54   54 3276 1511 FO
  54   54 3303 1523 FO
  54   54 3330 1508 FO
  54   54 3356 1494 FO
  54   54 3382 1502 FO
  54   54 3406 1506 FO
  54   54 3429 1511 FO
  54   54 3452 1500 FO
  54   54 3474 1493 FO
  54   54 3496 1484 FO
  54   54 3517 1487 FO
  54   54 3537 1487 FO
  54   54 3557 1476 FO
  54   54 3576 1473 FO
  54   54 3595 1476 FO
  54   54 3613 1482 FO
  54   54 3631 1479 FO
  54   54 3649 1478 FO
  54   54 3666 1476 FO
  54   54 3682 1470 FO
  54   54 3699 1463 FO
  54   54 3715 1468 FO
  54   54 3730 1472 FO
  54   54 3746 1461 FO
  54   54 3761 1479 FO
  54   54 3775 1479 FO
  54   54 3790 1470 FO
  54   54 3804 1477 FO
  54   54 3818 1484 FO
  54   54 3831 1467 FO
  54   54 3845 1468 FO
  54   54 3858 1460 FO
  54   54 3871 1466 FO
  54   54 3884 1457 FO
  54   54 3896 1460 FO
  54   54 3908 1455 FO
  54   54 3920 1456 FO
  54   54 3932 1455 FO
  54   54 3944 1464 FO
  54   54 3956 1454 FO
  54   54 3967 1455 FO
  54   54 3978 1465 FO
  54   54 3989 1472 FO
  54   54 4000 1457 FO
  54   54 4011 1459 FO
  54   54 4021 1463 FO
  54   54 4031 1474 FO
  54   54 4042 1469 FO
  54   54 4052 1466 FO
  54   54 4062 1465 FO
  54   54 4072 1461 FO
  54   54 4081 1455 FO
  54   54 4091 1464 FO
  54   54 4100 1454 FO
gr

/c10 { 0.500000 0.000000 0.000000 sr} bdef
c10
9 -1 10 1 9 -1 10 -1 10 -4 10 -2 11 -1 10 -8 
10 0 11 2 11 5 11 3 11 3 11 5 12 -1 12 6 
12 -12 12 4 12 -4 12 3 13 -3 13 -10 13 -1 14 -2 
13 0 14 -6 14 3 15 2 14 -1 15 3 16 2 15 -11 
16 0 17 7 16 -4 17 8 18 -3 18 -5 18 0 19 -14 
19 4 20 8 20 0 21 0 22 10 22 0 23 -1 23 -2 
24 -2 26 5 26 -9 27 -8 27 10 30 3 30 1 31 2 
33 -4 35 -6 36 -5 38 1 40 -6 42 -1 45 1 48 -14 
51 -6 54 8 59 5 65 9 70 1 77 5 87 0 98 1 
113 2 133 6 163 18 208 13 289 19 481 36 920 1212 79 MP stroke
gs 811 1103 3399 342 rc
 882 1174 mt  958 1250 L
 958 1174 mt  882 1250 L
1363 1210 mt 1439 1286 L
1439 1210 mt 1363 1286 L
1652 1229 mt 1728 1305 L
1728 1229 mt 1652 1305 L
1860 1242 mt 1936 1318 L
1936 1242 mt 1860 1318 L
2023 1260 mt 2099 1336 L
2099 1260 mt 2023 1336 L
2156 1266 mt 2232 1342 L
2232 1266 mt 2156 1342 L
2269 1268 mt 2345 1344 L
2345 1268 mt 2269 1344 L
2367 1269 mt 2443 1345 L
2443 1269 mt 2367 1345 L
2454 1269 mt 2530 1345 L
2530 1269 mt 2454 1345 L
2531 1274 mt 2607 1350 L
2607 1274 mt 2531 1350 L
2601 1275 mt 2677 1351 L
2677 1275 mt 2601 1351 L
2666 1284 mt 2742 1360 L
2742 1284 mt 2666 1360 L
2725 1289 mt 2801 1365 L
2801 1289 mt 2725 1365 L
2779 1297 mt 2855 1373 L
2855 1297 mt 2779 1373 L
2830 1291 mt 2906 1367 L
2906 1291 mt 2830 1367 L
2878 1277 mt 2954 1353 L
2954 1277 mt 2878 1353 L
2923 1278 mt 2999 1354 L
2999 1278 mt 2923 1354 L
2965 1277 mt 3041 1353 L
3041 1277 mt 2965 1353 L
3005 1271 mt 3081 1347 L
3081 1271 mt 3005 1347 L
3043 1272 mt 3119 1348 L
3119 1272 mt 3043 1348 L
3079 1267 mt 3155 1343 L
3155 1267 mt 3079 1343 L
3114 1261 mt 3190 1337 L
3190 1261 mt 3114 1337 L
3147 1257 mt 3223 1333 L
3223 1257 mt 3147 1333 L
3178 1259 mt 3254 1335 L
3254 1259 mt 3178 1335 L
3208 1260 mt 3284 1336 L
3284 1260 mt 3208 1336 L
3238 1263 mt 3314 1339 L
3314 1263 mt 3238 1339 L
3265 1273 mt 3341 1349 L
3341 1273 mt 3265 1349 L
3292 1265 mt 3368 1341 L
3368 1265 mt 3292 1341 L
3318 1256 mt 3394 1332 L
3394 1256 mt 3318 1332 L
3344 1261 mt 3420 1337 L
3420 1261 mt 3344 1337 L
3368 1259 mt 3444 1335 L
3444 1259 mt 3368 1335 L
3391 1257 mt 3467 1333 L
3467 1257 mt 3391 1333 L
3414 1256 mt 3490 1332 L
3490 1256 mt 3414 1332 L
3436 1256 mt 3512 1332 L
3512 1256 mt 3436 1332 L
3458 1266 mt 3534 1342 L
3534 1266 mt 3458 1342 L
3479 1266 mt 3555 1342 L
3555 1266 mt 3479 1342 L
3499 1266 mt 3575 1342 L
3575 1266 mt 3499 1342 L
3519 1274 mt 3595 1350 L
3595 1274 mt 3519 1350 L
3538 1278 mt 3614 1354 L
3614 1278 mt 3538 1354 L
3557 1264 mt 3633 1340 L
3633 1264 mt 3557 1340 L
3575 1264 mt 3651 1340 L
3651 1264 mt 3575 1340 L
3593 1259 mt 3669 1335 L
3669 1259 mt 3593 1335 L
3611 1256 mt 3687 1332 L
3687 1256 mt 3611 1332 L
3628 1264 mt 3704 1340 L
3704 1264 mt 3628 1340 L
3644 1260 mt 3720 1336 L
3720 1260 mt 3644 1336 L
3661 1267 mt 3737 1343 L
3737 1267 mt 3661 1343 L
3677 1267 mt 3753 1343 L
3753 1267 mt 3677 1343 L
3692 1256 mt 3768 1332 L
3768 1256 mt 3692 1332 L
3708 1258 mt 3784 1334 L
3784 1258 mt 3708 1334 L
3723 1261 mt 3799 1337 L
3799 1261 mt 3723 1337 L
3737 1260 mt 3813 1336 L
3813 1260 mt 3737 1336 L
3752 1262 mt 3828 1338 L
3828 1262 mt 3752 1338 L
3766 1265 mt 3842 1341 L
3842 1265 mt 3766 1341 L
3780 1259 mt 3856 1335 L
3856 1259 mt 3780 1335 L
3793 1259 mt 3869 1335 L
3869 1259 mt 3793 1335 L
3807 1257 mt 3883 1333 L
3883 1257 mt 3807 1333 L
3820 1256 mt 3896 1332 L
3896 1256 mt 3820 1332 L
3833 1246 mt 3909 1322 L
3909 1246 mt 3833 1322 L
3846 1243 mt 3922 1319 L
3922 1243 mt 3846 1319 L
3858 1246 mt 3934 1322 L
3934 1246 mt 3858 1322 L
3870 1242 mt 3946 1318 L
3946 1242 mt 3870 1318 L
3882 1246 mt 3958 1322 L
3958 1246 mt 3882 1322 L
3894 1234 mt 3970 1310 L
3970 1234 mt 3894 1310 L
3906 1240 mt 3982 1316 L
3982 1240 mt 3906 1316 L
3918 1239 mt 3994 1315 L
3994 1239 mt 3918 1315 L
3929 1244 mt 4005 1320 L
4005 1244 mt 3929 1320 L
3940 1247 mt 4016 1323 L
4016 1247 mt 3940 1323 L
3951 1250 mt 4027 1326 L
4027 1250 mt 3951 1326 L
3962 1255 mt 4038 1331 L
4038 1255 mt 3962 1331 L
3973 1257 mt 4049 1333 L
4049 1257 mt 3973 1333 L
3983 1257 mt 4059 1333 L
4059 1257 mt 3983 1333 L
3993 1249 mt 4069 1325 L
4069 1249 mt 3993 1325 L
4004 1248 mt 4080 1324 L
4080 1248 mt 4004 1324 L
4014 1246 mt 4090 1322 L
4090 1246 mt 4014 1322 L
4024 1242 mt 4100 1318 L
4100 1242 mt 4024 1318 L
4034 1241 mt 4110 1317 L
4110 1241 mt 4034 1317 L
4043 1240 mt 4119 1316 L
4119 1240 mt 4043 1316 L
4053 1241 mt 4129 1317 L
4129 1241 mt 4053 1317 L
4062 1240 mt 4138 1316 L
4138 1240 mt 4062 1316 L
gr

/c11 { 0.000000 0.500000 0.500000 sr} bdef
c11
9 0 10 1 9 -1 10 1 10 -1 10 0 11 -1 10 -2 
10 -2 11 1 11 -1 11 3 11 1 11 0 12 2 12 5 
12 -1 12 0 12 -5 12 -3 13 1 13 1 13 0 14 -2 
13 -2 14 -2 14 2 15 6 14 -3 15 -1 16 3 15 1 
16 0 17 -1 16 4 17 -4 18 -3 18 1 18 2 19 3 
19 -5 20 2 20 3 21 -3 22 2 22 12 23 -5 23 1 
24 2 26 -1 26 2 27 1 27 -4 30 3 30 -2 31 1 
33 0 35 -3 36 2 38 -6 40 -2 42 5 45 6 48 -1 
51 1 54 -2 59 -2 65 2 70 0 77 1 87 -9 98 -7 
113 -5 133 -9 163 -6 208 -5 289 -2 481 -12 920 1156 79 MP stroke
gs 811 991 3399 275 rc
0 j
0 -86 -86 0 0 86 86 0 877 1113 5 MP
DP
0 -86 -86 0 0 86 86 0 1358 1101 5 MP
DP
0 -86 -86 0 0 86 86 0 1647 1099 5 MP
DP
0 -86 -86 0 0 86 86 0 1855 1094 5 MP
DP
0 -86 -86 0 0 86 86 0 2018 1088 5 MP
DP
0 -86 -86 0 0 86 86 0 2151 1079 5 MP
DP
0 -86 -86 0 0 86 86 0 2264 1074 5 MP
DP
0 -86 -86 0 0 86 86 0 2362 1067 5 MP
DP
0 -86 -86 0 0 86 86 0 2449 1058 5 MP
DP
0 -86 -86 0 0 86 86 0 2526 1059 5 MP
DP
0 -86 -86 0 0 86 86 0 2596 1059 5 MP
DP
0 -86 -86 0 0 86 86 0 2661 1061 5 MP
DP
0 -86 -86 0 0 86 86 0 2720 1059 5 MP
DP
0 -86 -86 0 0 86 86 0 2774 1057 5 MP
DP
0 -86 -86 0 0 86 86 0 2825 1058 5 MP
DP
0 -86 -86 0 0 86 86 0 2873 1057 5 MP
DP
0 -86 -86 0 0 86 86 0 2918 1063 5 MP
DP
0 -86 -86 0 0 86 86 0 2960 1068 5 MP
DP
0 -86 -86 0 0 86 86 0 3000 1066 5 MP
DP
0 -86 -86 0 0 86 86 0 3038 1060 5 MP
DP
0 -86 -86 0 0 86 86 0 3074 1062 5 MP
DP
0 -86 -86 0 0 86 86 0 3109 1059 5 MP
DP
0 -86 -86 0 0 86 86 0 3142 1059 5 MP
DP
0 -86 -86 0 0 86 86 0 3173 1060 5 MP
DP
0 -86 -86 0 0 86 86 0 3203 1058 5 MP
DP
0 -86 -86 0 0 86 86 0 3233 1061 5 MP
DP
0 -86 -86 0 0 86 86 0 3260 1057 5 MP
DP
0 -86 -86 0 0 86 86 0 3287 1058 5 MP
DP
0 -86 -86 0 0 86 86 0 3313 1060 5 MP
DP
0 -86 -86 0 0 86 86 0 3339 1059 5 MP
DP
0 -86 -86 0 0 86 86 0 3363 1061 5 MP
DP
0 -86 -86 0 0 86 86 0 3386 1062 5 MP
DP
0 -86 -86 0 0 86 86 0 3409 1057 5 MP
DP
0 -86 -86 0 0 86 86 0 3431 1069 5 MP
DP
0 -86 -86 0 0 86 86 0 3453 1071 5 MP
DP
0 -86 -86 0 0 86 86 0 3474 1068 5 MP
DP
0 -86 -86 0 0 86 86 0 3494 1071 5 MP
DP
0 -86 -86 0 0 86 86 0 3514 1073 5 MP
DP
0 -86 -86 0 0 86 86 0 3533 1068 5 MP
DP
0 -86 -86 0 0 86 86 0 3552 1071 5 MP
DP
0 -86 -86 0 0 86 86 0 3570 1073 5 MP
DP
0 -86 -86 0 0 86 86 0 3588 1074 5 MP
DP
0 -86 -86 0 0 86 86 0 3606 1071 5 MP
DP
0 -86 -86 0 0 86 86 0 3623 1067 5 MP
DP
0 -86 -86 0 0 86 86 0 3639 1071 5 MP
DP
0 -86 -86 0 0 86 86 0 3656 1070 5 MP
DP
0 -86 -86 0 0 86 86 0 3672 1070 5 MP
DP
0 -86 -86 0 0 86 86 0 3687 1071 5 MP
DP
0 -86 -86 0 0 86 86 0 3703 1074 5 MP
DP
0 -86 -86 0 0 86 86 0 3718 1073 5 MP
DP
0 -86 -86 0 0 86 86 0 3732 1070 5 MP
DP
0 -86 -86 0 0 86 86 0 3747 1076 5 MP
DP
0 -86 -86 0 0 86 86 0 3761 1078 5 MP
DP
0 -86 -86 0 0 86 86 0 3775 1076 5 MP
DP
0 -86 -86 0 0 86 86 0 3788 1074 5 MP
DP
0 -86 -86 0 0 86 86 0 3802 1072 5 MP
DP
0 -86 -86 0 0 86 86 0 3815 1072 5 MP
DP
0 -86 -86 0 0 86 86 0 3828 1073 5 MP
DP
0 -86 -86 0 0 86 86 0 3841 1074 5 MP
DP
0 -86 -86 0 0 86 86 0 3853 1071 5 MP
DP
0 -86 -86 0 0 86 86 0 3865 1066 5 MP
DP
0 -86 -86 0 0 86 86 0 3877 1066 5 MP
DP
0 -86 -86 0 0 86 86 0 3889 1065 5 MP
DP
0 -86 -86 0 0 86 86 0 3901 1070 5 MP
DP
0 -86 -86 0 0 86 86 0 3913 1072 5 MP
DP
0 -86 -86 0 0 86 86 0 3924 1072 5 MP
DP
0 -86 -86 0 0 86 86 0 3935 1073 5 MP
DP
0 -86 -86 0 0 86 86 0 3946 1076 5 MP
DP
0 -86 -86 0 0 86 86 0 3957 1075 5 MP
DP
0 -86 -86 0 0 86 86 0 3968 1076 5 MP
DP
0 -86 -86 0 0 86 86 0 3978 1074 5 MP
DP
0 -86 -86 0 0 86 86 0 3988 1072 5 MP
DP
0 -86 -86 0 0 86 86 0 3999 1071 5 MP
DP
0 -86 -86 0 0 86 86 0 4009 1071 5 MP
DP
0 -86 -86 0 0 86 86 0 4019 1070 5 MP
DP
0 -86 -86 0 0 86 86 0 4029 1071 5 MP
DP
0 -86 -86 0 0 86 86 0 4038 1070 5 MP
DP
0 -86 -86 0 0 86 86 0 4048 1071 5 MP
DP
0 -86 -86 0 0 86 86 0 4057 1071 5 MP
DP
gr

gr

10.8 w
c11
0 sg
%%IncludeResource: font AvantGarde-Demi
/AvantGarde-Demi /ISOLatin1Encoding 228 FMSR

1949  232 mt 
(\(1+1\) - ES) s
0.3 sg
%%IncludeResource: font AvantGarde-Book
/AvantGarde-Book /ISOLatin1Encoding 180 FMSR

1988 3559 mt 
(log\(nbEval\)) s
 185 2177 mt  -90 rotate
(slope \(SR\)) s
90 rotate
0 sg
%%IncludeResource: font Helvetica
/Helvetica /ISOLatin1Encoding 120 FMSR

 607 3193 mt 
( ) s
4328  399 mt 
( ) s
6 w
1 sg
0 626 886 0 0 -626 3399 1043 4 MP
PP
-886 0 0 626 886 0 0 -626 3399 1043 5 MP stroke
4 w
DO
SO
6 w
0 sg
3399 1043 mt 4285 1043 L
3399  417 mt 4285  417 L
3399 1043 mt 3399  417 L
4285 1043 mt 4285  417 L
3399 1043 mt 4285 1043 L
3399 1043 mt 3399  417 L
3399 1043 mt 4285 1043 L
3399  417 mt 4285  417 L
3399 1043 mt 3399  417 L
4285 1043 mt 4285  417 L
3877  553 mt 
(Dim 2) s
gs 3399 417 887 627 rc
10.8 w
c8
367 0 3472 510 2 MP stroke
gr

10.8 w
c8
gs 3546 401 219 219 rc
3601  510 mt 3709  510 L
3655  456 mt 3655  564 L
gr

gs 3399 417 887 627 rc
gr

0 sg
3877  699 mt 
(Dim 4) s
gs 3399 417 887 627 rc
c9
367 0 3472 656 2 MP stroke
gs 3546 547 219 219 rc
  54   54 3655  656 FO
gr

gr

c9
0 sg
3877  846 mt 
(Dim 8) s
gs 3399 417 887 627 rc
c10
367 0 3472 803 2 MP stroke
gs 3546 694 219 219 rc
3617  765 mt 3693  841 L
3693  765 mt 3617  841 L
gr

gr

c10
0 sg
3877  992 mt 
(Dim 16) s
gs 3399 417 887 627 rc
c11
367 0 3472 949 2 MP stroke
gr

c11
gs 3546 840 219 219 rc
0 j
0 -86 -86 0 0 86 86 0 3612 906 5 MP
DP
gr

gs 3399 417 887 627 rc
6 w
gr

6 w

end %%Color Dict

eplot
%%EndObject

epage
end

showpage

%%Trailer
%%EOF
