%!PS-Adobe-3.0 EPSF-3.0
%%Creator: MATLAB, The MathWorks, Inc. Version 7.14.0.739 (R2012a). Operating System: Linux 3.13.0-35-generic #62-Ubuntu SMP Fri Aug 15 01:58:42 UTC 2014 x86_64.
%%Title: ./oneplusone_esareslow_lognbeval_reval8_1.eps
%%CreationDate: 08/29/2014  22:33:48
%%DocumentNeededFonts: Helvetica
%%+ AvantGarde-Book
%%+ AvantGarde-Demi
%%DocumentProcessColors: Cyan Magenta Yellow Black
%%LanguageLevel: 2
%%Pages: 1
%%BoundingBox:   105   246   477   550
%%EndComments

%%BeginProlog
% MathWorks dictionary
/MathWorks 160 dict begin
% definition operators
/bdef {bind def} bind def
/ldef {load def} bind def
/xdef {exch def} bdef
/xstore {exch store} bdef
% operator abbreviations
/c  /clip ldef
/cc /concat ldef
/cp /closepath ldef
/gr /grestore ldef
/gs /gsave ldef
/mt /moveto ldef
/np /newpath ldef
/cm /currentmatrix ldef
/sm /setmatrix ldef
/rm /rmoveto ldef
/rl /rlineto ldef
/s {show newpath} bdef
/sc {setcmykcolor} bdef
/sr /setrgbcolor ldef
/sg /setgray ldef
/w /setlinewidth ldef
/j /setlinejoin ldef
/cap /setlinecap ldef
/rc {rectclip} bdef
/rf {rectfill} bdef
% page state control
/pgsv () def
/bpage {/pgsv save def} bdef
/epage {pgsv restore} bdef
/bplot /gsave ldef
/eplot {stroke grestore} bdef
% orientation switch
/portraitMode 0 def /landscapeMode 1 def /rotateMode 2 def
% coordinate system mappings
/dpi2point 0 def
% font control
/FontSize 0 def
/FMS {/FontSize xstore findfont [FontSize 0 0 FontSize neg 0 0]
  makefont setfont} bdef
/reencode {exch dup where {pop load} {pop StandardEncoding} ifelse
  exch dup 3 1 roll findfont dup length dict begin
  { 1 index /FID ne {def}{pop pop} ifelse } forall
  /Encoding exch def currentdict end definefont pop} bdef
/isroman {findfont /CharStrings get /Agrave known} bdef
/FMSR {3 1 roll 1 index dup isroman {reencode} {pop pop} ifelse
  exch FMS} bdef
/csm {1 dpi2point div -1 dpi2point div scale neg translate
 dup landscapeMode eq {pop -90 rotate}
  {rotateMode eq {90 rotate} if} ifelse} bdef
% line types: solid, dotted, dashed, dotdash
/SO { [] 0 setdash } bdef
/DO { [.5 dpi2point mul 4 dpi2point mul] 0 setdash } bdef
/DA { [6 dpi2point mul] 0 setdash } bdef
/DD { [.5 dpi2point mul 4 dpi2point mul 6 dpi2point mul 4
  dpi2point mul] 0 setdash } bdef
% macros for lines and objects
/L {lineto stroke} bdef
/MP {3 1 roll moveto 1 sub {rlineto} repeat} bdef
/AP {{rlineto} repeat} bdef
/PDlw -1 def
/W {/PDlw currentlinewidth def setlinewidth} def
/PP {closepath eofill} bdef
/DP {closepath stroke} bdef
/MR {4 -2 roll moveto dup  0 exch rlineto exch 0 rlineto
  neg 0 exch rlineto closepath} bdef
/FR {MR stroke} bdef
/PR {MR fill} bdef
/L1i {{currentfile picstr readhexstring pop} image} bdef
/tMatrix matrix def
/MakeOval {newpath tMatrix currentmatrix pop translate scale
0 0 1 0 360 arc tMatrix setmatrix} bdef
/FO {MakeOval stroke} bdef
/PO {MakeOval fill} bdef
/PD {currentlinewidth 2 div 0 360 arc fill
   PDlw -1 eq not {PDlw w /PDlw -1 def} if} def
/FA {newpath tMatrix currentmatrix pop translate scale
  0 0 1 5 -2 roll arc tMatrix setmatrix stroke} bdef
/PA {newpath tMatrix currentmatrix pop	translate 0 0 moveto scale
  0 0 1 5 -2 roll arc closepath tMatrix setmatrix fill} bdef
/FAn {newpath tMatrix currentmatrix pop translate scale
  0 0 1 5 -2 roll arcn tMatrix setmatrix stroke} bdef
/PAn {newpath tMatrix currentmatrix pop translate 0 0 moveto scale
  0 0 1 5 -2 roll arcn closepath tMatrix setmatrix fill} bdef
/vradius 0 def /hradius 0 def /lry 0 def
/lrx 0 def /uly 0 def /ulx 0 def /rad 0 def
/MRR {/vradius xdef /hradius xdef /lry xdef /lrx xdef /uly xdef
  /ulx xdef newpath tMatrix currentmatrix pop ulx hradius add uly
  vradius add translate hradius vradius scale 0 0 1 180 270 arc 
  tMatrix setmatrix lrx hradius sub uly vradius add translate
  hradius vradius scale 0 0 1 270 360 arc tMatrix setmatrix
  lrx hradius sub lry vradius sub translate hradius vradius scale
  0 0 1 0 90 arc tMatrix setmatrix ulx hradius add lry vradius sub
  translate hradius vradius scale 0 0 1 90 180 arc tMatrix setmatrix
  closepath} bdef
/FRR {MRR stroke } bdef
/PRR {MRR fill } bdef
/MlrRR {/lry xdef /lrx xdef /uly xdef /ulx xdef /rad lry uly sub 2 div def
  newpath tMatrix currentmatrix pop ulx rad add uly rad add translate
  rad rad scale 0 0 1 90 270 arc tMatrix setmatrix lrx rad sub lry rad
  sub translate rad rad scale 0 0 1 270 90 arc tMatrix setmatrix
  closepath} bdef
/FlrRR {MlrRR stroke } bdef
/PlrRR {MlrRR fill } bdef
/MtbRR {/lry xdef /lrx xdef /uly xdef /ulx xdef /rad lrx ulx sub 2 div def
  newpath tMatrix currentmatrix pop ulx rad add uly rad add translate
  rad rad scale 0 0 1 180 360 arc tMatrix setmatrix lrx rad sub lry rad
  sub translate rad rad scale 0 0 1 0 180 arc tMatrix setmatrix
  closepath} bdef
/FtbRR {MtbRR stroke } bdef
/PtbRR {MtbRR fill } bdef
/stri 6 array def /dtri 6 array def
/smat 6 array def /dmat 6 array def
/tmat1 6 array def /tmat2 6 array def /dif 3 array def
/asub {/ind2 exch def /ind1 exch def dup dup
  ind1 get exch ind2 get sub exch } bdef
/tri_to_matrix {
  2 0 asub 3 1 asub 4 0 asub 5 1 asub
  dup 0 get exch 1 get 7 -1 roll astore } bdef
/compute_transform {
  dmat dtri tri_to_matrix tmat1 invertmatrix 
  smat stri tri_to_matrix tmat2 concatmatrix } bdef
/ds {stri astore pop} bdef
/dt {dtri astore pop} bdef
/db {2 copy /cols xdef /rows xdef mul dup 3 mul string
  currentfile 
  3 index 0 eq {/ASCIIHexDecode filter}
  {/ASCII85Decode filter 3 index 2 eq {/RunLengthDecode filter} if }
  ifelse exch readstring pop
  dup 0 3 index getinterval /rbmap xdef
  dup 2 index dup getinterval /gbmap xdef
  1 index dup 2 mul exch getinterval /bbmap xdef pop pop}bdef
/it {gs np dtri aload pop moveto lineto lineto cp c
  cols rows 8 compute_transform 
  rbmap gbmap bbmap true 3 colorimage gr}bdef
/il {newpath moveto lineto stroke}bdef
currentdict end def
%%EndProlog

%%BeginSetup
MathWorks begin

0 cap

end
%%EndSetup

%%Page: 1 1
%%BeginPageSetup
%%PageBoundingBox:   105   246   477   550
MathWorks begin
bpage
%%EndPageSetup

%%BeginObject: obj1
bplot

/dpi2point 12 def
portraitMode 1260 6552 csm

    0   -48  4467  3648 rc
89 dict begin %Colortable dictionary
/c0 { 0.000000 0.000000 0.000000 sr} bdef
/c1 { 1.000000 1.000000 1.000000 sr} bdef
/c2 { 0.900000 0.000000 0.000000 sr} bdef
/c3 { 0.000000 0.820000 0.000000 sr} bdef
/c4 { 0.000000 0.000000 0.800000 sr} bdef
/c5 { 0.910000 0.820000 0.320000 sr} bdef
/c6 { 1.000000 0.260000 0.820000 sr} bdef
/c7 { 0.000000 0.820000 0.820000 sr} bdef
c0
1 j
1 sg
   0    0 4801 3601 rf
6 w
0 2793 3720 0 0 -2793 624 3150 4 MP
PP
-3720 0 0 2793 3720 0 0 -2793 624 3150 5 MP stroke
4 w
DO
0.3 sg
 624 2821 mt 4344 2821 L
4344 2821 mt 4344 2821 L
 624 1999 mt 4344 1999 L
4344 1999 mt 4344 1999 L
 624 1178 mt 4344 1178 L
4344 1178 mt 4344 1178 L
SO
6 w
 624 3150 mt 4344 3150 L
 624 3150 mt  624  357 L
 624 3150 mt  624 3224 L
%%IncludeResource: font Helvetica
/Helvetica /ISOLatin1Encoding 120 FMSR

 591 3369 mt 
(0) s
 748 3150 mt  748 3187 L
 872 3150 mt  872 3187 L
 996 3150 mt  996 3187 L
1120 3150 mt 1120 3187 L
1244 3150 mt 1244 3187 L
1244 3150 mt 1244 3187 L
1244 3150 mt 1244 3187 L
1244 3150 mt 1244 3187 L
1244 3150 mt 1244 3187 L
1244 3150 mt 1244 3224 L
1178 3369 mt 
(10) s
1368 3150 mt 1368 3187 L
1492 3150 mt 1492 3187 L
1616 3150 mt 1616 3187 L
1740 3150 mt 1740 3187 L
1864 3150 mt 1864 3187 L
1864 3150 mt 1864 3187 L
1864 3150 mt 1864 3187 L
1864 3150 mt 1864 3187 L
1864 3150 mt 1864 3187 L
1864 3150 mt 1864 3224 L
1798 3369 mt 
(20) s
1988 3150 mt 1988 3187 L
2112 3150 mt 2112 3187 L
2236 3150 mt 2236 3187 L
2360 3150 mt 2360 3187 L
2484 3150 mt 2484 3187 L
2484 3150 mt 2484 3187 L
2484 3150 mt 2484 3187 L
2484 3150 mt 2484 3187 L
2484 3150 mt 2484 3187 L
2484 3150 mt 2484 3224 L
2418 3369 mt 
(30) s
2608 3150 mt 2608 3187 L
2732 3150 mt 2732 3187 L
2856 3150 mt 2856 3187 L
2980 3150 mt 2980 3187 L
3104 3150 mt 3104 3187 L
3104 3150 mt 3104 3187 L
3104 3150 mt 3104 3187 L
3104 3150 mt 3104 3187 L
3104 3150 mt 3104 3187 L
3104 3150 mt 3104 3224 L
3038 3369 mt 
(40) s
3228 3150 mt 3228 3187 L
3352 3150 mt 3352 3187 L
3476 3150 mt 3476 3187 L
3600 3150 mt 3600 3187 L
3724 3150 mt 3724 3187 L
3724 3150 mt 3724 3187 L
3724 3150 mt 3724 3187 L
3724 3150 mt 3724 3187 L
3724 3150 mt 3724 3187 L
3724 3150 mt 3724 3224 L
3658 3369 mt 
(50) s
3848 3150 mt 3848 3187 L
3972 3150 mt 3972 3187 L
4096 3150 mt 4096 3187 L
4220 3150 mt 4220 3187 L
4344 3150 mt 4344 3187 L
4344 3150 mt 4344 3187 L
4344 3150 mt 4344 3187 L
4344 3150 mt 4344 3187 L
4344 3150 mt 4344 3187 L
4344 3150 mt 4344 3224 L
4278 3369 mt 
(60) s
 624 2903 mt  586 2903 L
 624 2985 mt  586 2985 L
 624 3067 mt  586 3067 L
 624 3150 mt  586 3150 L
 624 2821 mt  549 2821 L
 379 2865 mt 
(-1) s
 624 2739 mt  586 2739 L
 624 2657 mt  586 2657 L
 624 2574 mt  586 2574 L
 624 2492 mt  586 2492 L
 624 2410 mt  586 2410 L
 624 2328 mt  586 2328 L
 624 2246 mt  586 2246 L
 624 2164 mt  586 2164 L
 624 2082 mt  586 2082 L
 624 1999 mt  549 1999 L
 279 2043 mt 
(-0.5) s
 624 1917 mt  586 1917 L
 624 1835 mt  586 1835 L
 624 1753 mt  586 1753 L
 624 1671 mt  586 1671 L
 624 1589 mt  586 1589 L
 624 1507 mt  586 1507 L
 624 1424 mt  586 1424 L
 624 1342 mt  586 1342 L
 624 1260 mt  586 1260 L
 624 1178 mt  549 1178 L
 449 1222 mt 
(0) s
 624 1096 mt  586 1096 L
 624 1014 mt  586 1014 L
 624  932 mt  586  932 L
 624  849 mt  586  849 L
 624  767 mt  586  767 L
 624  685 mt  586  685 L
 624  603 mt  586  603 L
 624  521 mt  586  521 L
 624  439 mt  586  439 L
gs 624 357 3721 2794 rc
10.8 w
/c8 { 0.000000 0.500000 0.000000 sr} bdef
c8
42 1 43 4 43 -1 42 -2 43 -2 42 1 43 1 42 2 
43 -2 43 -3 42 -1 43 0 42 0 43 1 42 0 43 0 
43 -1 42 2 43 1 42 -3 43 1 42 2 43 -2 43 -1 
42 -2 43 -1 42 1 43 -1 42 2 43 -2 43 -3 42 1 
43 -1 42 0 43 0 42 7 43 -5 43 -2 42 2 43 0 
42 -8 43 3 42 2 43 1 43 -3 42 -1 43 -4 42 2 
43 -2 42 -1 43 -1 43 -3 42 4 43 3 42 -10 43 -2 
42 2 43 2 43 -2 42 -6 43 0 42 7 43 -5 42 -14 
43 -14 43 10 42 -16 43 4 42 6 43 -2 42 -8 42 -25 
43 -3 42 0 42 52 44 41 47 150 59 260 775 1601 79 MP stroke
gs 666 1492 3560 722 rc
 721 1601 mt  829 1601 L
 775 1547 mt  775 1655 L
 780 1861 mt  888 1861 L
 834 1807 mt  834 1915 L
 827 2011 mt  935 2011 L
 881 1957 mt  881 2065 L
 871 2052 mt  979 2052 L
 925 1998 mt  925 2106 L
 913 2104 mt 1021 2104 L
 967 2050 mt  967 2158 L
 955 2104 mt 1063 2104 L
1009 2050 mt 1009 2158 L
 998 2101 mt 1106 2101 L
1052 2047 mt 1052 2155 L
1040 2076 mt 1148 2076 L
1094 2022 mt 1094 2130 L
1082 2068 mt 1190 2068 L
1136 2014 mt 1136 2122 L
1125 2066 mt 1233 2066 L
1179 2012 mt 1179 2120 L
1167 2072 mt 1275 2072 L
1221 2018 mt 1221 2126 L
1210 2076 mt 1318 2076 L
1264 2022 mt 1264 2130 L
1252 2060 mt 1360 2060 L
1306 2006 mt 1306 2114 L
1295 2070 mt 1403 2070 L
1349 2016 mt 1349 2124 L
1338 2056 mt 1446 2056 L
1392 2002 mt 1392 2110 L
1380 2042 mt 1488 2042 L
1434 1988 mt 1434 2096 L
1423 2037 mt 1531 2037 L
1477 1983 mt 1477 2091 L
1465 2044 mt 1573 2044 L
1519 1990 mt 1519 2098 L
1508 2044 mt 1616 2044 L
1562 1990 mt 1562 2098 L
1550 2038 mt 1658 2038 L
1604 1984 mt 1604 2092 L
1593 2036 mt 1701 2036 L
1647 1982 mt 1647 2090 L
1636 2038 mt 1744 2038 L
1690 1984 mt 1690 2092 L
1678 2040 mt 1786 2040 L
1732 1986 mt 1732 2094 L
1721 2038 mt 1829 2038 L
1775 1984 mt 1775 2092 L
1763 2028 mt 1871 2028 L
1817 1974 mt 1817 2082 L
1806 2031 mt 1914 2031 L
1860 1977 mt 1860 2085 L
1848 2035 mt 1956 2035 L
1902 1981 mt 1902 2089 L
1891 2032 mt 1999 2032 L
1945 1978 mt 1945 2086 L
1934 2031 mt 2042 2031 L
1988 1977 mt 1988 2085 L
1976 2030 mt 2084 2030 L
2030 1976 mt 2030 2084 L
2019 2028 mt 2127 2028 L
2073 1974 mt 2073 2082 L
2061 2030 mt 2169 2030 L
2115 1976 mt 2115 2084 L
2104 2026 mt 2212 2026 L
2158 1972 mt 2158 2080 L
2146 2025 mt 2254 2025 L
2200 1971 mt 2200 2079 L
2189 2022 mt 2297 2022 L
2243 1968 mt 2243 2076 L
2232 2023 mt 2340 2023 L
2286 1969 mt 2286 2077 L
2274 2025 mt 2382 2025 L
2328 1971 mt 2328 2079 L
2317 2028 mt 2425 2028 L
2371 1974 mt 2371 2082 L
2359 2020 mt 2467 2020 L
2413 1966 mt 2413 2074 L
2402 2020 mt 2510 2020 L
2456 1966 mt 2456 2074 L
2444 2022 mt 2552 2022 L
2498 1968 mt 2498 2076 L
2487 2020 mt 2595 2020 L
2541 1966 mt 2541 2074 L
2530 2015 mt 2638 2015 L
2584 1961 mt 2584 2069 L
2572 2022 mt 2680 2022 L
2626 1968 mt 2626 2076 L
2615 2022 mt 2723 2022 L
2669 1968 mt 2669 2076 L
2657 2022 mt 2765 2022 L
2711 1968 mt 2711 2076 L
2700 2021 mt 2808 2021 L
2754 1967 mt 2754 2075 L
2742 2022 mt 2850 2022 L
2796 1968 mt 2796 2076 L
2785 2019 mt 2893 2019 L
2839 1965 mt 2839 2073 L
2828 2017 mt 2936 2017 L
2882 1963 mt 2882 2071 L
2870 2019 mt 2978 2019 L
2924 1965 mt 2924 2073 L
2913 2018 mt 3021 2018 L
2967 1964 mt 2967 2072 L
2955 2019 mt 3063 2019 L
3009 1965 mt 3009 2073 L
2998 2018 mt 3106 2018 L
3052 1964 mt 3052 2072 L
3040 2016 mt 3148 2016 L
3094 1962 mt 3094 2070 L
3083 2015 mt 3191 2015 L
3137 1961 mt 3137 2069 L
3126 2013 mt 3234 2013 L
3180 1959 mt 3180 2067 L
3168 2015 mt 3276 2015 L
3222 1961 mt 3222 2069 L
3211 2016 mt 3319 2016 L
3265 1962 mt 3265 2070 L
3253 2013 mt 3361 2013 L
3307 1959 mt 3307 2067 L
3296 2014 mt 3404 2014 L
3350 1960 mt 3350 2068 L
3338 2016 mt 3446 2016 L
3392 1962 mt 3392 2070 L
3381 2015 mt 3489 2015 L
3435 1961 mt 3435 2069 L
3424 2015 mt 3532 2015 L
3478 1961 mt 3478 2069 L
3466 2015 mt 3574 2015 L
3520 1961 mt 3520 2069 L
3509 2016 mt 3617 2016 L
3563 1962 mt 3563 2070 L
3551 2016 mt 3659 2016 L
3605 1962 mt 3605 2070 L
3594 2016 mt 3702 2016 L
3648 1962 mt 3648 2070 L
3636 2015 mt 3744 2015 L
3690 1961 mt 3690 2069 L
3679 2012 mt 3787 2012 L
3733 1958 mt 3733 2066 L
3722 2010 mt 3830 2010 L
3776 1956 mt 3776 2064 L
3764 2012 mt 3872 2012 L
3818 1958 mt 3818 2066 L
3807 2013 mt 3915 2013 L
3861 1959 mt 3861 2067 L
3849 2014 mt 3957 2014 L
3903 1960 mt 3903 2068 L
3892 2012 mt 4000 2012 L
3946 1958 mt 3946 2066 L
3934 2010 mt 4042 2010 L
3988 1956 mt 3988 2064 L
3977 2009 mt 4085 2009 L
4031 1955 mt 4031 2063 L
4020 2013 mt 4128 2013 L
4074 1959 mt 4074 2067 L
4062 2014 mt 4170 2014 L
4116 1960 mt 4116 2068 L
gr

/c9 { 0.000000 0.000000 0.500000 sr} bdef
c9
42 1 43 -1 43 -1 42 -1 43 0 42 3 43 1 42 -1 
43 2 43 0 42 -1 43 0 42 -1 43 2 42 1 43 1 
43 1 42 0 43 1 42 -2 43 2 42 -2 43 0 43 2 
42 -1 43 1 42 1 43 0 42 0 43 -1 43 4 42 0 
43 -1 42 -1 43 0 42 1 43 2 43 2 42 -1 43 -2 
42 1 43 1 42 1 43 1 43 5 42 1 43 3 42 2 
43 2 42 2 43 -2 43 1 42 2 43 2 42 -2 43 2 
42 -1 43 2 43 3 42 3 43 12 42 -2 43 3 42 5 
43 8 43 5 42 8 43 5 42 -1 43 22 42 12 42 26 
43 30 42 23 42 60 44 85 47 105 59 144 775 1392 79 MP stroke
gs 666 1283 3560 811 rc
  54   54  775 1392 FO
  54   54  834 1536 FO
  54   54  881 1641 FO
  54   54  925 1726 FO
  54   54  967 1786 FO
  54   54 1009 1809 FO
  54   54 1052 1839 FO
  54   54 1094 1865 FO
  54   54 1136 1877 FO
  54   54 1179 1899 FO
  54   54 1221 1898 FO
  54   54 1264 1903 FO
  54   54 1306 1911 FO
  54   54 1349 1916 FO
  54   54 1392 1924 FO
  54   54 1434 1929 FO
  54   54 1477 1932 FO
  54   54 1519 1930 FO
  54   54 1562 1942 FO
  54   54 1604 1945 FO
  54   54 1647 1948 FO
  54   54 1690 1950 FO
  54   54 1732 1949 FO
  54   54 1775 1951 FO
  54   54 1817 1949 FO
  54   54 1860 1951 FO
  54   54 1902 1953 FO
  54   54 1945 1954 FO
  54   54 1988 1952 FO
  54   54 2030 1954 FO
  54   54 2073 1956 FO
  54   54 2115 1958 FO
  54   54 2158 1961 FO
  54   54 2200 1962 FO
  54   54 2243 1967 FO
  54   54 2286 1968 FO
  54   54 2328 1969 FO
  54   54 2371 1970 FO
  54   54 2413 1971 FO
  54   54 2456 1969 FO
  54   54 2498 1968 FO
  54   54 2541 1970 FO
  54   54 2584 1972 FO
  54   54 2626 1973 FO
  54   54 2669 1973 FO
  54   54 2711 1972 FO
  54   54 2754 1971 FO
  54   54 2796 1971 FO
  54   54 2839 1975 FO
  54   54 2882 1974 FO
  54   54 2924 1974 FO
  54   54 2967 1974 FO
  54   54 3009 1975 FO
  54   54 3052 1976 FO
  54   54 3094 1975 FO
  54   54 3137 1977 FO
  54   54 3180 1977 FO
  54   54 3222 1975 FO
  54   54 3265 1977 FO
  54   54 3307 1975 FO
  54   54 3350 1976 FO
  54   54 3392 1976 FO
  54   54 3435 1977 FO
  54   54 3478 1978 FO
  54   54 3520 1979 FO
  54   54 3563 1981 FO
  54   54 3605 1980 FO
  54   54 3648 1980 FO
  54   54 3690 1979 FO
  54   54 3733 1979 FO
  54   54 3776 1981 FO
  54   54 3818 1980 FO
  54   54 3861 1981 FO
  54   54 3903 1984 FO
  54   54 3946 1984 FO
  54   54 3988 1983 FO
  54   54 4031 1982 FO
  54   54 4074 1981 FO
  54   54 4116 1982 FO
gr

/c10 { 0.500000 0.000000 0.000000 sr} bdef
c10
42 0 43 1 43 2 42 1 43 1 42 1 43 1 42 0 
43 1 43 1 42 2 43 2 42 2 43 1 42 0 43 2 
43 3 42 2 43 1 42 2 43 2 42 2 43 4 43 0 
42 4 43 4 42 0 43 1 42 2 43 3 43 1 42 2 
43 2 42 2 43 3 42 2 43 2 43 3 42 1 43 3 
42 2 43 3 42 2 43 6 43 3 42 2 43 5 42 2 
43 4 42 6 43 8 43 3 42 6 43 7 42 7 43 5 
42 8 43 5 43 3 42 6 43 10 42 11 43 10 42 16 
43 14 43 16 42 14 43 14 42 23 43 26 42 20 42 26 
43 36 42 41 42 41 44 51 47 68 59 67 775 1253 79 MP stroke
gs 666 1144 3560 885 rc
 737 1215 mt  813 1291 L
 813 1215 mt  737 1291 L
 796 1282 mt  872 1358 L
 872 1282 mt  796 1358 L
 843 1350 mt  919 1426 L
 919 1350 mt  843 1426 L
 887 1401 mt  963 1477 L
 963 1401 mt  887 1477 L
 929 1442 mt 1005 1518 L
1005 1442 mt  929 1518 L
 971 1483 mt 1047 1559 L
1047 1483 mt  971 1559 L
1014 1519 mt 1090 1595 L
1090 1519 mt 1014 1595 L
1056 1545 mt 1132 1621 L
1132 1545 mt 1056 1621 L
1098 1565 mt 1174 1641 L
1174 1565 mt 1098 1641 L
1141 1591 mt 1217 1667 L
1217 1591 mt 1141 1667 L
1183 1614 mt 1259 1690 L
1259 1614 mt 1183 1690 L
1226 1628 mt 1302 1704 L
1302 1628 mt 1226 1704 L
1268 1642 mt 1344 1718 L
1344 1642 mt 1268 1718 L
1311 1658 mt 1387 1734 L
1387 1658 mt 1311 1734 L
1354 1672 mt 1430 1748 L
1430 1672 mt 1354 1748 L
1396 1688 mt 1472 1764 L
1472 1688 mt 1396 1764 L
1439 1698 mt 1515 1774 L
1515 1698 mt 1439 1774 L
1481 1709 mt 1557 1785 L
1557 1709 mt 1481 1785 L
1524 1719 mt 1600 1795 L
1600 1719 mt 1524 1795 L
1566 1725 mt 1642 1801 L
1642 1725 mt 1566 1801 L
1609 1728 mt 1685 1804 L
1685 1728 mt 1609 1804 L
1652 1733 mt 1728 1809 L
1728 1733 mt 1652 1809 L
1694 1741 mt 1770 1817 L
1770 1741 mt 1694 1817 L
1737 1746 mt 1813 1822 L
1813 1746 mt 1737 1822 L
1779 1753 mt 1855 1829 L
1855 1753 mt 1779 1829 L
1822 1760 mt 1898 1836 L
1898 1760 mt 1822 1836 L
1864 1766 mt 1940 1842 L
1940 1766 mt 1864 1842 L
1907 1769 mt 1983 1845 L
1983 1769 mt 1907 1845 L
1950 1777 mt 2026 1853 L
2026 1777 mt 1950 1853 L
1992 1783 mt 2068 1859 L
2068 1783 mt 1992 1859 L
2035 1787 mt 2111 1863 L
2111 1787 mt 2035 1863 L
2077 1789 mt 2153 1865 L
2153 1789 mt 2077 1865 L
2120 1794 mt 2196 1870 L
2196 1794 mt 2120 1870 L
2162 1796 mt 2238 1872 L
2238 1796 mt 2162 1872 L
2205 1799 mt 2281 1875 L
2281 1799 mt 2205 1875 L
2248 1805 mt 2324 1881 L
2324 1805 mt 2248 1881 L
2290 1807 mt 2366 1883 L
2366 1807 mt 2290 1883 L
2333 1810 mt 2409 1886 L
2409 1810 mt 2333 1886 L
2375 1812 mt 2451 1888 L
2451 1812 mt 2375 1888 L
2418 1815 mt 2494 1891 L
2494 1815 mt 2418 1891 L
2460 1816 mt 2536 1892 L
2536 1816 mt 2460 1892 L
2503 1819 mt 2579 1895 L
2579 1819 mt 2503 1895 L
2546 1821 mt 2622 1897 L
2622 1821 mt 2546 1897 L
2588 1823 mt 2664 1899 L
2664 1823 mt 2588 1899 L
2631 1826 mt 2707 1902 L
2707 1826 mt 2631 1902 L
2673 1828 mt 2749 1904 L
2749 1828 mt 2673 1904 L
2716 1830 mt 2792 1906 L
2792 1830 mt 2716 1906 L
2758 1832 mt 2834 1908 L
2834 1832 mt 2758 1908 L
2801 1833 mt 2877 1909 L
2877 1833 mt 2801 1909 L
2844 1836 mt 2920 1912 L
2920 1836 mt 2844 1912 L
2886 1838 mt 2962 1914 L
2962 1838 mt 2886 1914 L
2929 1839 mt 3005 1915 L
3005 1839 mt 2929 1915 L
2971 1839 mt 3047 1915 L
3047 1839 mt 2971 1915 L
3014 1843 mt 3090 1919 L
3090 1843 mt 3014 1919 L
3056 1847 mt 3132 1923 L
3132 1847 mt 3056 1923 L
3099 1847 mt 3175 1923 L
3175 1847 mt 3099 1923 L
3142 1851 mt 3218 1927 L
3218 1851 mt 3142 1927 L
3184 1853 mt 3260 1929 L
3260 1853 mt 3184 1929 L
3227 1855 mt 3303 1931 L
3303 1855 mt 3227 1931 L
3269 1857 mt 3345 1933 L
3345 1857 mt 3269 1933 L
3312 1858 mt 3388 1934 L
3388 1858 mt 3312 1934 L
3354 1860 mt 3430 1936 L
3430 1860 mt 3354 1936 L
3397 1863 mt 3473 1939 L
3473 1863 mt 3397 1939 L
3440 1865 mt 3516 1941 L
3516 1865 mt 3440 1941 L
3482 1865 mt 3558 1941 L
3558 1865 mt 3482 1941 L
3525 1866 mt 3601 1942 L
3601 1866 mt 3525 1942 L
3567 1868 mt 3643 1944 L
3643 1868 mt 3567 1944 L
3610 1870 mt 3686 1946 L
3686 1870 mt 3610 1946 L
3652 1872 mt 3728 1948 L
3728 1872 mt 3652 1948 L
3695 1873 mt 3771 1949 L
3771 1873 mt 3695 1949 L
3738 1874 mt 3814 1950 L
3814 1874 mt 3738 1950 L
3780 1874 mt 3856 1950 L
3856 1874 mt 3780 1950 L
3823 1875 mt 3899 1951 L
3899 1875 mt 3823 1951 L
3865 1876 mt 3941 1952 L
3941 1876 mt 3865 1952 L
3908 1877 mt 3984 1953 L
3984 1877 mt 3908 1953 L
3950 1878 mt 4026 1954 L
4026 1878 mt 3950 1954 L
3993 1880 mt 4069 1956 L
4069 1880 mt 3993 1956 L
4036 1881 mt 4112 1957 L
4112 1881 mt 4036 1957 L
4078 1881 mt 4154 1957 L
4154 1881 mt 4078 1957 L
gr

/c11 { 0.000000 0.500000 0.500000 sr} bdef
c11
42 0 43 1 43 1 42 0 43 1 42 0 43 0 42 0 
43 1 43 0 42 1 43 1 42 0 43 1 42 1 43 1 
43 0 42 2 43 1 42 0 43 1 42 1 43 0 43 2 
42 1 43 1 42 0 43 1 42 1 43 0 43 1 42 1 
43 0 42 2 43 1 42 2 43 2 43 1 42 2 43 3 
42 1 43 3 42 2 43 2 43 2 42 3 43 2 42 2 
43 4 42 4 43 2 43 3 42 4 43 5 42 4 43 3 
42 7 43 6 43 4 42 7 43 5 42 7 43 9 42 10 
43 9 43 11 42 11 43 15 42 14 43 18 42 19 42 21 
43 25 42 24 42 24 44 29 47 25 59 17 775 1183 79 MP stroke
gs 666 1074 3560 617 rc
0 j
0 -86 -86 0 0 86 86 0 732 1140 5 MP
DP
0 -86 -86 0 0 86 86 0 791 1157 5 MP
DP
0 -86 -86 0 0 86 86 0 838 1182 5 MP
DP
0 -86 -86 0 0 86 86 0 882 1211 5 MP
DP
0 -86 -86 0 0 86 86 0 924 1235 5 MP
DP
0 -86 -86 0 0 86 86 0 966 1259 5 MP
DP
0 -86 -86 0 0 86 86 0 1009 1284 5 MP
DP
0 -86 -86 0 0 86 86 0 1051 1305 5 MP
DP
0 -86 -86 0 0 86 86 0 1093 1324 5 MP
DP
0 -86 -86 0 0 86 86 0 1136 1342 5 MP
DP
0 -86 -86 0 0 86 86 0 1178 1356 5 MP
DP
0 -86 -86 0 0 86 86 0 1221 1371 5 MP
DP
0 -86 -86 0 0 86 86 0 1263 1382 5 MP
DP
0 -86 -86 0 0 86 86 0 1306 1393 5 MP
DP
0 -86 -86 0 0 86 86 0 1349 1402 5 MP
DP
0 -86 -86 0 0 86 86 0 1391 1412 5 MP
DP
0 -86 -86 0 0 86 86 0 1434 1421 5 MP
DP
0 -86 -86 0 0 86 86 0 1476 1428 5 MP
DP
0 -86 -86 0 0 86 86 0 1519 1433 5 MP
DP
0 -86 -86 0 0 86 86 0 1561 1440 5 MP
DP
0 -86 -86 0 0 86 86 0 1604 1444 5 MP
DP
0 -86 -86 0 0 86 86 0 1647 1450 5 MP
DP
0 -86 -86 0 0 86 86 0 1689 1457 5 MP
DP
0 -86 -86 0 0 86 86 0 1732 1460 5 MP
DP
0 -86 -86 0 0 86 86 0 1774 1464 5 MP
DP
0 -86 -86 0 0 86 86 0 1817 1469 5 MP
DP
0 -86 -86 0 0 86 86 0 1859 1473 5 MP
DP
0 -86 -86 0 0 86 86 0 1902 1476 5 MP
DP
0 -86 -86 0 0 86 86 0 1945 1478 5 MP
DP
0 -86 -86 0 0 86 86 0 1987 1482 5 MP
DP
0 -86 -86 0 0 86 86 0 2030 1486 5 MP
DP
0 -86 -86 0 0 86 86 0 2072 1488 5 MP
DP
0 -86 -86 0 0 86 86 0 2115 1490 5 MP
DP
0 -86 -86 0 0 86 86 0 2157 1493 5 MP
DP
0 -86 -86 0 0 86 86 0 2200 1495 5 MP
DP
0 -86 -86 0 0 86 86 0 2243 1497 5 MP
DP
0 -86 -86 0 0 86 86 0 2285 1499 5 MP
DP
0 -86 -86 0 0 86 86 0 2328 1502 5 MP
DP
0 -86 -86 0 0 86 86 0 2370 1503 5 MP
DP
0 -86 -86 0 0 86 86 0 2413 1506 5 MP
DP
0 -86 -86 0 0 86 86 0 2455 1508 5 MP
DP
0 -86 -86 0 0 86 86 0 2498 1509 5 MP
DP
0 -86 -86 0 0 86 86 0 2541 1511 5 MP
DP
0 -86 -86 0 0 86 86 0 2583 1513 5 MP
DP
0 -86 -86 0 0 86 86 0 2626 1514 5 MP
DP
0 -86 -86 0 0 86 86 0 2668 1516 5 MP
DP
0 -86 -86 0 0 86 86 0 2711 1516 5 MP
DP
0 -86 -86 0 0 86 86 0 2753 1517 5 MP
DP
0 -86 -86 0 0 86 86 0 2796 1518 5 MP
DP
0 -86 -86 0 0 86 86 0 2839 1518 5 MP
DP
0 -86 -86 0 0 86 86 0 2881 1519 5 MP
DP
0 -86 -86 0 0 86 86 0 2924 1520 5 MP
DP
0 -86 -86 0 0 86 86 0 2966 1520 5 MP
DP
0 -86 -86 0 0 86 86 0 3009 1521 5 MP
DP
0 -86 -86 0 0 86 86 0 3051 1522 5 MP
DP
0 -86 -86 0 0 86 86 0 3094 1524 5 MP
DP
0 -86 -86 0 0 86 86 0 3137 1524 5 MP
DP
0 -86 -86 0 0 86 86 0 3179 1525 5 MP
DP
0 -86 -86 0 0 86 86 0 3222 1526 5 MP
DP
0 -86 -86 0 0 86 86 0 3264 1526 5 MP
DP
0 -86 -86 0 0 86 86 0 3307 1527 5 MP
DP
0 -86 -86 0 0 86 86 0 3349 1529 5 MP
DP
0 -86 -86 0 0 86 86 0 3392 1529 5 MP
DP
0 -86 -86 0 0 86 86 0 3435 1530 5 MP
DP
0 -86 -86 0 0 86 86 0 3477 1531 5 MP
DP
0 -86 -86 0 0 86 86 0 3520 1532 5 MP
DP
0 -86 -86 0 0 86 86 0 3562 1532 5 MP
DP
0 -86 -86 0 0 86 86 0 3605 1533 5 MP
DP
0 -86 -86 0 0 86 86 0 3647 1534 5 MP
DP
0 -86 -86 0 0 86 86 0 3690 1534 5 MP
DP
0 -86 -86 0 0 86 86 0 3733 1535 5 MP
DP
0 -86 -86 0 0 86 86 0 3775 1535 5 MP
DP
0 -86 -86 0 0 86 86 0 3818 1535 5 MP
DP
0 -86 -86 0 0 86 86 0 3860 1535 5 MP
DP
0 -86 -86 0 0 86 86 0 3903 1536 5 MP
DP
0 -86 -86 0 0 86 86 0 3945 1536 5 MP
DP
0 -86 -86 0 0 86 86 0 3988 1537 5 MP
DP
0 -86 -86 0 0 86 86 0 4031 1538 5 MP
DP
0 -86 -86 0 0 86 86 0 4073 1538 5 MP
DP
gr

gr

10.8 w
c11
0 sg
%%IncludeResource: font AvantGarde-Demi
/AvantGarde-Demi /ISOLatin1Encoding 228 FMSR

1949  232 mt 
(\(1+1\) - ES) s
0.3 sg
%%IncludeResource: font AvantGarde-Book
/AvantGarde-Book /ISOLatin1Encoding 180 FMSR

1988 3559 mt 
(log\(nbEval\)) s
 185 2177 mt  -90 rotate
(slope \(SR\)) s
90 rotate
0 sg
%%IncludeResource: font Helvetica
/Helvetica /ISOLatin1Encoding 120 FMSR

 607 3193 mt 
( ) s
4328  399 mt 
( ) s
6 w
1 sg
0 626 886 0 0 -626 3399 1043 4 MP
PP
-886 0 0 626 886 0 0 -626 3399 1043 5 MP stroke
4 w
DO
SO
6 w
0 sg
3399 1043 mt 4285 1043 L
3399  417 mt 4285  417 L
3399 1043 mt 3399  417 L
4285 1043 mt 4285  417 L
3399 1043 mt 4285 1043 L
3399 1043 mt 3399  417 L
3399 1043 mt 4285 1043 L
3399  417 mt 4285  417 L
3399 1043 mt 3399  417 L
4285 1043 mt 4285  417 L
3877  553 mt 
(Dim 2) s
gs 3399 417 887 627 rc
10.8 w
c8
367 0 3472 510 2 MP stroke
gr

10.8 w
c8
gs 3546 401 219 219 rc
3601  510 mt 3709  510 L
3655  456 mt 3655  564 L
gr

gs 3399 417 887 627 rc
gr

0 sg
3877  699 mt 
(Dim 4) s
gs 3399 417 887 627 rc
c9
367 0 3472 656 2 MP stroke
gs 3546 547 219 219 rc
  54   54 3655  656 FO
gr

gr

c9
0 sg
3877  846 mt 
(Dim 8) s
gs 3399 417 887 627 rc
c10
367 0 3472 803 2 MP stroke
gs 3546 694 219 219 rc
3617  765 mt 3693  841 L
3693  765 mt 3617  841 L
gr

gr

c10
0 sg
3877  992 mt 
(Dim 16) s
gs 3399 417 887 627 rc
c11
367 0 3472 949 2 MP stroke
gr

c11
gs 3546 840 219 219 rc
0 j
0 -86 -86 0 0 86 86 0 3612 906 5 MP
DP
gr

gs 3399 417 887 627 rc
6 w
gr

6 w

end %%Color Dict

eplot
%%EndObject

epage
end

showpage

%%Trailer
%%EOF
