%!PS-Adobe-3.0 EPSF-3.0
%%Creator: MATLAB, The MathWorks, Inc. Version 7.14.0.739 (R2012a). Operating System: Linux 3.13.0-35-generic #62-Ubuntu SMP Fri Aug 15 01:58:42 UTC 2014 x86_64.
%%Title: ./oneplusone_esareslow_lognbeval_reval0_1.eps
%%CreationDate: 08/29/2014  22:32:35
%%DocumentNeededFonts: Helvetica
%%+ AvantGarde-Book
%%+ AvantGarde-Demi
%%DocumentProcessColors: Cyan Magenta Yellow Black
%%LanguageLevel: 2
%%Pages: 1
%%BoundingBox:   105   246   477   550
%%EndComments

%%BeginProlog
% MathWorks dictionary
/MathWorks 160 dict begin
% definition operators
/bdef {bind def} bind def
/ldef {load def} bind def
/xdef {exch def} bdef
/xstore {exch store} bdef
% operator abbreviations
/c  /clip ldef
/cc /concat ldef
/cp /closepath ldef
/gr /grestore ldef
/gs /gsave ldef
/mt /moveto ldef
/np /newpath ldef
/cm /currentmatrix ldef
/sm /setmatrix ldef
/rm /rmoveto ldef
/rl /rlineto ldef
/s {show newpath} bdef
/sc {setcmykcolor} bdef
/sr /setrgbcolor ldef
/sg /setgray ldef
/w /setlinewidth ldef
/j /setlinejoin ldef
/cap /setlinecap ldef
/rc {rectclip} bdef
/rf {rectfill} bdef
% page state control
/pgsv () def
/bpage {/pgsv save def} bdef
/epage {pgsv restore} bdef
/bplot /gsave ldef
/eplot {stroke grestore} bdef
% orientation switch
/portraitMode 0 def /landscapeMode 1 def /rotateMode 2 def
% coordinate system mappings
/dpi2point 0 def
% font control
/FontSize 0 def
/FMS {/FontSize xstore findfont [FontSize 0 0 FontSize neg 0 0]
  makefont setfont} bdef
/reencode {exch dup where {pop load} {pop StandardEncoding} ifelse
  exch dup 3 1 roll findfont dup length dict begin
  { 1 index /FID ne {def}{pop pop} ifelse } forall
  /Encoding exch def currentdict end definefont pop} bdef
/isroman {findfont /CharStrings get /Agrave known} bdef
/FMSR {3 1 roll 1 index dup isroman {reencode} {pop pop} ifelse
  exch FMS} bdef
/csm {1 dpi2point div -1 dpi2point div scale neg translate
 dup landscapeMode eq {pop -90 rotate}
  {rotateMode eq {90 rotate} if} ifelse} bdef
% line types: solid, dotted, dashed, dotdash
/SO { [] 0 setdash } bdef
/DO { [.5 dpi2point mul 4 dpi2point mul] 0 setdash } bdef
/DA { [6 dpi2point mul] 0 setdash } bdef
/DD { [.5 dpi2point mul 4 dpi2point mul 6 dpi2point mul 4
  dpi2point mul] 0 setdash } bdef
% macros for lines and objects
/L {lineto stroke} bdef
/MP {3 1 roll moveto 1 sub {rlineto} repeat} bdef
/AP {{rlineto} repeat} bdef
/PDlw -1 def
/W {/PDlw currentlinewidth def setlinewidth} def
/PP {closepath eofill} bdef
/DP {closepath stroke} bdef
/MR {4 -2 roll moveto dup  0 exch rlineto exch 0 rlineto
  neg 0 exch rlineto closepath} bdef
/FR {MR stroke} bdef
/PR {MR fill} bdef
/L1i {{currentfile picstr readhexstring pop} image} bdef
/tMatrix matrix def
/MakeOval {newpath tMatrix currentmatrix pop translate scale
0 0 1 0 360 arc tMatrix setmatrix} bdef
/FO {MakeOval stroke} bdef
/PO {MakeOval fill} bdef
/PD {currentlinewidth 2 div 0 360 arc fill
   PDlw -1 eq not {PDlw w /PDlw -1 def} if} def
/FA {newpath tMatrix currentmatrix pop translate scale
  0 0 1 5 -2 roll arc tMatrix setmatrix stroke} bdef
/PA {newpath tMatrix currentmatrix pop	translate 0 0 moveto scale
  0 0 1 5 -2 roll arc closepath tMatrix setmatrix fill} bdef
/FAn {newpath tMatrix currentmatrix pop translate scale
  0 0 1 5 -2 roll arcn tMatrix setmatrix stroke} bdef
/PAn {newpath tMatrix currentmatrix pop translate 0 0 moveto scale
  0 0 1 5 -2 roll arcn closepath tMatrix setmatrix fill} bdef
/vradius 0 def /hradius 0 def /lry 0 def
/lrx 0 def /uly 0 def /ulx 0 def /rad 0 def
/MRR {/vradius xdef /hradius xdef /lry xdef /lrx xdef /uly xdef
  /ulx xdef newpath tMatrix currentmatrix pop ulx hradius add uly
  vradius add translate hradius vradius scale 0 0 1 180 270 arc 
  tMatrix setmatrix lrx hradius sub uly vradius add translate
  hradius vradius scale 0 0 1 270 360 arc tMatrix setmatrix
  lrx hradius sub lry vradius sub translate hradius vradius scale
  0 0 1 0 90 arc tMatrix setmatrix ulx hradius add lry vradius sub
  translate hradius vradius scale 0 0 1 90 180 arc tMatrix setmatrix
  closepath} bdef
/FRR {MRR stroke } bdef
/PRR {MRR fill } bdef
/MlrRR {/lry xdef /lrx xdef /uly xdef /ulx xdef /rad lry uly sub 2 div def
  newpath tMatrix currentmatrix pop ulx rad add uly rad add translate
  rad rad scale 0 0 1 90 270 arc tMatrix setmatrix lrx rad sub lry rad
  sub translate rad rad scale 0 0 1 270 90 arc tMatrix setmatrix
  closepath} bdef
/FlrRR {MlrRR stroke } bdef
/PlrRR {MlrRR fill } bdef
/MtbRR {/lry xdef /lrx xdef /uly xdef /ulx xdef /rad lrx ulx sub 2 div def
  newpath tMatrix currentmatrix pop ulx rad add uly rad add translate
  rad rad scale 0 0 1 180 360 arc tMatrix setmatrix lrx rad sub lry rad
  sub translate rad rad scale 0 0 1 0 180 arc tMatrix setmatrix
  closepath} bdef
/FtbRR {MtbRR stroke } bdef
/PtbRR {MtbRR fill } bdef
/stri 6 array def /dtri 6 array def
/smat 6 array def /dmat 6 array def
/tmat1 6 array def /tmat2 6 array def /dif 3 array def
/asub {/ind2 exch def /ind1 exch def dup dup
  ind1 get exch ind2 get sub exch } bdef
/tri_to_matrix {
  2 0 asub 3 1 asub 4 0 asub 5 1 asub
  dup 0 get exch 1 get 7 -1 roll astore } bdef
/compute_transform {
  dmat dtri tri_to_matrix tmat1 invertmatrix 
  smat stri tri_to_matrix tmat2 concatmatrix } bdef
/ds {stri astore pop} bdef
/dt {dtri astore pop} bdef
/db {2 copy /cols xdef /rows xdef mul dup 3 mul string
  currentfile 
  3 index 0 eq {/ASCIIHexDecode filter}
  {/ASCII85Decode filter 3 index 2 eq {/RunLengthDecode filter} if }
  ifelse exch readstring pop
  dup 0 3 index getinterval /rbmap xdef
  dup 2 index dup getinterval /gbmap xdef
  1 index dup 2 mul exch getinterval /bbmap xdef pop pop}bdef
/it {gs np dtri aload pop moveto lineto lineto cp c
  cols rows 8 compute_transform 
  rbmap gbmap bbmap true 3 colorimage gr}bdef
/il {newpath moveto lineto stroke}bdef
currentdict end def
%%EndProlog

%%BeginSetup
MathWorks begin

0 cap

end
%%EndSetup

%%Page: 1 1
%%BeginPageSetup
%%PageBoundingBox:   105   246   477   550
MathWorks begin
bpage
%%EndPageSetup

%%BeginObject: obj1
bplot

/dpi2point 12 def
portraitMode 1260 6552 csm

    0   -48  4467  3648 rc
89 dict begin %Colortable dictionary
/c0 { 0.000000 0.000000 0.000000 sr} bdef
/c1 { 1.000000 1.000000 1.000000 sr} bdef
/c2 { 0.900000 0.000000 0.000000 sr} bdef
/c3 { 0.000000 0.820000 0.000000 sr} bdef
/c4 { 0.000000 0.000000 0.800000 sr} bdef
/c5 { 0.910000 0.820000 0.320000 sr} bdef
/c6 { 1.000000 0.260000 0.820000 sr} bdef
/c7 { 0.000000 0.820000 0.820000 sr} bdef
c0
1 j
1 sg
   0    0 4801 3601 rf
6 w
0 2793 3720 0 0 -2793 624 3150 4 MP
PP
-3720 0 0 2793 3720 0 0 -2793 624 3150 5 MP stroke
4 w
DO
0.3 sg
 624 2821 mt 4344 2821 L
4344 2821 mt 4344 2821 L
 624 1999 mt 4344 1999 L
4344 1999 mt 4344 1999 L
 624 1178 mt 4344 1178 L
4344 1178 mt 4344 1178 L
SO
6 w
 624 3150 mt 4344 3150 L
 624 3150 mt  624  357 L
 624 3150 mt  624 3224 L
%%IncludeResource: font Helvetica
/Helvetica /ISOLatin1Encoding 120 FMSR

 591 3369 mt 
(2) s
 772 3150 mt  772 3187 L
 921 3150 mt  921 3187 L
1070 3150 mt 1070 3187 L
1219 3150 mt 1219 3187 L
1368 3150 mt 1368 3187 L
1368 3150 mt 1368 3187 L
1368 3150 mt 1368 3187 L
1368 3150 mt 1368 3187 L
1368 3150 mt 1368 3187 L
1368 3150 mt 1368 3224 L
1335 3369 mt 
(3) s
1516 3150 mt 1516 3187 L
1665 3150 mt 1665 3187 L
1814 3150 mt 1814 3187 L
1963 3150 mt 1963 3187 L
2112 3150 mt 2112 3187 L
2112 3150 mt 2112 3187 L
2112 3150 mt 2112 3187 L
2112 3150 mt 2112 3187 L
2112 3150 mt 2112 3187 L
2112 3150 mt 2112 3224 L
2079 3369 mt 
(4) s
2260 3150 mt 2260 3187 L
2409 3150 mt 2409 3187 L
2558 3150 mt 2558 3187 L
2707 3150 mt 2707 3187 L
2856 3150 mt 2856 3187 L
2856 3150 mt 2856 3187 L
2856 3150 mt 2856 3187 L
2856 3150 mt 2856 3187 L
2856 3150 mt 2856 3187 L
2856 3150 mt 2856 3224 L
2823 3369 mt 
(5) s
3004 3150 mt 3004 3187 L
3153 3150 mt 3153 3187 L
3302 3150 mt 3302 3187 L
3451 3150 mt 3451 3187 L
3600 3150 mt 3600 3187 L
3600 3150 mt 3600 3187 L
3600 3150 mt 3600 3187 L
3600 3150 mt 3600 3187 L
3600 3150 mt 3600 3187 L
3600 3150 mt 3600 3224 L
3567 3369 mt 
(6) s
3748 3150 mt 3748 3187 L
3897 3150 mt 3897 3187 L
4046 3150 mt 4046 3187 L
4195 3150 mt 4195 3187 L
4344 3150 mt 4344 3187 L
4344 3150 mt 4344 3187 L
4344 3150 mt 4344 3187 L
4344 3150 mt 4344 3187 L
4344 3150 mt 4344 3187 L
4344 3150 mt 4344 3224 L
4311 3369 mt 
(7) s
 624 2903 mt  586 2903 L
 624 2985 mt  586 2985 L
 624 3067 mt  586 3067 L
 624 3150 mt  586 3150 L
 624 2821 mt  549 2821 L
 379 2865 mt 
(-1) s
 624 2739 mt  586 2739 L
 624 2657 mt  586 2657 L
 624 2574 mt  586 2574 L
 624 2492 mt  586 2492 L
 624 2410 mt  586 2410 L
 624 2328 mt  586 2328 L
 624 2246 mt  586 2246 L
 624 2164 mt  586 2164 L
 624 2082 mt  586 2082 L
 624 1999 mt  549 1999 L
 279 2043 mt 
(-0.5) s
 624 1917 mt  586 1917 L
 624 1835 mt  586 1835 L
 624 1753 mt  586 1753 L
 624 1671 mt  586 1671 L
 624 1589 mt  586 1589 L
 624 1507 mt  586 1507 L
 624 1424 mt  586 1424 L
 624 1342 mt  586 1342 L
 624 1260 mt  586 1260 L
 624 1178 mt  549 1178 L
 449 1222 mt 
(0) s
 624 1096 mt  586 1096 L
 624 1014 mt  586 1014 L
 624  932 mt  586  932 L
 624  849 mt  586  849 L
 624  767 mt  586  767 L
 624  685 mt  586  685 L
 624  603 mt  586  603 L
 624  521 mt  586  521 L
 624  439 mt  586  439 L
gs 624 357 3721 2794 rc
10.8 w
/c8 { 0.000000 0.500000 0.000000 sr} bdef
c8
9 2 10 9 9 -1 10 -13 10 18 10 -23 11 -3 10 -14 
10 32 11 6 11 -10 11 -4 11 0 11 0 12 -20 12 -9 
12 -10 12 30 12 -14 12 6 13 -7 13 8 13 -8 14 21 
13 -17 14 0 14 10 15 -28 14 25 15 -6 16 -5 15 0 
16 -18 17 3 16 28 17 -40 18 0 18 -8 18 16 19 -1 
19 -15 20 2 20 -2 21 14 22 15 22 -15 23 1 23 -19 
24 0 26 -2 26 5 27 -42 27 31 30 1 30 -3 31 -11 
33 -3 35 -24 36 34 38 -24 40 -1 42 -16 45 -18 48 -15 
51 -10 54 -1 59 -5 65 5 70 -18 77 -13 87 5 98 -40 
113 -21 133 -9 163 33 208 16 289 67 481 202 920 1561 79 MP stroke
gs 811 1452 3399 537 rc
 866 1561 mt  974 1561 L
 920 1507 mt  920 1615 L
1347 1763 mt 1455 1763 L
1401 1709 mt 1401 1817 L
1636 1830 mt 1744 1830 L
1690 1776 mt 1690 1884 L
1844 1846 mt 1952 1846 L
1898 1792 mt 1898 1900 L
2007 1879 mt 2115 1879 L
2061 1825 mt 2061 1933 L
2140 1870 mt 2248 1870 L
2194 1816 mt 2194 1924 L
2253 1849 mt 2361 1849 L
2307 1795 mt 2307 1903 L
2351 1809 mt 2459 1809 L
2405 1755 mt 2405 1863 L
2438 1814 mt 2546 1814 L
2492 1760 mt 2492 1868 L
2515 1801 mt 2623 1801 L
2569 1747 mt 2569 1855 L
2585 1783 mt 2693 1783 L
2639 1729 mt 2639 1837 L
2650 1788 mt 2758 1788 L
2704 1734 mt 2704 1842 L
2709 1783 mt 2817 1783 L
2763 1729 mt 2763 1837 L
2763 1782 mt 2871 1782 L
2817 1728 mt 2817 1836 L
2814 1772 mt 2922 1772 L
2868 1718 mt 2868 1826 L
2862 1757 mt 2970 1757 L
2916 1703 mt 2916 1811 L
2907 1739 mt 3015 1739 L
2961 1685 mt 2961 1793 L
2949 1723 mt 3057 1723 L
3003 1669 mt 3003 1777 L
2989 1722 mt 3097 1722 L
3043 1668 mt 3043 1776 L
3027 1698 mt 3135 1698 L
3081 1644 mt 3081 1752 L
3063 1732 mt 3171 1732 L
3117 1678 mt 3117 1786 L
3098 1708 mt 3206 1708 L
3152 1654 mt 3152 1762 L
3131 1705 mt 3239 1705 L
3185 1651 mt 3185 1759 L
3162 1694 mt 3270 1694 L
3216 1640 mt 3216 1748 L
3192 1691 mt 3300 1691 L
3246 1637 mt 3246 1745 L
3222 1692 mt 3330 1692 L
3276 1638 mt 3276 1746 L
3249 1723 mt 3357 1723 L
3303 1669 mt 3303 1777 L
3276 1681 mt 3384 1681 L
3330 1627 mt 3330 1735 L
3302 1686 mt 3410 1686 L
3356 1632 mt 3356 1740 L
3328 1684 mt 3436 1684 L
3382 1630 mt 3382 1738 L
3352 1684 mt 3460 1684 L
3406 1630 mt 3406 1738 L
3375 1665 mt 3483 1665 L
3429 1611 mt 3429 1719 L
3398 1666 mt 3506 1666 L
3452 1612 mt 3452 1720 L
3420 1651 mt 3528 1651 L
3474 1597 mt 3474 1705 L
3442 1666 mt 3550 1666 L
3496 1612 mt 3496 1720 L
3463 1680 mt 3571 1680 L
3517 1626 mt 3517 1734 L
3483 1678 mt 3591 1678 L
3537 1624 mt 3537 1732 L
3503 1680 mt 3611 1680 L
3557 1626 mt 3557 1734 L
3522 1665 mt 3630 1665 L
3576 1611 mt 3576 1719 L
3541 1664 mt 3649 1664 L
3595 1610 mt 3595 1718 L
3559 1680 mt 3667 1680 L
3613 1626 mt 3613 1734 L
3577 1672 mt 3685 1672 L
3631 1618 mt 3631 1726 L
3595 1672 mt 3703 1672 L
3649 1618 mt 3649 1726 L
3612 1632 mt 3720 1632 L
3666 1578 mt 3666 1686 L
3628 1660 mt 3736 1660 L
3682 1606 mt 3682 1714 L
3645 1663 mt 3753 1663 L
3699 1609 mt 3699 1717 L
3661 1645 mt 3769 1645 L
3715 1591 mt 3715 1699 L
3676 1645 mt 3784 1645 L
3730 1591 mt 3730 1699 L
3692 1640 mt 3800 1640 L
3746 1586 mt 3746 1694 L
3707 1634 mt 3815 1634 L
3761 1580 mt 3761 1688 L
3721 1659 mt 3829 1659 L
3775 1605 mt 3775 1713 L
3736 1631 mt 3844 1631 L
3790 1577 mt 3790 1685 L
3750 1641 mt 3858 1641 L
3804 1587 mt 3804 1695 L
3764 1641 mt 3872 1641 L
3818 1587 mt 3818 1695 L
3777 1624 mt 3885 1624 L
3831 1570 mt 3831 1678 L
3791 1645 mt 3899 1645 L
3845 1591 mt 3845 1699 L
3804 1637 mt 3912 1637 L
3858 1583 mt 3858 1691 L
3817 1645 mt 3925 1645 L
3871 1591 mt 3871 1699 L
3830 1638 mt 3938 1638 L
3884 1584 mt 3884 1692 L
3842 1644 mt 3950 1644 L
3896 1590 mt 3896 1698 L
3854 1630 mt 3962 1630 L
3908 1576 mt 3908 1684 L
3866 1660 mt 3974 1660 L
3920 1606 mt 3920 1714 L
3878 1650 mt 3986 1650 L
3932 1596 mt 3932 1704 L
3890 1641 mt 3998 1641 L
3944 1587 mt 3944 1695 L
3902 1621 mt 4010 1621 L
3956 1567 mt 3956 1675 L
3913 1621 mt 4021 1621 L
3967 1567 mt 3967 1675 L
3924 1621 mt 4032 1621 L
3978 1567 mt 3978 1675 L
3935 1617 mt 4043 1617 L
3989 1563 mt 3989 1671 L
3946 1607 mt 4054 1607 L
4000 1553 mt 4000 1661 L
3957 1613 mt 4065 1613 L
4011 1559 mt 4011 1667 L
3967 1645 mt 4075 1645 L
4021 1591 mt 4021 1699 L
3977 1631 mt 4085 1631 L
4031 1577 mt 4031 1685 L
3988 1628 mt 4096 1628 L
4042 1574 mt 4042 1682 L
3998 1605 mt 4106 1605 L
4052 1551 mt 4052 1659 L
4008 1623 mt 4116 1623 L
4062 1569 mt 4062 1677 L
4018 1610 mt 4126 1610 L
4072 1556 mt 4072 1664 L
4027 1609 mt 4135 1609 L
4081 1555 mt 4081 1663 L
4037 1618 mt 4145 1618 L
4091 1564 mt 4091 1672 L
4046 1620 mt 4154 1620 L
4100 1566 mt 4100 1674 L
gr

/c9 { 0.000000 0.000000 0.500000 sr} bdef
c9
9 -14 10 7 9 6 10 -9 10 19 10 -1 11 -17 10 7 
10 1 11 -2 11 -11 11 1 11 4 11 -23 12 3 12 12 
12 4 12 -10 12 1 12 14 13 5 13 -4 13 -17 14 7 
13 -9 14 10 14 -4 15 0 14 4 15 -19 16 -4 15 22 
16 -2 17 -10 16 6 17 -9 18 12 18 -5 18 -14 19 -3 
19 -13 20 24 20 -19 21 1 22 0 22 -5 23 7 23 9 
24 -1 26 6 26 -4 27 8 27 -6 30 -4 30 -25 31 12 
33 -12 35 -10 36 -1 38 -4 40 -3 42 -9 45 -10 48 -9 
51 10 54 -17 59 3 65 5 70 -22 77 2 87 -12 98 0 
113 -12 133 2 163 18 208 71 289 77 481 108 920 1326 79 MP stroke
gs 811 1217 3399 495 rc
  54   54  920 1326 FO
  54   54 1401 1434 FO
  54   54 1690 1511 FO
  54   54 1898 1582 FO
  54   54 2061 1600 FO
  54   54 2194 1602 FO
  54   54 2307 1590 FO
  54   54 2405 1590 FO
  54   54 2492 1578 FO
  54   54 2569 1580 FO
  54   54 2639 1558 FO
  54   54 2704 1563 FO
  54   54 2763 1566 FO
  54   54 2817 1549 FO
  54   54 2868 1559 FO
  54   54 2916 1550 FO
  54   54 2961 1540 FO
  54   54 3003 1531 FO
  54   54 3043 1528 FO
  54   54 3081 1524 FO
  54   54 3117 1523 FO
  54   54 3152 1513 FO
  54   54 3185 1501 FO
  54   54 3216 1513 FO
  54   54 3246 1488 FO
  54   54 3276 1484 FO
  54   54 3303 1478 FO
  54   54 3330 1486 FO
  54   54 3356 1482 FO
  54   54 3382 1488 FO
  54   54 3406 1487 FO
  54   54 3429 1496 FO
  54   54 3452 1503 FO
  54   54 3474 1498 FO
  54   54 3496 1498 FO
  54   54 3517 1499 FO
  54   54 3537 1480 FO
  54   54 3557 1504 FO
  54   54 3576 1491 FO
  54   54 3595 1488 FO
  54   54 3613 1474 FO
  54   54 3631 1469 FO
  54   54 3649 1481 FO
  54   54 3666 1472 FO
  54   54 3682 1478 FO
  54   54 3699 1468 FO
  54   54 3715 1466 FO
  54   54 3730 1488 FO
  54   54 3746 1484 FO
  54   54 3761 1465 FO
  54   54 3775 1469 FO
  54   54 3790 1469 FO
  54   54 3804 1465 FO
  54   54 3818 1475 FO
  54   54 3831 1466 FO
  54   54 3845 1473 FO
  54   54 3858 1456 FO
  54   54 3871 1452 FO
  54   54 3884 1457 FO
  54   54 3896 1471 FO
  54   54 3908 1472 FO
  54   54 3920 1462 FO
  54   54 3932 1466 FO
  54   54 3944 1478 FO
  54   54 3956 1481 FO
  54   54 3967 1458 FO
  54   54 3978 1462 FO
  54   54 3989 1463 FO
  54   54 4000 1452 FO
  54   54 4011 1450 FO
  54   54 4021 1451 FO
  54   54 4031 1458 FO
  54   54 4042 1441 FO
  54   54 4052 1440 FO
  54   54 4062 1459 FO
  54   54 4072 1450 FO
  54   54 4081 1456 FO
  54   54 4091 1463 FO
  54   54 4100 1449 FO
gr

/c10 { 0.500000 0.000000 0.000000 sr} bdef
c10
9 1 10 9 9 -10 10 4 10 0 10 1 11 10 10 -7 
10 -7 11 -9 11 9 11 -1 11 -4 11 4 12 3 12 -6 
12 9 12 -4 12 -10 12 3 13 13 13 -7 13 6 14 0 
13 -3 14 -3 14 -4 15 0 14 -1 15 -1 16 3 15 4 
16 -2 17 0 16 -1 17 -4 18 2 18 -12 18 5 19 8 
19 -4 20 1 20 -9 21 -8 22 5 22 1 23 6 23 4 
24 -12 26 4 26 -7 27 2 27 7 30 5 30 -2 31 3 
33 2 35 -14 36 -8 38 0 40 3 42 4 45 2 48 6 
51 -4 54 10 59 -13 65 -17 70 8 77 -2 87 3 98 -1 
113 6 133 18 163 18 208 15 289 1 481 29 920 1232 79 MP stroke
gs 811 1123 3399 314 rc
 882 1194 mt  958 1270 L
 958 1194 mt  882 1270 L
1363 1223 mt 1439 1299 L
1439 1223 mt 1363 1299 L
1652 1224 mt 1728 1300 L
1728 1224 mt 1652 1300 L
1860 1239 mt 1936 1315 L
1936 1239 mt 1860 1315 L
2023 1257 mt 2099 1333 L
2099 1257 mt 2023 1333 L
2156 1275 mt 2232 1351 L
2232 1275 mt 2156 1351 L
2269 1281 mt 2345 1357 L
2345 1281 mt 2269 1357 L
2367 1280 mt 2443 1356 L
2443 1280 mt 2367 1356 L
2454 1283 mt 2530 1359 L
2530 1283 mt 2454 1359 L
2531 1281 mt 2607 1357 L
2607 1281 mt 2531 1357 L
2601 1289 mt 2677 1365 L
2677 1289 mt 2601 1365 L
2666 1272 mt 2742 1348 L
2742 1272 mt 2666 1348 L
2725 1259 mt 2801 1335 L
2801 1259 mt 2725 1335 L
2779 1269 mt 2855 1345 L
2855 1269 mt 2779 1345 L
2830 1265 mt 2906 1341 L
2906 1265 mt 2830 1341 L
2878 1271 mt 2954 1347 L
2954 1271 mt 2878 1347 L
2923 1273 mt 2999 1349 L
2999 1273 mt 2923 1349 L
2965 1277 mt 3041 1353 L
3041 1277 mt 2965 1353 L
3005 1280 mt 3081 1356 L
3081 1280 mt 3005 1356 L
3043 1280 mt 3119 1356 L
3119 1280 mt 3043 1356 L
3079 1272 mt 3155 1348 L
3155 1272 mt 3079 1348 L
3114 1258 mt 3190 1334 L
3190 1258 mt 3114 1334 L
3147 1260 mt 3223 1336 L
3223 1260 mt 3147 1336 L
3178 1263 mt 3254 1339 L
3254 1263 mt 3178 1339 L
3208 1261 mt 3284 1337 L
3284 1261 mt 3208 1337 L
3238 1266 mt 3314 1342 L
3314 1266 mt 3238 1342 L
3265 1273 mt 3341 1349 L
3341 1273 mt 3265 1349 L
3292 1275 mt 3368 1351 L
3368 1275 mt 3292 1351 L
3318 1268 mt 3394 1344 L
3394 1268 mt 3318 1344 L
3344 1272 mt 3420 1348 L
3420 1272 mt 3344 1348 L
3368 1260 mt 3444 1336 L
3444 1260 mt 3368 1336 L
3391 1264 mt 3467 1340 L
3467 1264 mt 3391 1340 L
3414 1270 mt 3490 1346 L
3490 1270 mt 3414 1346 L
3436 1271 mt 3512 1347 L
3512 1271 mt 3436 1347 L
3458 1276 mt 3534 1352 L
3534 1276 mt 3458 1352 L
3479 1268 mt 3555 1344 L
3555 1268 mt 3479 1344 L
3499 1259 mt 3575 1335 L
3575 1259 mt 3499 1335 L
3519 1260 mt 3595 1336 L
3595 1260 mt 3519 1336 L
3538 1256 mt 3614 1332 L
3614 1256 mt 3538 1332 L
3557 1264 mt 3633 1340 L
3633 1264 mt 3557 1340 L
3575 1269 mt 3651 1345 L
3651 1269 mt 3575 1345 L
3593 1257 mt 3669 1333 L
3669 1257 mt 3593 1333 L
3611 1259 mt 3687 1335 L
3687 1259 mt 3611 1335 L
3628 1255 mt 3704 1331 L
3704 1255 mt 3628 1331 L
3644 1254 mt 3720 1330 L
3720 1254 mt 3644 1330 L
3661 1254 mt 3737 1330 L
3737 1254 mt 3661 1330 L
3677 1252 mt 3753 1328 L
3753 1252 mt 3677 1328 L
3692 1256 mt 3768 1332 L
3768 1256 mt 3692 1332 L
3708 1259 mt 3784 1335 L
3784 1259 mt 3708 1335 L
3723 1258 mt 3799 1334 L
3799 1258 mt 3723 1334 L
3737 1257 mt 3813 1333 L
3813 1257 mt 3737 1333 L
3752 1257 mt 3828 1333 L
3828 1257 mt 3752 1333 L
3766 1253 mt 3842 1329 L
3842 1253 mt 3766 1329 L
3780 1250 mt 3856 1326 L
3856 1250 mt 3780 1326 L
3793 1247 mt 3869 1323 L
3869 1247 mt 3793 1323 L
3807 1247 mt 3883 1323 L
3883 1247 mt 3807 1323 L
3820 1253 mt 3896 1329 L
3896 1253 mt 3820 1329 L
3833 1246 mt 3909 1322 L
3909 1246 mt 3833 1322 L
3846 1259 mt 3922 1335 L
3922 1259 mt 3846 1335 L
3858 1262 mt 3934 1338 L
3934 1262 mt 3858 1338 L
3870 1252 mt 3946 1328 L
3946 1252 mt 3870 1328 L
3882 1248 mt 3958 1324 L
3958 1248 mt 3882 1324 L
3894 1257 mt 3970 1333 L
3970 1257 mt 3894 1333 L
3906 1251 mt 3982 1327 L
3982 1251 mt 3906 1327 L
3918 1254 mt 3994 1330 L
3994 1254 mt 3918 1330 L
3929 1258 mt 4005 1334 L
4005 1258 mt 3929 1334 L
3940 1254 mt 4016 1330 L
4016 1254 mt 3940 1330 L
3951 1253 mt 4027 1329 L
4027 1253 mt 3951 1329 L
3962 1262 mt 4038 1338 L
4038 1262 mt 3962 1338 L
3973 1253 mt 4049 1329 L
4049 1253 mt 3973 1329 L
3983 1246 mt 4059 1322 L
4059 1246 mt 3983 1322 L
3993 1239 mt 4069 1315 L
4069 1239 mt 3993 1315 L
4004 1249 mt 4080 1325 L
4080 1249 mt 4004 1325 L
4014 1250 mt 4090 1326 L
4090 1250 mt 4014 1326 L
4024 1250 mt 4100 1326 L
4100 1250 mt 4024 1326 L
4034 1254 mt 4110 1330 L
4110 1254 mt 4034 1330 L
4043 1244 mt 4119 1320 L
4119 1244 mt 4043 1320 L
4053 1253 mt 4129 1329 L
4129 1253 mt 4053 1329 L
4062 1254 mt 4138 1330 L
4138 1254 mt 4062 1330 L
gr

/c11 { 0.000000 0.500000 0.500000 sr} bdef
c11
9 1 10 -1 9 0 10 2 10 7 10 -3 11 3 10 1 
10 3 11 -4 11 -1 11 -3 11 -4 11 -3 12 -4 12 4 
12 3 12 5 12 -1 12 2 13 0 13 1 13 2 14 1 
13 -2 14 0 14 0 15 -1 14 0 15 2 16 -3 15 -2 
16 0 17 -3 16 -1 17 -1 18 4 18 1 18 2 19 0 
19 0 20 -1 20 0 21 -2 22 2 22 1 23 0 23 2 
24 -5 26 3 26 5 27 -3 27 0 30 4 30 3 31 4 
33 4 35 -4 36 -5 38 3 40 -1 42 2 45 6 48 -10 
51 5 54 -1 59 1 65 -6 70 -2 77 -5 87 -2 98 0 
113 -3 133 1 163 -6 208 -5 289 -19 481 -15 920 1159 79 MP stroke
gs 811 983 3399 286 rc
0 j
0 -86 -86 0 0 86 86 0 877 1116 5 MP
DP
0 -86 -86 0 0 86 86 0 1358 1101 5 MP
DP
0 -86 -86 0 0 86 86 0 1647 1082 5 MP
DP
0 -86 -86 0 0 86 86 0 1855 1077 5 MP
DP
0 -86 -86 0 0 86 86 0 2018 1071 5 MP
DP
0 -86 -86 0 0 86 86 0 2151 1072 5 MP
DP
0 -86 -86 0 0 86 86 0 2264 1069 5 MP
DP
0 -86 -86 0 0 86 86 0 2362 1069 5 MP
DP
0 -86 -86 0 0 86 86 0 2449 1067 5 MP
DP
0 -86 -86 0 0 86 86 0 2526 1062 5 MP
DP
0 -86 -86 0 0 86 86 0 2596 1060 5 MP
DP
0 -86 -86 0 0 86 86 0 2661 1054 5 MP
DP
0 -86 -86 0 0 86 86 0 2720 1055 5 MP
DP
0 -86 -86 0 0 86 86 0 2774 1054 5 MP
DP
0 -86 -86 0 0 86 86 0 2825 1059 5 MP
DP
0 -86 -86 0 0 86 86 0 2873 1049 5 MP
DP
0 -86 -86 0 0 86 86 0 2918 1055 5 MP
DP
0 -86 -86 0 0 86 86 0 2960 1057 5 MP
DP
0 -86 -86 0 0 86 86 0 3000 1056 5 MP
DP
0 -86 -86 0 0 86 86 0 3038 1059 5 MP
DP
0 -86 -86 0 0 86 86 0 3074 1054 5 MP
DP
0 -86 -86 0 0 86 86 0 3109 1050 5 MP
DP
0 -86 -86 0 0 86 86 0 3142 1054 5 MP
DP
0 -86 -86 0 0 86 86 0 3173 1058 5 MP
DP
0 -86 -86 0 0 86 86 0 3203 1061 5 MP
DP
0 -86 -86 0 0 86 86 0 3233 1065 5 MP
DP
0 -86 -86 0 0 86 86 0 3260 1065 5 MP
DP
0 -86 -86 0 0 86 86 0 3287 1062 5 MP
DP
0 -86 -86 0 0 86 86 0 3313 1067 5 MP
DP
0 -86 -86 0 0 86 86 0 3339 1070 5 MP
DP
0 -86 -86 0 0 86 86 0 3363 1065 5 MP
DP
0 -86 -86 0 0 86 86 0 3386 1067 5 MP
DP
0 -86 -86 0 0 86 86 0 3409 1067 5 MP
DP
0 -86 -86 0 0 86 86 0 3431 1068 5 MP
DP
0 -86 -86 0 0 86 86 0 3453 1070 5 MP
DP
0 -86 -86 0 0 86 86 0 3474 1068 5 MP
DP
0 -86 -86 0 0 86 86 0 3494 1068 5 MP
DP
0 -86 -86 0 0 86 86 0 3514 1067 5 MP
DP
0 -86 -86 0 0 86 86 0 3533 1067 5 MP
DP
0 -86 -86 0 0 86 86 0 3552 1067 5 MP
DP
0 -86 -86 0 0 86 86 0 3570 1069 5 MP
DP
0 -86 -86 0 0 86 86 0 3588 1070 5 MP
DP
0 -86 -86 0 0 86 86 0 3606 1074 5 MP
DP
0 -86 -86 0 0 86 86 0 3623 1073 5 MP
DP
0 -86 -86 0 0 86 86 0 3639 1072 5 MP
DP
0 -86 -86 0 0 86 86 0 3656 1069 5 MP
DP
0 -86 -86 0 0 86 86 0 3672 1069 5 MP
DP
0 -86 -86 0 0 86 86 0 3687 1067 5 MP
DP
0 -86 -86 0 0 86 86 0 3703 1064 5 MP
DP
0 -86 -86 0 0 86 86 0 3718 1066 5 MP
DP
0 -86 -86 0 0 86 86 0 3732 1066 5 MP
DP
0 -86 -86 0 0 86 86 0 3747 1065 5 MP
DP
0 -86 -86 0 0 86 86 0 3761 1065 5 MP
DP
0 -86 -86 0 0 86 86 0 3775 1065 5 MP
DP
0 -86 -86 0 0 86 86 0 3788 1063 5 MP
DP
0 -86 -86 0 0 86 86 0 3802 1064 5 MP
DP
0 -86 -86 0 0 86 86 0 3815 1066 5 MP
DP
0 -86 -86 0 0 86 86 0 3828 1067 5 MP
DP
0 -86 -86 0 0 86 86 0 3841 1067 5 MP
DP
0 -86 -86 0 0 86 86 0 3853 1069 5 MP
DP
0 -86 -86 0 0 86 86 0 3865 1068 5 MP
DP
0 -86 -86 0 0 86 86 0 3877 1073 5 MP
DP
0 -86 -86 0 0 86 86 0 3889 1076 5 MP
DP
0 -86 -86 0 0 86 86 0 3901 1080 5 MP
DP
0 -86 -86 0 0 86 86 0 3913 1076 5 MP
DP
0 -86 -86 0 0 86 86 0 3924 1073 5 MP
DP
0 -86 -86 0 0 86 86 0 3935 1069 5 MP
DP
0 -86 -86 0 0 86 86 0 3946 1066 5 MP
DP
0 -86 -86 0 0 86 86 0 3957 1065 5 MP
DP
0 -86 -86 0 0 86 86 0 3968 1061 5 MP
DP
0 -86 -86 0 0 86 86 0 3978 1064 5 MP
DP
0 -86 -86 0 0 86 86 0 3988 1065 5 MP
DP
0 -86 -86 0 0 86 86 0 3999 1068 5 MP
DP
0 -86 -86 0 0 86 86 0 4009 1065 5 MP
DP
0 -86 -86 0 0 86 86 0 4019 1072 5 MP
DP
0 -86 -86 0 0 86 86 0 4029 1074 5 MP
DP
0 -86 -86 0 0 86 86 0 4038 1074 5 MP
DP
0 -86 -86 0 0 86 86 0 4048 1073 5 MP
DP
0 -86 -86 0 0 86 86 0 4057 1074 5 MP
DP
gr

gr

10.8 w
c11
0 sg
%%IncludeResource: font AvantGarde-Demi
/AvantGarde-Demi /ISOLatin1Encoding 228 FMSR

1949  232 mt 
(\(1+1\) - ES) s
0.3 sg
%%IncludeResource: font AvantGarde-Book
/AvantGarde-Book /ISOLatin1Encoding 180 FMSR

1988 3559 mt 
(log\(nbEval\)) s
 185 2177 mt  -90 rotate
(slope \(SR\)) s
90 rotate
0 sg
%%IncludeResource: font Helvetica
/Helvetica /ISOLatin1Encoding 120 FMSR

 607 3193 mt 
( ) s
4328  399 mt 
( ) s
6 w
1 sg
0 626 886 0 0 -626 3399 1043 4 MP
PP
-886 0 0 626 886 0 0 -626 3399 1043 5 MP stroke
4 w
DO
SO
6 w
0 sg
3399 1043 mt 4285 1043 L
3399  417 mt 4285  417 L
3399 1043 mt 3399  417 L
4285 1043 mt 4285  417 L
3399 1043 mt 4285 1043 L
3399 1043 mt 3399  417 L
3399 1043 mt 4285 1043 L
3399  417 mt 4285  417 L
3399 1043 mt 3399  417 L
4285 1043 mt 4285  417 L
3877  553 mt 
(Dim 2) s
gs 3399 417 887 627 rc
10.8 w
c8
367 0 3472 510 2 MP stroke
gr

10.8 w
c8
gs 3546 401 219 219 rc
3601  510 mt 3709  510 L
3655  456 mt 3655  564 L
gr

gs 3399 417 887 627 rc
gr

0 sg
3877  699 mt 
(Dim 4) s
gs 3399 417 887 627 rc
c9
367 0 3472 656 2 MP stroke
gs 3546 547 219 219 rc
  54   54 3655  656 FO
gr

gr

c9
0 sg
3877  846 mt 
(Dim 8) s
gs 3399 417 887 627 rc
c10
367 0 3472 803 2 MP stroke
gs 3546 694 219 219 rc
3617  765 mt 3693  841 L
3693  765 mt 3617  841 L
gr

gr

c10
0 sg
3877  992 mt 
(Dim 16) s
gs 3399 417 887 627 rc
c11
367 0 3472 949 2 MP stroke
gr

c11
gs 3546 840 219 219 rc
0 j
0 -86 -86 0 0 86 86 0 3612 906 5 MP
DP
gr

gs 3399 417 887 627 rc
6 w
gr

6 w

end %%Color Dict

eplot
%%EndObject

epage
end

showpage

%%Trailer
%%EOF
