%!PS-Adobe-3.0 EPSF-3.0
%%Creator: MATLAB, The MathWorks, Inc. Version 7.14.0.739 (R2012a). Operating System: Linux 3.13.0-35-generic #62-Ubuntu SMP Fri Aug 15 01:58:42 UTC 2014 x86_64.
%%Title: ./oneplusone_esareslow_lognbeval_reval8_0.eps
%%CreationDate: 08/29/2014  22:26:37
%%DocumentNeededFonts: Helvetica
%%+ AvantGarde-Book
%%+ AvantGarde-Demi
%%DocumentProcessColors: Cyan Magenta Yellow Black
%%LanguageLevel: 2
%%Pages: 1
%%BoundingBox:   105   246   477   550
%%EndComments

%%BeginProlog
% MathWorks dictionary
/MathWorks 160 dict begin
% definition operators
/bdef {bind def} bind def
/ldef {load def} bind def
/xdef {exch def} bdef
/xstore {exch store} bdef
% operator abbreviations
/c  /clip ldef
/cc /concat ldef
/cp /closepath ldef
/gr /grestore ldef
/gs /gsave ldef
/mt /moveto ldef
/np /newpath ldef
/cm /currentmatrix ldef
/sm /setmatrix ldef
/rm /rmoveto ldef
/rl /rlineto ldef
/s {show newpath} bdef
/sc {setcmykcolor} bdef
/sr /setrgbcolor ldef
/sg /setgray ldef
/w /setlinewidth ldef
/j /setlinejoin ldef
/cap /setlinecap ldef
/rc {rectclip} bdef
/rf {rectfill} bdef
% page state control
/pgsv () def
/bpage {/pgsv save def} bdef
/epage {pgsv restore} bdef
/bplot /gsave ldef
/eplot {stroke grestore} bdef
% orientation switch
/portraitMode 0 def /landscapeMode 1 def /rotateMode 2 def
% coordinate system mappings
/dpi2point 0 def
% font control
/FontSize 0 def
/FMS {/FontSize xstore findfont [FontSize 0 0 FontSize neg 0 0]
  makefont setfont} bdef
/reencode {exch dup where {pop load} {pop StandardEncoding} ifelse
  exch dup 3 1 roll findfont dup length dict begin
  { 1 index /FID ne {def}{pop pop} ifelse } forall
  /Encoding exch def currentdict end definefont pop} bdef
/isroman {findfont /CharStrings get /Agrave known} bdef
/FMSR {3 1 roll 1 index dup isroman {reencode} {pop pop} ifelse
  exch FMS} bdef
/csm {1 dpi2point div -1 dpi2point div scale neg translate
 dup landscapeMode eq {pop -90 rotate}
  {rotateMode eq {90 rotate} if} ifelse} bdef
% line types: solid, dotted, dashed, dotdash
/SO { [] 0 setdash } bdef
/DO { [.5 dpi2point mul 4 dpi2point mul] 0 setdash } bdef
/DA { [6 dpi2point mul] 0 setdash } bdef
/DD { [.5 dpi2point mul 4 dpi2point mul 6 dpi2point mul 4
  dpi2point mul] 0 setdash } bdef
% macros for lines and objects
/L {lineto stroke} bdef
/MP {3 1 roll moveto 1 sub {rlineto} repeat} bdef
/AP {{rlineto} repeat} bdef
/PDlw -1 def
/W {/PDlw currentlinewidth def setlinewidth} def
/PP {closepath eofill} bdef
/DP {closepath stroke} bdef
/MR {4 -2 roll moveto dup  0 exch rlineto exch 0 rlineto
  neg 0 exch rlineto closepath} bdef
/FR {MR stroke} bdef
/PR {MR fill} bdef
/L1i {{currentfile picstr readhexstring pop} image} bdef
/tMatrix matrix def
/MakeOval {newpath tMatrix currentmatrix pop translate scale
0 0 1 0 360 arc tMatrix setmatrix} bdef
/FO {MakeOval stroke} bdef
/PO {MakeOval fill} bdef
/PD {currentlinewidth 2 div 0 360 arc fill
   PDlw -1 eq not {PDlw w /PDlw -1 def} if} def
/FA {newpath tMatrix currentmatrix pop translate scale
  0 0 1 5 -2 roll arc tMatrix setmatrix stroke} bdef
/PA {newpath tMatrix currentmatrix pop	translate 0 0 moveto scale
  0 0 1 5 -2 roll arc closepath tMatrix setmatrix fill} bdef
/FAn {newpath tMatrix currentmatrix pop translate scale
  0 0 1 5 -2 roll arcn tMatrix setmatrix stroke} bdef
/PAn {newpath tMatrix currentmatrix pop translate 0 0 moveto scale
  0 0 1 5 -2 roll arcn closepath tMatrix setmatrix fill} bdef
/vradius 0 def /hradius 0 def /lry 0 def
/lrx 0 def /uly 0 def /ulx 0 def /rad 0 def
/MRR {/vradius xdef /hradius xdef /lry xdef /lrx xdef /uly xdef
  /ulx xdef newpath tMatrix currentmatrix pop ulx hradius add uly
  vradius add translate hradius vradius scale 0 0 1 180 270 arc 
  tMatrix setmatrix lrx hradius sub uly vradius add translate
  hradius vradius scale 0 0 1 270 360 arc tMatrix setmatrix
  lrx hradius sub lry vradius sub translate hradius vradius scale
  0 0 1 0 90 arc tMatrix setmatrix ulx hradius add lry vradius sub
  translate hradius vradius scale 0 0 1 90 180 arc tMatrix setmatrix
  closepath} bdef
/FRR {MRR stroke } bdef
/PRR {MRR fill } bdef
/MlrRR {/lry xdef /lrx xdef /uly xdef /ulx xdef /rad lry uly sub 2 div def
  newpath tMatrix currentmatrix pop ulx rad add uly rad add translate
  rad rad scale 0 0 1 90 270 arc tMatrix setmatrix lrx rad sub lry rad
  sub translate rad rad scale 0 0 1 270 90 arc tMatrix setmatrix
  closepath} bdef
/FlrRR {MlrRR stroke } bdef
/PlrRR {MlrRR fill } bdef
/MtbRR {/lry xdef /lrx xdef /uly xdef /ulx xdef /rad lrx ulx sub 2 div def
  newpath tMatrix currentmatrix pop ulx rad add uly rad add translate
  rad rad scale 0 0 1 180 360 arc tMatrix setmatrix lrx rad sub lry rad
  sub translate rad rad scale 0 0 1 0 180 arc tMatrix setmatrix
  closepath} bdef
/FtbRR {MtbRR stroke } bdef
/PtbRR {MtbRR fill } bdef
/stri 6 array def /dtri 6 array def
/smat 6 array def /dmat 6 array def
/tmat1 6 array def /tmat2 6 array def /dif 3 array def
/asub {/ind2 exch def /ind1 exch def dup dup
  ind1 get exch ind2 get sub exch } bdef
/tri_to_matrix {
  2 0 asub 3 1 asub 4 0 asub 5 1 asub
  dup 0 get exch 1 get 7 -1 roll astore } bdef
/compute_transform {
  dmat dtri tri_to_matrix tmat1 invertmatrix 
  smat stri tri_to_matrix tmat2 concatmatrix } bdef
/ds {stri astore pop} bdef
/dt {dtri astore pop} bdef
/db {2 copy /cols xdef /rows xdef mul dup 3 mul string
  currentfile 
  3 index 0 eq {/ASCIIHexDecode filter}
  {/ASCII85Decode filter 3 index 2 eq {/RunLengthDecode filter} if }
  ifelse exch readstring pop
  dup 0 3 index getinterval /rbmap xdef
  dup 2 index dup getinterval /gbmap xdef
  1 index dup 2 mul exch getinterval /bbmap xdef pop pop}bdef
/it {gs np dtri aload pop moveto lineto lineto cp c
  cols rows 8 compute_transform 
  rbmap gbmap bbmap true 3 colorimage gr}bdef
/il {newpath moveto lineto stroke}bdef
currentdict end def
%%EndProlog

%%BeginSetup
MathWorks begin

0 cap

end
%%EndSetup

%%Page: 1 1
%%BeginPageSetup
%%PageBoundingBox:   105   246   477   550
MathWorks begin
bpage
%%EndPageSetup

%%BeginObject: obj1
bplot

/dpi2point 12 def
portraitMode 1260 6552 csm

    0   -48  4467  3648 rc
89 dict begin %Colortable dictionary
/c0 { 0.000000 0.000000 0.000000 sr} bdef
/c1 { 1.000000 1.000000 1.000000 sr} bdef
/c2 { 0.900000 0.000000 0.000000 sr} bdef
/c3 { 0.000000 0.820000 0.000000 sr} bdef
/c4 { 0.000000 0.000000 0.800000 sr} bdef
/c5 { 0.910000 0.820000 0.320000 sr} bdef
/c6 { 1.000000 0.260000 0.820000 sr} bdef
/c7 { 0.000000 0.820000 0.820000 sr} bdef
c0
1 j
1 sg
   0    0 4801 3601 rf
6 w
0 2793 3720 0 0 -2793 624 3150 4 MP
PP
-3720 0 0 2793 3720 0 0 -2793 624 3150 5 MP stroke
4 w
DO
0.3 sg
 624 2821 mt 4344 2821 L
4344 2821 mt 4344 2821 L
 624 1999 mt 4344 1999 L
4344 1999 mt 4344 1999 L
 624 1178 mt 4344 1178 L
4344 1178 mt 4344 1178 L
SO
6 w
 624 3150 mt 4344 3150 L
 624 3150 mt  624  357 L
 624 3150 mt  624 3224 L
%%IncludeResource: font Helvetica
/Helvetica /ISOLatin1Encoding 120 FMSR

 558 3369 mt 
(15) s
 706 3150 mt  706 3187 L
 789 3150 mt  789 3187 L
 872 3150 mt  872 3187 L
 954 3150 mt  954 3187 L
1037 3150 mt 1037 3187 L
1037 3150 mt 1037 3187 L
1037 3150 mt 1037 3187 L
1037 3150 mt 1037 3187 L
1037 3150 mt 1037 3187 L
1037 3150 mt 1037 3224 L
 971 3369 mt 
(20) s
1120 3150 mt 1120 3187 L
1202 3150 mt 1202 3187 L
1285 3150 mt 1285 3187 L
1368 3150 mt 1368 3187 L
1450 3150 mt 1450 3187 L
1450 3150 mt 1450 3187 L
1450 3150 mt 1450 3187 L
1450 3150 mt 1450 3187 L
1450 3150 mt 1450 3187 L
1450 3150 mt 1450 3224 L
1384 3369 mt 
(25) s
1533 3150 mt 1533 3187 L
1616 3150 mt 1616 3187 L
1698 3150 mt 1698 3187 L
1781 3150 mt 1781 3187 L
1864 3150 mt 1864 3187 L
1864 3150 mt 1864 3187 L
1864 3150 mt 1864 3187 L
1864 3150 mt 1864 3187 L
1864 3150 mt 1864 3187 L
1864 3150 mt 1864 3224 L
1798 3369 mt 
(30) s
1946 3150 mt 1946 3187 L
2029 3150 mt 2029 3187 L
2112 3150 mt 2112 3187 L
2194 3150 mt 2194 3187 L
2277 3150 mt 2277 3187 L
2277 3150 mt 2277 3187 L
2277 3150 mt 2277 3187 L
2277 3150 mt 2277 3187 L
2277 3150 mt 2277 3187 L
2277 3150 mt 2277 3224 L
2211 3369 mt 
(35) s
2360 3150 mt 2360 3187 L
2442 3150 mt 2442 3187 L
2525 3150 mt 2525 3187 L
2608 3150 mt 2608 3187 L
2690 3150 mt 2690 3187 L
2690 3150 mt 2690 3187 L
2690 3150 mt 2690 3187 L
2690 3150 mt 2690 3187 L
2690 3150 mt 2690 3187 L
2690 3150 mt 2690 3224 L
2624 3369 mt 
(40) s
2773 3150 mt 2773 3187 L
2856 3150 mt 2856 3187 L
2938 3150 mt 2938 3187 L
3021 3150 mt 3021 3187 L
3104 3150 mt 3104 3187 L
3104 3150 mt 3104 3187 L
3104 3150 mt 3104 3187 L
3104 3150 mt 3104 3187 L
3104 3150 mt 3104 3187 L
3104 3150 mt 3104 3224 L
3038 3369 mt 
(45) s
3186 3150 mt 3186 3187 L
3269 3150 mt 3269 3187 L
3352 3150 mt 3352 3187 L
3434 3150 mt 3434 3187 L
3517 3150 mt 3517 3187 L
3517 3150 mt 3517 3187 L
3517 3150 mt 3517 3187 L
3517 3150 mt 3517 3187 L
3517 3150 mt 3517 3187 L
3517 3150 mt 3517 3224 L
3451 3369 mt 
(50) s
3600 3150 mt 3600 3187 L
3682 3150 mt 3682 3187 L
3765 3150 mt 3765 3187 L
3847 3150 mt 3847 3187 L
3930 3150 mt 3930 3187 L
3930 3150 mt 3930 3187 L
3930 3150 mt 3930 3187 L
3930 3150 mt 3930 3187 L
3930 3150 mt 3930 3187 L
3930 3150 mt 3930 3224 L
3864 3369 mt 
(55) s
4013 3150 mt 4013 3187 L
4096 3150 mt 4096 3187 L
4178 3150 mt 4178 3187 L
4261 3150 mt 4261 3187 L
4344 3150 mt 4344 3187 L
4344 3150 mt 4344 3187 L
4344 3150 mt 4344 3187 L
4344 3150 mt 4344 3187 L
4344 3150 mt 4344 3187 L
4344 3150 mt 4344 3224 L
4278 3369 mt 
(60) s
 624 2903 mt  586 2903 L
 624 2985 mt  586 2985 L
 624 3067 mt  586 3067 L
 624 3150 mt  586 3150 L
 624 2821 mt  549 2821 L
 379 2865 mt 
(-1) s
 624 2739 mt  586 2739 L
 624 2657 mt  586 2657 L
 624 2574 mt  586 2574 L
 624 2492 mt  586 2492 L
 624 2410 mt  586 2410 L
 624 2328 mt  586 2328 L
 624 2246 mt  586 2246 L
 624 2164 mt  586 2164 L
 624 2082 mt  586 2082 L
 624 1999 mt  549 1999 L
 279 2043 mt 
(-0.5) s
 624 1917 mt  586 1917 L
 624 1835 mt  586 1835 L
 624 1753 mt  586 1753 L
 624 1671 mt  586 1671 L
 624 1589 mt  586 1589 L
 624 1507 mt  586 1507 L
 624 1424 mt  586 1424 L
 624 1342 mt  586 1342 L
 624 1260 mt  586 1260 L
 624 1178 mt  549 1178 L
 449 1222 mt 
(0) s
 624 1096 mt  586 1096 L
 624 1014 mt  586 1014 L
 624  932 mt  586  932 L
 624  849 mt  586  849 L
 624  767 mt  586  767 L
 624  685 mt  586  685 L
 624  603 mt  586  603 L
 624  521 mt  586  521 L
 624  439 mt  586  439 L
gs 624 357 3721 2794 rc
10.8 w
/c8 { 0.000000 0.500000 0.000000 sr} bdef
c8
9 -2 10 0 9 -3 10 -1 10 1 10 2 11 2 10 -2 
11 0 10 -1 11 2 11 -2 11 1 12 0 11 0 12 -1 
12 -1 12 1 12 1 12 -1 13 -1 13 -2 13 2 14 -2 
13 1 14 -2 14 1 15 1 14 -1 15 -1 16 1 15 0 
16 -2 16 3 17 0 17 -3 18 3 17 -1 19 0 18 -5 
20 0 19 3 21 0 21 -2 21 0 22 2 23 -3 24 1 
24 -2 25 0 26 -1 27 0 28 1 29 0 30 0 31 0 
33 1 35 3 36 16 38 31 39 39 43 25 44 31 48 36 
51 28 54 32 59 43 64 29 70 58 77 25 86 36 98 29 
112 39 132 45 160 29 206 40 284 49 467 69 1017 1263 79 MP stroke
gs 908 1154 3369 953 rc
 963 1263 mt 1071 1263 L
1017 1209 mt 1017 1317 L
1430 1332 mt 1538 1332 L
1484 1278 mt 1484 1386 L
1714 1381 mt 1822 1381 L
1768 1327 mt 1768 1435 L
1920 1421 mt 2028 1421 L
1974 1367 mt 1974 1475 L
2080 1450 mt 2188 1450 L
2134 1396 mt 2134 1504 L
2212 1495 mt 2320 1495 L
2266 1441 mt 2266 1549 L
2324 1534 mt 2432 1534 L
2378 1480 mt 2378 1588 L
2422 1563 mt 2530 1563 L
2476 1509 mt 2476 1617 L
2508 1599 mt 2616 1599 L
2562 1545 mt 2562 1653 L
2585 1624 mt 2693 1624 L
2639 1570 mt 2639 1678 L
2655 1682 mt 2763 1682 L
2709 1628 mt 2709 1736 L
2719 1711 mt 2827 1711 L
2773 1657 mt 2773 1765 L
2778 1754 mt 2886 1754 L
2832 1700 mt 2832 1808 L
2832 1786 mt 2940 1786 L
2886 1732 mt 2886 1840 L
2883 1814 mt 2991 1814 L
2937 1760 mt 2937 1868 L
2931 1850 mt 3039 1850 L
2985 1796 mt 2985 1904 L
2975 1881 mt 3083 1881 L
3029 1827 mt 3029 1935 L
3018 1906 mt 3126 1906 L
3072 1852 mt 3072 1960 L
3057 1945 mt 3165 1945 L
3111 1891 mt 3111 1999 L
3095 1976 mt 3203 1976 L
3149 1922 mt 3149 2030 L
3131 1992 mt 3239 1992 L
3185 1938 mt 3185 2046 L
3166 1995 mt 3274 1995 L
3220 1941 mt 3220 2049 L
3199 1996 mt 3307 1996 L
3253 1942 mt 3253 2050 L
3230 1996 mt 3338 1996 L
3284 1942 mt 3284 2050 L
3260 1996 mt 3368 1996 L
3314 1942 mt 3314 2050 L
3289 1996 mt 3397 1996 L
3343 1942 mt 3343 2050 L
3317 1997 mt 3425 1997 L
3371 1943 mt 3371 2051 L
3344 1997 mt 3452 1997 L
3398 1943 mt 3398 2051 L
3370 1996 mt 3478 1996 L
3424 1942 mt 3424 2050 L
3395 1996 mt 3503 1996 L
3449 1942 mt 3449 2050 L
3419 1994 mt 3527 1994 L
3473 1940 mt 3473 2048 L
3443 1995 mt 3551 1995 L
3497 1941 mt 3497 2049 L
3466 1992 mt 3574 1992 L
3520 1938 mt 3520 2046 L
3488 1994 mt 3596 1994 L
3542 1940 mt 3542 2048 L
3509 1994 mt 3617 1994 L
3563 1940 mt 3563 2048 L
3530 1992 mt 3638 1992 L
3584 1938 mt 3584 2046 L
3551 1992 mt 3659 1992 L
3605 1938 mt 3605 2046 L
3570 1995 mt 3678 1995 L
3624 1941 mt 3624 2049 L
3590 1995 mt 3698 1995 L
3644 1941 mt 3644 2049 L
3608 1990 mt 3716 1990 L
3662 1936 mt 3662 2044 L
3627 1990 mt 3735 1990 L
3681 1936 mt 3681 2044 L
3644 1989 mt 3752 1989 L
3698 1935 mt 3698 2043 L
3662 1992 mt 3770 1992 L
3716 1938 mt 3716 2046 L
3679 1989 mt 3787 1989 L
3733 1935 mt 3733 2043 L
3696 1989 mt 3804 1989 L
3750 1935 mt 3750 2043 L
3712 1992 mt 3820 1992 L
3766 1938 mt 3766 2046 L
3728 1990 mt 3836 1990 L
3782 1936 mt 3782 2044 L
3743 1990 mt 3851 1990 L
3797 1936 mt 3797 2044 L
3759 1991 mt 3867 1991 L
3813 1937 mt 3813 2045 L
3774 1990 mt 3882 1990 L
3828 1936 mt 3828 2044 L
3788 1989 mt 3896 1989 L
3842 1935 mt 3842 2043 L
3803 1990 mt 3911 1990 L
3857 1936 mt 3857 2044 L
3817 1991 mt 3925 1991 L
3871 1937 mt 3871 2045 L
3831 1989 mt 3939 1989 L
3885 1935 mt 3885 2043 L
3844 1990 mt 3952 1990 L
3898 1936 mt 3898 2044 L
3858 1988 mt 3966 1988 L
3912 1934 mt 3912 2042 L
3871 1990 mt 3979 1990 L
3925 1936 mt 3925 2044 L
3884 1988 mt 3992 1988 L
3938 1934 mt 3938 2042 L
3897 1987 mt 4005 1987 L
3951 1933 mt 3951 2041 L
3909 1986 mt 4017 1986 L
3963 1932 mt 3963 2040 L
3921 1987 mt 4029 1987 L
3975 1933 mt 3975 2041 L
3933 1988 mt 4041 1988 L
3987 1934 mt 3987 2042 L
3945 1987 mt 4053 1987 L
3999 1933 mt 3999 2041 L
3957 1986 mt 4065 1986 L
4011 1932 mt 4011 2040 L
3968 1986 mt 4076 1986 L
4022 1932 mt 4022 2040 L
3980 1986 mt 4088 1986 L
4034 1932 mt 4034 2040 L
3991 1987 mt 4099 1987 L
4045 1933 mt 4045 2041 L
4002 1985 mt 4110 1985 L
4056 1931 mt 4056 2039 L
4013 1987 mt 4121 1987 L
4067 1933 mt 4067 2041 L
4023 1986 mt 4131 1986 L
4077 1932 mt 4077 2040 L
4034 1986 mt 4142 1986 L
4088 1932 mt 4088 2040 L
4044 1984 mt 4152 1984 L
4098 1930 mt 4098 2038 L
4055 1986 mt 4163 1986 L
4109 1932 mt 4109 2040 L
4065 1988 mt 4173 1988 L
4119 1934 mt 4119 2042 L
4075 1989 mt 4183 1989 L
4129 1935 mt 4129 2043 L
4085 1988 mt 4193 1988 L
4139 1934 mt 4139 2042 L
4094 1985 mt 4202 1985 L
4148 1931 mt 4148 2039 L
4104 1985 mt 4212 1985 L
4158 1931 mt 4158 2039 L
4113 1983 mt 4221 1983 L
4167 1929 mt 4167 2037 L
gr

/c9 { 0.000000 0.000000 0.500000 sr} bdef
c9
9 -1 10 1 9 0 10 -1 10 -1 10 0 11 0 10 2 
11 0 10 0 11 0 11 0 11 -2 12 1 11 1 12 -1 
12 0 12 -1 12 0 12 -1 13 2 13 -2 13 0 14 0 
13 1 14 -1 14 1 15 -1 14 0 15 1 16 -1 15 0 
16 1 16 0 17 0 17 0 18 1 17 1 19 2 18 4 
20 9 19 10 21 12 21 14 21 23 22 24 23 7 24 17 
24 25 25 11 26 20 27 21 28 22 29 20 30 21 31 13 
33 18 35 10 36 22 38 14 39 17 43 24 44 28 48 18 
51 13 54 17 59 20 64 21 70 17 77 24 86 23 98 20 
112 23 132 20 160 26 206 27 284 29 467 33 1017 1226 79 MP stroke
gs 908 1117 3369 961 rc
  54   54 1017 1226 FO
  54   54 1484 1259 FO
  54   54 1768 1288 FO
  54   54 1974 1315 FO
  54   54 2134 1341 FO
  54   54 2266 1361 FO
  54   54 2378 1384 FO
  54   54 2476 1404 FO
  54   54 2562 1427 FO
  54   54 2639 1451 FO
  54   54 2709 1468 FO
  54   54 2773 1489 FO
  54   54 2832 1509 FO
  54   54 2886 1526 FO
  54   54 2937 1539 FO
  54   54 2985 1557 FO
  54   54 3029 1585 FO
  54   54 3072 1609 FO
  54   54 3111 1626 FO
  54   54 3149 1640 FO
  54   54 3185 1662 FO
  54   54 3220 1672 FO
  54   54 3253 1690 FO
  54   54 3284 1703 FO
  54   54 3314 1724 FO
  54   54 3343 1744 FO
  54   54 3371 1766 FO
  54   54 3398 1787 FO
  54   54 3424 1807 FO
  54   54 3449 1818 FO
  54   54 3473 1843 FO
  54   54 3497 1860 FO
  54   54 3520 1867 FO
  54   54 3542 1891 FO
  54   54 3563 1914 FO
  54   54 3584 1928 FO
  54   54 3605 1940 FO
  54   54 3624 1950 FO
  54   54 3644 1959 FO
  54   54 3662 1963 FO
  54   54 3681 1965 FO
  54   54 3698 1966 FO
  54   54 3716 1967 FO
  54   54 3733 1967 FO
  54   54 3750 1967 FO
  54   54 3766 1967 FO
  54   54 3782 1968 FO
  54   54 3797 1968 FO
  54   54 3813 1967 FO
  54   54 3828 1968 FO
  54   54 3842 1968 FO
  54   54 3857 1967 FO
  54   54 3871 1968 FO
  54   54 3885 1967 FO
  54   54 3898 1968 FO
  54   54 3912 1968 FO
  54   54 3925 1968 FO
  54   54 3938 1966 FO
  54   54 3951 1968 FO
  54   54 3963 1967 FO
  54   54 3975 1967 FO
  54   54 3987 1966 FO
  54   54 3999 1966 FO
  54   54 4011 1965 FO
  54   54 4022 1966 FO
  54   54 4034 1967 FO
  54   54 4045 1965 FO
  54   54 4056 1965 FO
  54   54 4067 1965 FO
  54   54 4077 1965 FO
  54   54 4088 1965 FO
  54   54 4098 1967 FO
  54   54 4109 1967 FO
  54   54 4119 1967 FO
  54   54 4129 1966 FO
  54   54 4139 1965 FO
  54   54 4148 1965 FO
  54   54 4158 1966 FO
  54   54 4167 1965 FO
gr

/c10 { 0.500000 0.000000 0.000000 sr} bdef
c10
9 5 10 4 9 5 10 6 10 7 10 7 11 5 10 10 
11 5 10 8 11 7 11 11 11 9 12 11 11 8 12 4 
12 8 12 8 12 11 12 6 13 8 13 9 13 12 14 8 
13 6 14 8 14 8 15 10 14 11 15 8 16 7 15 9 
16 8 16 9 17 9 17 10 18 9 17 7 19 9 18 11 
20 9 19 10 21 8 21 10 21 11 22 7 23 9 24 9 
24 9 25 9 26 11 27 11 28 9 29 10 30 9 31 11 
33 9 35 10 36 10 38 11 39 9 43 10 44 11 48 12 
51 12 54 11 59 10 64 12 70 11 77 12 86 12 98 12 
112 11 132 13 160 13 206 14 284 15 467 19 1017 1203 79 MP stroke
gs 908 1094 3369 951 rc
 979 1165 mt 1055 1241 L
1055 1165 mt  979 1241 L
1446 1184 mt 1522 1260 L
1522 1184 mt 1446 1260 L
1730 1199 mt 1806 1275 L
1806 1199 mt 1730 1275 L
1936 1213 mt 2012 1289 L
2012 1213 mt 1936 1289 L
2096 1226 mt 2172 1302 L
2172 1226 mt 2096 1302 L
2228 1239 mt 2304 1315 L
2304 1239 mt 2228 1315 L
2340 1250 mt 2416 1326 L
2416 1250 mt 2340 1326 L
2438 1262 mt 2514 1338 L
2514 1262 mt 2438 1338 L
2524 1274 mt 2600 1350 L
2600 1274 mt 2524 1350 L
2601 1286 mt 2677 1362 L
2677 1286 mt 2601 1362 L
2671 1297 mt 2747 1373 L
2747 1297 mt 2671 1373 L
2735 1309 mt 2811 1385 L
2811 1309 mt 2735 1385 L
2794 1319 mt 2870 1395 L
2870 1319 mt 2794 1395 L
2848 1330 mt 2924 1406 L
2924 1330 mt 2848 1406 L
2899 1342 mt 2975 1418 L
2975 1342 mt 2899 1418 L
2947 1354 mt 3023 1430 L
3023 1354 mt 2947 1430 L
2991 1365 mt 3067 1441 L
3067 1365 mt 2991 1441 L
3034 1375 mt 3110 1451 L
3110 1375 mt 3034 1451 L
3073 1384 mt 3149 1460 L
3149 1384 mt 3073 1460 L
3111 1395 mt 3187 1471 L
3187 1395 mt 3111 1471 L
3147 1405 mt 3223 1481 L
3223 1405 mt 3147 1481 L
3182 1415 mt 3258 1491 L
3258 1415 mt 3182 1491 L
3215 1424 mt 3291 1500 L
3291 1424 mt 3215 1500 L
3246 1435 mt 3322 1511 L
3322 1435 mt 3246 1511 L
3276 1444 mt 3352 1520 L
3352 1444 mt 3276 1520 L
3305 1454 mt 3381 1530 L
3381 1454 mt 3305 1530 L
3333 1463 mt 3409 1539 L
3409 1463 mt 3333 1539 L
3360 1474 mt 3436 1550 L
3436 1474 mt 3360 1550 L
3386 1485 mt 3462 1561 L
3462 1485 mt 3386 1561 L
3411 1494 mt 3487 1570 L
3487 1494 mt 3411 1570 L
3435 1503 mt 3511 1579 L
3511 1503 mt 3435 1579 L
3459 1512 mt 3535 1588 L
3535 1512 mt 3459 1588 L
3482 1521 mt 3558 1597 L
3558 1521 mt 3482 1597 L
3504 1528 mt 3580 1604 L
3580 1528 mt 3504 1604 L
3525 1539 mt 3601 1615 L
3601 1539 mt 3525 1615 L
3546 1549 mt 3622 1625 L
3622 1549 mt 3546 1625 L
3567 1557 mt 3643 1633 L
3643 1557 mt 3567 1633 L
3586 1567 mt 3662 1643 L
3662 1567 mt 3586 1643 L
3606 1576 mt 3682 1652 L
3682 1576 mt 3606 1652 L
3624 1587 mt 3700 1663 L
3700 1587 mt 3624 1663 L
3643 1596 mt 3719 1672 L
3719 1596 mt 3643 1672 L
3660 1603 mt 3736 1679 L
3736 1603 mt 3660 1679 L
3678 1612 mt 3754 1688 L
3754 1612 mt 3678 1688 L
3695 1622 mt 3771 1698 L
3771 1622 mt 3695 1698 L
3712 1631 mt 3788 1707 L
3788 1631 mt 3712 1707 L
3728 1640 mt 3804 1716 L
3804 1640 mt 3728 1716 L
3744 1648 mt 3820 1724 L
3820 1648 mt 3744 1724 L
3759 1657 mt 3835 1733 L
3835 1657 mt 3759 1733 L
3775 1664 mt 3851 1740 L
3851 1664 mt 3775 1740 L
3790 1672 mt 3866 1748 L
3866 1672 mt 3790 1748 L
3804 1683 mt 3880 1759 L
3880 1683 mt 3804 1759 L
3819 1693 mt 3895 1769 L
3895 1693 mt 3819 1769 L
3833 1701 mt 3909 1777 L
3909 1701 mt 3833 1777 L
3847 1709 mt 3923 1785 L
3923 1709 mt 3847 1785 L
3860 1715 mt 3936 1791 L
3936 1715 mt 3860 1791 L
3874 1723 mt 3950 1799 L
3950 1723 mt 3874 1799 L
3887 1735 mt 3963 1811 L
3963 1735 mt 3887 1811 L
3900 1744 mt 3976 1820 L
3976 1744 mt 3900 1820 L
3913 1752 mt 3989 1828 L
3989 1752 mt 3913 1828 L
3925 1758 mt 4001 1834 L
4001 1758 mt 3925 1834 L
3937 1769 mt 4013 1845 L
4013 1769 mt 3937 1845 L
3949 1777 mt 4025 1853 L
4025 1777 mt 3949 1853 L
3961 1785 mt 4037 1861 L
4037 1785 mt 3961 1861 L
3973 1789 mt 4049 1865 L
4049 1789 mt 3973 1865 L
3984 1797 mt 4060 1873 L
4060 1797 mt 3984 1873 L
3996 1808 mt 4072 1884 L
4072 1808 mt 3996 1884 L
4007 1817 mt 4083 1893 L
4083 1817 mt 4007 1893 L
4018 1828 mt 4094 1904 L
4094 1828 mt 4018 1904 L
4029 1835 mt 4105 1911 L
4105 1835 mt 4029 1911 L
4039 1843 mt 4115 1919 L
4115 1843 mt 4039 1919 L
4050 1848 mt 4126 1924 L
4126 1848 mt 4050 1924 L
4060 1858 mt 4136 1934 L
4136 1858 mt 4060 1934 L
4071 1863 mt 4147 1939 L
4147 1863 mt 4071 1939 L
4081 1870 mt 4157 1946 L
4157 1870 mt 4081 1946 L
4091 1877 mt 4167 1953 L
4167 1877 mt 4091 1953 L
4101 1883 mt 4177 1959 L
4177 1883 mt 4101 1959 L
4110 1888 mt 4186 1964 L
4186 1888 mt 4110 1964 L
4120 1892 mt 4196 1968 L
4196 1892 mt 4120 1968 L
4129 1897 mt 4205 1973 L
4205 1897 mt 4129 1973 L
gr

/c11 { 0.000000 0.500000 0.500000 sr} bdef
c11
9 5 10 4 9 4 10 5 10 4 10 4 11 5 10 5 
11 4 10 5 11 5 11 4 11 4 12 6 11 4 12 4 
12 5 12 5 12 5 12 5 13 4 13 5 13 5 14 5 
13 4 14 5 14 4 15 5 14 4 15 5 16 5 15 4 
16 5 16 5 17 4 17 5 18 5 17 5 19 4 18 5 
20 4 19 5 21 5 21 5 21 4 22 6 23 5 24 5 
24 4 25 5 26 6 27 5 28 6 29 5 30 5 31 5 
33 5 35 6 36 5 38 5 39 6 43 5 44 6 48 6 
51 5 54 6 59 6 64 4 70 6 77 6 86 7 98 6 
112 7 132 6 160 6 206 7 284 7 467 9 1017 1192 79 MP stroke
gs 908 1083 3369 616 rc
0 j
0 -86 -86 0 0 86 86 0 974 1149 5 MP
DP
0 -86 -86 0 0 86 86 0 1441 1158 5 MP
DP
0 -86 -86 0 0 86 86 0 1725 1165 5 MP
DP
0 -86 -86 0 0 86 86 0 1931 1172 5 MP
DP
0 -86 -86 0 0 86 86 0 2091 1178 5 MP
DP
0 -86 -86 0 0 86 86 0 2223 1184 5 MP
DP
0 -86 -86 0 0 86 86 0 2335 1191 5 MP
DP
0 -86 -86 0 0 86 86 0 2433 1197 5 MP
DP
0 -86 -86 0 0 86 86 0 2519 1204 5 MP
DP
0 -86 -86 0 0 86 86 0 2596 1210 5 MP
DP
0 -86 -86 0 0 86 86 0 2666 1216 5 MP
DP
0 -86 -86 0 0 86 86 0 2730 1220 5 MP
DP
0 -86 -86 0 0 86 86 0 2789 1226 5 MP
DP
0 -86 -86 0 0 86 86 0 2843 1232 5 MP
DP
0 -86 -86 0 0 86 86 0 2894 1237 5 MP
DP
0 -86 -86 0 0 86 86 0 2942 1243 5 MP
DP
0 -86 -86 0 0 86 86 0 2986 1249 5 MP
DP
0 -86 -86 0 0 86 86 0 3029 1254 5 MP
DP
0 -86 -86 0 0 86 86 0 3068 1260 5 MP
DP
0 -86 -86 0 0 86 86 0 3106 1265 5 MP
DP
0 -86 -86 0 0 86 86 0 3142 1270 5 MP
DP
0 -86 -86 0 0 86 86 0 3177 1276 5 MP
DP
0 -86 -86 0 0 86 86 0 3210 1281 5 MP
DP
0 -86 -86 0 0 86 86 0 3241 1286 5 MP
DP
0 -86 -86 0 0 86 86 0 3271 1291 5 MP
DP
0 -86 -86 0 0 86 86 0 3300 1296 5 MP
DP
0 -86 -86 0 0 86 86 0 3328 1302 5 MP
DP
0 -86 -86 0 0 86 86 0 3355 1307 5 MP
DP
0 -86 -86 0 0 86 86 0 3381 1313 5 MP
DP
0 -86 -86 0 0 86 86 0 3406 1318 5 MP
DP
0 -86 -86 0 0 86 86 0 3430 1322 5 MP
DP
0 -86 -86 0 0 86 86 0 3454 1327 5 MP
DP
0 -86 -86 0 0 86 86 0 3477 1332 5 MP
DP
0 -86 -86 0 0 86 86 0 3499 1338 5 MP
DP
0 -86 -86 0 0 86 86 0 3520 1342 5 MP
DP
0 -86 -86 0 0 86 86 0 3541 1347 5 MP
DP
0 -86 -86 0 0 86 86 0 3562 1352 5 MP
DP
0 -86 -86 0 0 86 86 0 3581 1357 5 MP
DP
0 -86 -86 0 0 86 86 0 3601 1361 5 MP
DP
0 -86 -86 0 0 86 86 0 3619 1366 5 MP
DP
0 -86 -86 0 0 86 86 0 3638 1370 5 MP
DP
0 -86 -86 0 0 86 86 0 3655 1375 5 MP
DP
0 -86 -86 0 0 86 86 0 3673 1380 5 MP
DP
0 -86 -86 0 0 86 86 0 3690 1385 5 MP
DP
0 -86 -86 0 0 86 86 0 3707 1389 5 MP
DP
0 -86 -86 0 0 86 86 0 3723 1394 5 MP
DP
0 -86 -86 0 0 86 86 0 3739 1399 5 MP
DP
0 -86 -86 0 0 86 86 0 3754 1403 5 MP
DP
0 -86 -86 0 0 86 86 0 3770 1408 5 MP
DP
0 -86 -86 0 0 86 86 0 3785 1413 5 MP
DP
0 -86 -86 0 0 86 86 0 3799 1417 5 MP
DP
0 -86 -86 0 0 86 86 0 3814 1422 5 MP
DP
0 -86 -86 0 0 86 86 0 3828 1426 5 MP
DP
0 -86 -86 0 0 86 86 0 3842 1431 5 MP
DP
0 -86 -86 0 0 86 86 0 3855 1435 5 MP
DP
0 -86 -86 0 0 86 86 0 3869 1440 5 MP
DP
0 -86 -86 0 0 86 86 0 3882 1445 5 MP
DP
0 -86 -86 0 0 86 86 0 3895 1450 5 MP
DP
0 -86 -86 0 0 86 86 0 3908 1454 5 MP
DP
0 -86 -86 0 0 86 86 0 3920 1459 5 MP
DP
0 -86 -86 0 0 86 86 0 3932 1464 5 MP
DP
0 -86 -86 0 0 86 86 0 3944 1469 5 MP
DP
0 -86 -86 0 0 86 86 0 3956 1474 5 MP
DP
0 -86 -86 0 0 86 86 0 3968 1478 5 MP
DP
0 -86 -86 0 0 86 86 0 3979 1482 5 MP
DP
0 -86 -86 0 0 86 86 0 3991 1488 5 MP
DP
0 -86 -86 0 0 86 86 0 4002 1492 5 MP
DP
0 -86 -86 0 0 86 86 0 4013 1496 5 MP
DP
0 -86 -86 0 0 86 86 0 4024 1501 5 MP
DP
0 -86 -86 0 0 86 86 0 4034 1506 5 MP
DP
0 -86 -86 0 0 86 86 0 4045 1510 5 MP
DP
0 -86 -86 0 0 86 86 0 4055 1515 5 MP
DP
0 -86 -86 0 0 86 86 0 4066 1520 5 MP
DP
0 -86 -86 0 0 86 86 0 4076 1524 5 MP
DP
0 -86 -86 0 0 86 86 0 4086 1528 5 MP
DP
0 -86 -86 0 0 86 86 0 4096 1533 5 MP
DP
0 -86 -86 0 0 86 86 0 4105 1537 5 MP
DP
0 -86 -86 0 0 86 86 0 4115 1541 5 MP
DP
0 -86 -86 0 0 86 86 0 4124 1546 5 MP
DP
gr

gr

10.8 w
c11
0 sg
%%IncludeResource: font AvantGarde-Demi
/AvantGarde-Demi /ISOLatin1Encoding 228 FMSR

1949  232 mt 
(\(1+1\) - ES) s
0.3 sg
%%IncludeResource: font AvantGarde-Book
/AvantGarde-Book /ISOLatin1Encoding 180 FMSR

1988 3559 mt 
(log\(nbEval\)) s
 185 2177 mt  -90 rotate
(slope \(SR\)) s
90 rotate
0 sg
%%IncludeResource: font Helvetica
/Helvetica /ISOLatin1Encoding 120 FMSR

 607 3193 mt 
( ) s
4328  399 mt 
( ) s
6 w
1 sg
0 626 886 0 0 -626 3399 1043 4 MP
PP
-886 0 0 626 886 0 0 -626 3399 1043 5 MP stroke
4 w
DO
SO
6 w
0 sg
3399 1043 mt 4285 1043 L
3399  417 mt 4285  417 L
3399 1043 mt 3399  417 L
4285 1043 mt 4285  417 L
3399 1043 mt 4285 1043 L
3399 1043 mt 3399  417 L
3399 1043 mt 4285 1043 L
3399  417 mt 4285  417 L
3399 1043 mt 3399  417 L
4285 1043 mt 4285  417 L
3877  553 mt 
(Dim 2) s
gs 3399 417 887 627 rc
10.8 w
c8
367 0 3472 510 2 MP stroke
gr

10.8 w
c8
gs 3546 401 219 219 rc
3601  510 mt 3709  510 L
3655  456 mt 3655  564 L
gr

gs 3399 417 887 627 rc
gr

0 sg
3877  699 mt 
(Dim 4) s
gs 3399 417 887 627 rc
c9
367 0 3472 656 2 MP stroke
gs 3546 547 219 219 rc
  54   54 3655  656 FO
gr

gr

c9
0 sg
3877  846 mt 
(Dim 8) s
gs 3399 417 887 627 rc
c10
367 0 3472 803 2 MP stroke
gs 3546 694 219 219 rc
3617  765 mt 3693  841 L
3693  765 mt 3617  841 L
gr

gr

c10
0 sg
3877  992 mt 
(Dim 16) s
gs 3399 417 887 627 rc
c11
367 0 3472 949 2 MP stroke
gr

c11
gs 3546 840 219 219 rc
0 j
0 -86 -86 0 0 86 86 0 3612 906 5 MP
DP
gr

gs 3399 417 887 627 rc
6 w
gr

6 w

end %%Color Dict

eplot
%%EndObject

epage
end

showpage

%%Trailer
%%EOF
