%!PS-Adobe-3.0 EPSF-3.0
%%Creator: MATLAB, The MathWorks, Inc. Version 7.14.0.739 (R2012a). Operating System: Linux 3.13.0-35-generic #62-Ubuntu SMP Fri Aug 15 01:58:42 UTC 2014 x86_64.
%%Title: ./oneplusone_esareslow_lognbeval_reval2_1.eps
%%CreationDate: 08/29/2014  22:33:18
%%DocumentNeededFonts: Helvetica
%%+ AvantGarde-Book
%%+ AvantGarde-Demi
%%DocumentProcessColors: Cyan Magenta Yellow Black
%%LanguageLevel: 2
%%Pages: 1
%%BoundingBox:   105   246   478   550
%%EndComments

%%BeginProlog
% MathWorks dictionary
/MathWorks 160 dict begin
% definition operators
/bdef {bind def} bind def
/ldef {load def} bind def
/xdef {exch def} bdef
/xstore {exch store} bdef
% operator abbreviations
/c  /clip ldef
/cc /concat ldef
/cp /closepath ldef
/gr /grestore ldef
/gs /gsave ldef
/mt /moveto ldef
/np /newpath ldef
/cm /currentmatrix ldef
/sm /setmatrix ldef
/rm /rmoveto ldef
/rl /rlineto ldef
/s {show newpath} bdef
/sc {setcmykcolor} bdef
/sr /setrgbcolor ldef
/sg /setgray ldef
/w /setlinewidth ldef
/j /setlinejoin ldef
/cap /setlinecap ldef
/rc {rectclip} bdef
/rf {rectfill} bdef
% page state control
/pgsv () def
/bpage {/pgsv save def} bdef
/epage {pgsv restore} bdef
/bplot /gsave ldef
/eplot {stroke grestore} bdef
% orientation switch
/portraitMode 0 def /landscapeMode 1 def /rotateMode 2 def
% coordinate system mappings
/dpi2point 0 def
% font control
/FontSize 0 def
/FMS {/FontSize xstore findfont [FontSize 0 0 FontSize neg 0 0]
  makefont setfont} bdef
/reencode {exch dup where {pop load} {pop StandardEncoding} ifelse
  exch dup 3 1 roll findfont dup length dict begin
  { 1 index /FID ne {def}{pop pop} ifelse } forall
  /Encoding exch def currentdict end definefont pop} bdef
/isroman {findfont /CharStrings get /Agrave known} bdef
/FMSR {3 1 roll 1 index dup isroman {reencode} {pop pop} ifelse
  exch FMS} bdef
/csm {1 dpi2point div -1 dpi2point div scale neg translate
 dup landscapeMode eq {pop -90 rotate}
  {rotateMode eq {90 rotate} if} ifelse} bdef
% line types: solid, dotted, dashed, dotdash
/SO { [] 0 setdash } bdef
/DO { [.5 dpi2point mul 4 dpi2point mul] 0 setdash } bdef
/DA { [6 dpi2point mul] 0 setdash } bdef
/DD { [.5 dpi2point mul 4 dpi2point mul 6 dpi2point mul 4
  dpi2point mul] 0 setdash } bdef
% macros for lines and objects
/L {lineto stroke} bdef
/MP {3 1 roll moveto 1 sub {rlineto} repeat} bdef
/AP {{rlineto} repeat} bdef
/PDlw -1 def
/W {/PDlw currentlinewidth def setlinewidth} def
/PP {closepath eofill} bdef
/DP {closepath stroke} bdef
/MR {4 -2 roll moveto dup  0 exch rlineto exch 0 rlineto
  neg 0 exch rlineto closepath} bdef
/FR {MR stroke} bdef
/PR {MR fill} bdef
/L1i {{currentfile picstr readhexstring pop} image} bdef
/tMatrix matrix def
/MakeOval {newpath tMatrix currentmatrix pop translate scale
0 0 1 0 360 arc tMatrix setmatrix} bdef
/FO {MakeOval stroke} bdef
/PO {MakeOval fill} bdef
/PD {currentlinewidth 2 div 0 360 arc fill
   PDlw -1 eq not {PDlw w /PDlw -1 def} if} def
/FA {newpath tMatrix currentmatrix pop translate scale
  0 0 1 5 -2 roll arc tMatrix setmatrix stroke} bdef
/PA {newpath tMatrix currentmatrix pop	translate 0 0 moveto scale
  0 0 1 5 -2 roll arc closepath tMatrix setmatrix fill} bdef
/FAn {newpath tMatrix currentmatrix pop translate scale
  0 0 1 5 -2 roll arcn tMatrix setmatrix stroke} bdef
/PAn {newpath tMatrix currentmatrix pop translate 0 0 moveto scale
  0 0 1 5 -2 roll arcn closepath tMatrix setmatrix fill} bdef
/vradius 0 def /hradius 0 def /lry 0 def
/lrx 0 def /uly 0 def /ulx 0 def /rad 0 def
/MRR {/vradius xdef /hradius xdef /lry xdef /lrx xdef /uly xdef
  /ulx xdef newpath tMatrix currentmatrix pop ulx hradius add uly
  vradius add translate hradius vradius scale 0 0 1 180 270 arc 
  tMatrix setmatrix lrx hradius sub uly vradius add translate
  hradius vradius scale 0 0 1 270 360 arc tMatrix setmatrix
  lrx hradius sub lry vradius sub translate hradius vradius scale
  0 0 1 0 90 arc tMatrix setmatrix ulx hradius add lry vradius sub
  translate hradius vradius scale 0 0 1 90 180 arc tMatrix setmatrix
  closepath} bdef
/FRR {MRR stroke } bdef
/PRR {MRR fill } bdef
/MlrRR {/lry xdef /lrx xdef /uly xdef /ulx xdef /rad lry uly sub 2 div def
  newpath tMatrix currentmatrix pop ulx rad add uly rad add translate
  rad rad scale 0 0 1 90 270 arc tMatrix setmatrix lrx rad sub lry rad
  sub translate rad rad scale 0 0 1 270 90 arc tMatrix setmatrix
  closepath} bdef
/FlrRR {MlrRR stroke } bdef
/PlrRR {MlrRR fill } bdef
/MtbRR {/lry xdef /lrx xdef /uly xdef /ulx xdef /rad lrx ulx sub 2 div def
  newpath tMatrix currentmatrix pop ulx rad add uly rad add translate
  rad rad scale 0 0 1 180 360 arc tMatrix setmatrix lrx rad sub lry rad
  sub translate rad rad scale 0 0 1 0 180 arc tMatrix setmatrix
  closepath} bdef
/FtbRR {MtbRR stroke } bdef
/PtbRR {MtbRR fill } bdef
/stri 6 array def /dtri 6 array def
/smat 6 array def /dmat 6 array def
/tmat1 6 array def /tmat2 6 array def /dif 3 array def
/asub {/ind2 exch def /ind1 exch def dup dup
  ind1 get exch ind2 get sub exch } bdef
/tri_to_matrix {
  2 0 asub 3 1 asub 4 0 asub 5 1 asub
  dup 0 get exch 1 get 7 -1 roll astore } bdef
/compute_transform {
  dmat dtri tri_to_matrix tmat1 invertmatrix 
  smat stri tri_to_matrix tmat2 concatmatrix } bdef
/ds {stri astore pop} bdef
/dt {dtri astore pop} bdef
/db {2 copy /cols xdef /rows xdef mul dup 3 mul string
  currentfile 
  3 index 0 eq {/ASCIIHexDecode filter}
  {/ASCII85Decode filter 3 index 2 eq {/RunLengthDecode filter} if }
  ifelse exch readstring pop
  dup 0 3 index getinterval /rbmap xdef
  dup 2 index dup getinterval /gbmap xdef
  1 index dup 2 mul exch getinterval /bbmap xdef pop pop}bdef
/it {gs np dtri aload pop moveto lineto lineto cp c
  cols rows 8 compute_transform 
  rbmap gbmap bbmap true 3 colorimage gr}bdef
/il {newpath moveto lineto stroke}bdef
currentdict end def
%%EndProlog

%%BeginSetup
MathWorks begin

0 cap

end
%%EndSetup

%%Page: 1 1
%%BeginPageSetup
%%PageBoundingBox:   105   246   478   550
MathWorks begin
bpage
%%EndPageSetup

%%BeginObject: obj1
bplot

/dpi2point 12 def
portraitMode 1260 6552 csm

    0   -48  4483  3648 rc
89 dict begin %Colortable dictionary
/c0 { 0.000000 0.000000 0.000000 sr} bdef
/c1 { 1.000000 1.000000 1.000000 sr} bdef
/c2 { 0.900000 0.000000 0.000000 sr} bdef
/c3 { 0.000000 0.820000 0.000000 sr} bdef
/c4 { 0.000000 0.000000 0.800000 sr} bdef
/c5 { 0.910000 0.820000 0.320000 sr} bdef
/c6 { 1.000000 0.260000 0.820000 sr} bdef
/c7 { 0.000000 0.820000 0.820000 sr} bdef
c0
1 j
1 sg
   0    0 4801 3601 rf
6 w
0 2793 3720 0 0 -2793 624 3150 4 MP
PP
-3720 0 0 2793 3720 0 0 -2793 624 3150 5 MP stroke
4 w
DO
0.3 sg
 624 2821 mt 4344 2821 L
4344 2821 mt 4344 2821 L
 624 1999 mt 4344 1999 L
4344 1999 mt 4344 1999 L
 624 1178 mt 4344 1178 L
4344 1178 mt 4344 1178 L
SO
6 w
 624 3150 mt 4344 3150 L
 624 3150 mt  624  357 L
 624 3150 mt  624 3224 L
%%IncludeResource: font Helvetica
/Helvetica /ISOLatin1Encoding 120 FMSR

 591 3369 mt 
(0) s
 748 3150 mt  748 3187 L
 872 3150 mt  872 3187 L
 996 3150 mt  996 3187 L
1120 3150 mt 1120 3187 L
1244 3150 mt 1244 3187 L
1244 3150 mt 1244 3187 L
1244 3150 mt 1244 3187 L
1244 3150 mt 1244 3187 L
1244 3150 mt 1244 3187 L
1244 3150 mt 1244 3224 L
1211 3369 mt 
(5) s
1368 3150 mt 1368 3187 L
1492 3150 mt 1492 3187 L
1616 3150 mt 1616 3187 L
1740 3150 mt 1740 3187 L
1864 3150 mt 1864 3187 L
1864 3150 mt 1864 3187 L
1864 3150 mt 1864 3187 L
1864 3150 mt 1864 3187 L
1864 3150 mt 1864 3187 L
1864 3150 mt 1864 3224 L
1798 3369 mt 
(10) s
1988 3150 mt 1988 3187 L
2112 3150 mt 2112 3187 L
2236 3150 mt 2236 3187 L
2360 3150 mt 2360 3187 L
2484 3150 mt 2484 3187 L
2484 3150 mt 2484 3187 L
2484 3150 mt 2484 3187 L
2484 3150 mt 2484 3187 L
2484 3150 mt 2484 3187 L
2484 3150 mt 2484 3224 L
2418 3369 mt 
(15) s
2608 3150 mt 2608 3187 L
2732 3150 mt 2732 3187 L
2856 3150 mt 2856 3187 L
2980 3150 mt 2980 3187 L
3104 3150 mt 3104 3187 L
3104 3150 mt 3104 3187 L
3104 3150 mt 3104 3187 L
3104 3150 mt 3104 3187 L
3104 3150 mt 3104 3187 L
3104 3150 mt 3104 3224 L
3038 3369 mt 
(20) s
3228 3150 mt 3228 3187 L
3352 3150 mt 3352 3187 L
3476 3150 mt 3476 3187 L
3600 3150 mt 3600 3187 L
3724 3150 mt 3724 3187 L
3724 3150 mt 3724 3187 L
3724 3150 mt 3724 3187 L
3724 3150 mt 3724 3187 L
3724 3150 mt 3724 3187 L
3724 3150 mt 3724 3224 L
3658 3369 mt 
(25) s
3848 3150 mt 3848 3187 L
3972 3150 mt 3972 3187 L
4096 3150 mt 4096 3187 L
4220 3150 mt 4220 3187 L
4344 3150 mt 4344 3187 L
4344 3150 mt 4344 3187 L
4344 3150 mt 4344 3187 L
4344 3150 mt 4344 3187 L
4344 3150 mt 4344 3187 L
4344 3150 mt 4344 3224 L
4278 3369 mt 
(30) s
 624 2903 mt  586 2903 L
 624 2985 mt  586 2985 L
 624 3067 mt  586 3067 L
 624 3150 mt  586 3150 L
 624 2821 mt  549 2821 L
 379 2865 mt 
(-1) s
 624 2739 mt  586 2739 L
 624 2657 mt  586 2657 L
 624 2574 mt  586 2574 L
 624 2492 mt  586 2492 L
 624 2410 mt  586 2410 L
 624 2328 mt  586 2328 L
 624 2246 mt  586 2246 L
 624 2164 mt  586 2164 L
 624 2082 mt  586 2082 L
 624 1999 mt  549 1999 L
 279 2043 mt 
(-0.5) s
 624 1917 mt  586 1917 L
 624 1835 mt  586 1835 L
 624 1753 mt  586 1753 L
 624 1671 mt  586 1671 L
 624 1589 mt  586 1589 L
 624 1507 mt  586 1507 L
 624 1424 mt  586 1424 L
 624 1342 mt  586 1342 L
 624 1260 mt  586 1260 L
 624 1178 mt  549 1178 L
 449 1222 mt 
(0) s
 624 1096 mt  586 1096 L
 624 1014 mt  586 1014 L
 624  932 mt  586  932 L
 624  849 mt  586  849 L
 624  767 mt  586  767 L
 624  685 mt  586  685 L
 624  603 mt  586  603 L
 624  521 mt  586  521 L
 624  439 mt  586  439 L
gs 624 357 3721 2794 rc
10.8 w
/c8 { 0.000000 0.500000 0.000000 sr} bdef
c8
42 -2 43 4 43 -5 42 -4 43 -2 42 1 43 3 42 -2 
43 2 43 0 42 -4 43 5 42 0 43 1 42 -2 43 -6 
43 8 42 -5 43 -5 42 7 43 -7 42 6 43 -1 43 1 
42 -5 43 9 42 -6 43 1 42 1 43 1 43 -1 42 0 
43 -1 42 -9 43 2 42 2 43 -1 43 -1 42 2 43 -7 
42 2 43 -10 42 12 43 1 43 -6 42 -4 43 -1 42 1 
43 -2 42 9 43 4 43 -12 42 -7 43 -6 42 4 43 3 
42 -7 43 10 42 1 43 -6 42 -14 43 4 42 0 42 -8 
42 -4 43 -8 42 -11 42 12 42 -20 42 2 43 15 43 -16 
44 30 45 -25 49 50 55 37 66 151 83 262 921 1587 79 MP stroke
gr

10.8 w
c8
gs 812 1478 3623 725 rc
 867 1587 mt  975 1587 L
 921 1533 mt  921 1641 L
 950 1849 mt 1058 1849 L
1004 1795 mt 1004 1903 L
1016 2000 mt 1124 2000 L
1070 1946 mt 1070 2054 L
1071 2037 mt 1179 2037 L
1125 1983 mt 1125 2091 L
1120 2087 mt 1228 2087 L
1174 2033 mt 1174 2141 L
1165 2062 mt 1273 2062 L
1219 2008 mt 1219 2116 L
1209 2092 mt 1317 2092 L
1263 2038 mt 1263 2146 L
1252 2076 mt 1360 2076 L
1306 2022 mt 1306 2130 L
1295 2091 mt 1403 2091 L
1349 2037 mt 1349 2145 L
1337 2093 mt 1445 2093 L
1391 2039 mt 1391 2147 L
1379 2073 mt 1487 2073 L
1433 2019 mt 1433 2127 L
1421 2085 mt 1529 2085 L
1475 2031 mt 1475 2139 L
1463 2074 mt 1571 2074 L
1517 2020 mt 1517 2128 L
1506 2066 mt 1614 2066 L
1560 2012 mt 1560 2120 L
1548 2062 mt 1656 2062 L
1602 2008 mt 1602 2116 L
1590 2054 mt 1698 2054 L
1644 2000 mt 1644 2108 L
1632 2054 mt 1740 2054 L
1686 2000 mt 1686 2108 L
1675 2058 mt 1783 2058 L
1729 2004 mt 1729 2112 L
1717 2044 mt 1825 2044 L
1771 1990 mt 1771 2098 L
1760 2038 mt 1868 2038 L
1814 1984 mt 1814 2092 L
1802 2039 mt 1910 2039 L
1856 1985 mt 1856 2093 L
1845 2049 mt 1953 2049 L
1899 1995 mt 1899 2103 L
1887 2042 mt 1995 2042 L
1941 1988 mt 1941 2096 L
1930 2045 mt 2038 2045 L
1984 1991 mt 1984 2099 L
1972 2049 mt 2080 2049 L
2026 1995 mt 2026 2103 L
2015 2043 mt 2123 2043 L
2069 1989 mt 2069 2097 L
2057 2036 mt 2165 2036 L
2111 1982 mt 2111 2090 L
2100 2024 mt 2208 2024 L
2154 1970 mt 2154 2078 L
2143 2028 mt 2251 2028 L
2197 1974 mt 2197 2082 L
2185 2037 mt 2293 2037 L
2239 1983 mt 2239 2091 L
2228 2035 mt 2336 2035 L
2282 1981 mt 2282 2089 L
2270 2036 mt 2378 2036 L
2324 1982 mt 2324 2090 L
2313 2035 mt 2421 2035 L
2367 1981 mt 2367 2089 L
2355 2031 mt 2463 2031 L
2409 1977 mt 2409 2085 L
2398 2025 mt 2506 2025 L
2452 1971 mt 2452 2079 L
2441 2026 mt 2549 2026 L
2495 1972 mt 2495 2080 L
2483 2038 mt 2591 2038 L
2537 1984 mt 2537 2092 L
2526 2028 mt 2634 2028 L
2580 1974 mt 2580 2082 L
2568 2030 mt 2676 2030 L
2622 1976 mt 2622 2084 L
2611 2023 mt 2719 2023 L
2665 1969 mt 2665 2077 L
2653 2025 mt 2761 2025 L
2707 1971 mt 2707 2079 L
2696 2024 mt 2804 2024 L
2750 1970 mt 2750 2078 L
2739 2023 mt 2847 2023 L
2793 1969 mt 2793 2077 L
2781 2025 mt 2889 2025 L
2835 1971 mt 2835 2079 L
2824 2027 mt 2932 2027 L
2878 1973 mt 2878 2081 L
2866 2018 mt 2974 2018 L
2920 1964 mt 2920 2072 L
2909 2017 mt 3017 2017 L
2963 1963 mt 2963 2071 L
2951 2017 mt 3059 2017 L
3005 1963 mt 3005 2071 L
2994 2016 mt 3102 2016 L
3048 1962 mt 3048 2070 L
3037 2017 mt 3145 2017 L
3091 1963 mt 3091 2071 L
3079 2018 mt 3187 2018 L
3133 1964 mt 3133 2072 L
3122 2019 mt 3230 2019 L
3176 1965 mt 3176 2073 L
3164 2013 mt 3272 2013 L
3218 1959 mt 3218 2067 L
3207 2022 mt 3315 2022 L
3261 1968 mt 3261 2076 L
3249 2017 mt 3357 2017 L
3303 1963 mt 3303 2071 L
3292 2018 mt 3400 2018 L
3346 1964 mt 3346 2072 L
3335 2017 mt 3443 2017 L
3389 1963 mt 3389 2071 L
3377 2023 mt 3485 2023 L
3431 1969 mt 3431 2077 L
3420 2016 mt 3528 2016 L
3474 1962 mt 3474 2070 L
3462 2023 mt 3570 2023 L
3516 1969 mt 3516 2077 L
3505 2018 mt 3613 2018 L
3559 1964 mt 3559 2072 L
3547 2013 mt 3655 2013 L
3601 1959 mt 3601 2067 L
3590 2021 mt 3698 2021 L
3644 1967 mt 3644 2075 L
3633 2015 mt 3741 2015 L
3687 1961 mt 3687 2069 L
3675 2013 mt 3783 2013 L
3729 1959 mt 3729 2067 L
3718 2014 mt 3826 2014 L
3772 1960 mt 3772 2068 L
3760 2014 mt 3868 2014 L
3814 1960 mt 3814 2068 L
3803 2019 mt 3911 2019 L
3857 1965 mt 3857 2073 L
3845 2015 mt 3953 2015 L
3899 1961 mt 3899 2069 L
3888 2015 mt 3996 2015 L
3942 1961 mt 3942 2069 L
3931 2017 mt 4039 2017 L
3985 1963 mt 3985 2071 L
3973 2015 mt 4081 2015 L
4027 1961 mt 4027 2069 L
4016 2018 mt 4124 2018 L
4070 1964 mt 4070 2072 L
4058 2019 mt 4166 2019 L
4112 1965 mt 4112 2073 L
4101 2017 mt 4209 2017 L
4155 1963 mt 4155 2071 L
4143 2013 mt 4251 2013 L
4197 1959 mt 4197 2067 L
4186 2008 mt 4294 2008 L
4240 1954 mt 4240 2062 L
4229 2012 mt 4337 2012 L
4283 1958 mt 4283 2066 L
4271 2010 mt 4379 2010 L
4325 1956 mt 4325 2064 L
gr

gs 624 357 3721 2794 rc
/c9 { 0.000000 0.000000 0.500000 sr} bdef
c9
42 1 43 3 43 1 42 0 43 -1 42 -2 43 3 42 -3 
43 1 43 2 42 -2 43 1 42 -1 43 1 42 3 43 3 
43 1 42 -2 43 4 42 0 43 2 42 -3 43 2 43 2 
42 -1 43 2 42 2 43 3 42 -2 43 0 43 -1 42 1 
43 -1 42 2 43 0 42 -2 43 5 43 -3 42 3 43 3 
42 1 43 -4 42 5 43 3 43 3 42 -1 43 1 42 0 
43 -1 42 -5 43 10 43 3 42 2 43 0 42 6 43 0 
42 1 43 3 42 5 43 5 42 4 43 11 42 -1 42 6 
42 6 43 8 42 0 42 18 42 15 42 3 43 1 43 22 
44 24 45 15 49 45 55 58 66 120 83 180 921 1373 79 MP stroke
gr

c9
gs 812 1264 3623 818 rc
  54   54  921 1373 FO
  54   54 1004 1553 FO
  54   54 1070 1673 FO
  54   54 1125 1731 FO
  54   54 1174 1776 FO
  54   54 1219 1791 FO
  54   54 1263 1815 FO
  54   54 1306 1837 FO
  54   54 1349 1838 FO
  54   54 1391 1841 FO
  54   54 1433 1856 FO
  54   54 1475 1874 FO
  54   54 1517 1874 FO
  54   54 1560 1882 FO
  54   54 1602 1888 FO
  54   54 1644 1894 FO
  54   54 1686 1893 FO
  54   54 1729 1904 FO
  54   54 1771 1908 FO
  54   54 1814 1913 FO
  54   54 1856 1918 FO
  54   54 1899 1921 FO
  54   54 1941 1922 FO
  54   54 1984 1922 FO
  54   54 2026 1928 FO
  54   54 2069 1928 FO
  54   54 2111 1930 FO
  54   54 2154 1933 FO
  54   54 2197 1943 FO
  54   54 2239 1938 FO
  54   54 2282 1937 FO
  54   54 2324 1937 FO
  54   54 2367 1938 FO
  54   54 2409 1937 FO
  54   54 2452 1940 FO
  54   54 2495 1943 FO
  54   54 2537 1948 FO
  54   54 2580 1944 FO
  54   54 2622 1945 FO
  54   54 2665 1948 FO
  54   54 2707 1951 FO
  54   54 2750 1948 FO
  54   54 2793 1953 FO
  54   54 2835 1951 FO
  54   54 2878 1951 FO
  54   54 2920 1953 FO
  54   54 2963 1952 FO
  54   54 3005 1953 FO
  54   54 3048 1952 FO
  54   54 3091 1952 FO
  54   54 3133 1950 FO
  54   54 3176 1953 FO
  54   54 3218 1955 FO
  54   54 3261 1957 FO
  54   54 3303 1956 FO
  54   54 3346 1958 FO
  54   54 3389 1960 FO
  54   54 3431 1957 FO
  54   54 3474 1959 FO
  54   54 3516 1959 FO
  54   54 3559 1963 FO
  54   54 3601 1961 FO
  54   54 3644 1962 FO
  54   54 3687 1965 FO
  54   54 3729 1968 FO
  54   54 3772 1969 FO
  54   54 3814 1968 FO
  54   54 3857 1969 FO
  54   54 3899 1967 FO
  54   54 3942 1969 FO
  54   54 3985 1970 FO
  54   54 4027 1967 FO
  54   54 4070 1970 FO
  54   54 4112 1968 FO
  54   54 4155 1967 FO
  54   54 4197 1967 FO
  54   54 4240 1968 FO
  54   54 4283 1971 FO
  54   54 4325 1972 FO
gr

gs 624 357 3721 2794 rc
/c10 { 0.500000 0.000000 0.000000 sr} bdef
c10
42 5 43 0 43 2 42 1 43 1 42 2 43 2 42 2 
43 0 43 1 42 1 43 2 42 1 43 1 42 2 43 2 
43 2 42 0 43 2 42 0 43 2 42 2 43 -1 43 4 
42 0 43 1 42 2 43 3 42 0 43 1 43 4 42 2 
43 4 42 3 43 8 42 0 43 1 43 2 42 7 43 1 
42 4 43 7 42 3 43 3 43 5 42 2 43 7 42 5 
43 1 42 9 43 0 43 7 42 3 43 5 42 8 43 7 
42 7 43 9 42 7 43 13 42 10 43 10 42 18 42 10 
42 21 43 18 42 14 42 15 42 17 42 33 43 26 43 28 
44 22 45 37 49 40 55 37 66 63 83 61 921 1251 79 MP stroke
gr

c10
gs 812 1142 3623 886 rc
 883 1213 mt  959 1289 L
 959 1213 mt  883 1289 L
 966 1274 mt 1042 1350 L
1042 1274 mt  966 1350 L
1032 1337 mt 1108 1413 L
1108 1337 mt 1032 1413 L
1087 1374 mt 1163 1450 L
1163 1374 mt 1087 1450 L
1136 1414 mt 1212 1490 L
1212 1414 mt 1136 1490 L
1181 1451 mt 1257 1527 L
1257 1451 mt 1181 1527 L
1225 1473 mt 1301 1549 L
1301 1473 mt 1225 1549 L
1268 1501 mt 1344 1577 L
1344 1501 mt 1268 1577 L
1311 1527 mt 1387 1603 L
1387 1527 mt 1311 1603 L
1353 1560 mt 1429 1636 L
1429 1560 mt 1353 1636 L
1395 1577 mt 1471 1653 L
1471 1577 mt 1395 1653 L
1437 1592 mt 1513 1668 L
1513 1592 mt 1437 1668 L
1479 1606 mt 1555 1682 L
1555 1606 mt 1479 1682 L
1522 1624 mt 1598 1700 L
1598 1624 mt 1522 1700 L
1564 1645 mt 1640 1721 L
1640 1645 mt 1564 1721 L
1606 1655 mt 1682 1731 L
1682 1655 mt 1606 1731 L
1648 1673 mt 1724 1749 L
1724 1673 mt 1648 1749 L
1691 1683 mt 1767 1759 L
1767 1683 mt 1691 1759 L
1733 1693 mt 1809 1769 L
1809 1693 mt 1733 1769 L
1776 1706 mt 1852 1782 L
1852 1706 mt 1776 1782 L
1818 1713 mt 1894 1789 L
1894 1713 mt 1818 1789 L
1861 1722 mt 1937 1798 L
1937 1722 mt 1861 1798 L
1903 1729 mt 1979 1805 L
1979 1729 mt 1903 1805 L
1946 1736 mt 2022 1812 L
2022 1736 mt 1946 1812 L
1988 1744 mt 2064 1820 L
2064 1744 mt 1988 1820 L
2031 1749 mt 2107 1825 L
2107 1749 mt 2031 1825 L
2073 1752 mt 2149 1828 L
2149 1752 mt 2073 1828 L
2116 1759 mt 2192 1835 L
2192 1759 mt 2116 1835 L
2159 1759 mt 2235 1835 L
2235 1759 mt 2159 1835 L
2201 1768 mt 2277 1844 L
2277 1768 mt 2201 1844 L
2244 1769 mt 2320 1845 L
2320 1769 mt 2244 1845 L
2286 1774 mt 2362 1850 L
2362 1774 mt 2286 1850 L
2329 1781 mt 2405 1857 L
2405 1781 mt 2329 1857 L
2371 1783 mt 2447 1859 L
2447 1783 mt 2371 1859 L
2414 1788 mt 2490 1864 L
2490 1788 mt 2414 1864 L
2457 1791 mt 2533 1867 L
2533 1791 mt 2457 1867 L
2499 1794 mt 2575 1870 L
2575 1794 mt 2499 1870 L
2542 1801 mt 2618 1877 L
2618 1801 mt 2542 1877 L
2584 1805 mt 2660 1881 L
2660 1805 mt 2584 1881 L
2627 1806 mt 2703 1882 L
2703 1806 mt 2627 1882 L
2669 1813 mt 2745 1889 L
2745 1813 mt 2669 1889 L
2712 1815 mt 2788 1891 L
2788 1815 mt 2712 1891 L
2755 1816 mt 2831 1892 L
2831 1816 mt 2755 1892 L
2797 1816 mt 2873 1892 L
2873 1816 mt 2797 1892 L
2840 1824 mt 2916 1900 L
2916 1824 mt 2840 1900 L
2882 1827 mt 2958 1903 L
2958 1827 mt 2882 1903 L
2925 1831 mt 3001 1907 L
3001 1831 mt 2925 1907 L
2967 1833 mt 3043 1909 L
3043 1833 mt 2967 1909 L
3010 1837 mt 3086 1913 L
3086 1837 mt 3010 1913 L
3053 1838 mt 3129 1914 L
3129 1838 mt 3053 1914 L
3095 1838 mt 3171 1914 L
3171 1838 mt 3095 1914 L
3138 1841 mt 3214 1917 L
3214 1841 mt 3138 1917 L
3180 1843 mt 3256 1919 L
3256 1843 mt 3180 1919 L
3223 1844 mt 3299 1920 L
3299 1844 mt 3223 1920 L
3265 1844 mt 3341 1920 L
3341 1844 mt 3265 1920 L
3308 1848 mt 3384 1924 L
3384 1848 mt 3308 1924 L
3351 1847 mt 3427 1923 L
3427 1847 mt 3351 1923 L
3393 1849 mt 3469 1925 L
3469 1849 mt 3393 1925 L
3436 1851 mt 3512 1927 L
3512 1851 mt 3436 1927 L
3478 1851 mt 3554 1927 L
3554 1851 mt 3478 1927 L
3521 1853 mt 3597 1929 L
3597 1853 mt 3521 1929 L
3563 1853 mt 3639 1929 L
3639 1853 mt 3563 1929 L
3606 1855 mt 3682 1931 L
3682 1855 mt 3606 1931 L
3649 1857 mt 3725 1933 L
3725 1857 mt 3649 1933 L
3691 1859 mt 3767 1935 L
3767 1859 mt 3691 1935 L
3734 1860 mt 3810 1936 L
3810 1860 mt 3734 1936 L
3776 1861 mt 3852 1937 L
3852 1861 mt 3776 1937 L
3819 1863 mt 3895 1939 L
3895 1863 mt 3819 1939 L
3861 1864 mt 3937 1940 L
3937 1864 mt 3861 1940 L
3904 1865 mt 3980 1941 L
3980 1865 mt 3904 1941 L
3947 1865 mt 4023 1941 L
4023 1865 mt 3947 1941 L
3989 1867 mt 4065 1943 L
4065 1867 mt 3989 1943 L
4032 1869 mt 4108 1945 L
4108 1869 mt 4032 1945 L
4074 1871 mt 4150 1947 L
4150 1871 mt 4074 1947 L
4117 1872 mt 4193 1948 L
4193 1872 mt 4117 1948 L
4159 1873 mt 4235 1949 L
4235 1873 mt 4159 1949 L
4202 1875 mt 4278 1951 L
4278 1875 mt 4202 1951 L
4245 1875 mt 4321 1951 L
4321 1875 mt 4245 1951 L
4287 1880 mt 4363 1956 L
4363 1880 mt 4287 1956 L
gr

gs 624 357 3721 2794 rc
/c11 { 0.000000 0.500000 0.500000 sr} bdef
c11
42 2 43 1 43 3 42 2 43 2 42 2 43 3 42 2 
43 3 43 2 42 2 43 3 42 2 43 2 42 2 43 2 
43 3 42 2 43 3 42 3 43 3 42 3 43 4 43 2 
42 4 43 5 42 4 43 2 42 4 43 4 43 5 42 5 
43 3 42 6 43 3 42 4 43 5 43 7 42 6 43 4 
42 7 43 6 42 6 43 6 43 8 42 7 43 8 42 7 
43 8 42 8 43 9 43 10 42 9 43 9 42 11 43 11 
42 11 43 12 42 15 43 14 42 12 43 14 42 12 42 17 
42 11 43 18 42 15 42 19 42 21 42 20 43 24 43 24 
44 22 45 25 49 21 55 19 66 19 83 2 921 1182 79 MP stroke
gr

c11
gs 812 1073 3623 845 rc
0 j
0 -86 -86 0 0 86 86 0 878 1139 5 MP
DP
0 -86 -86 0 0 86 86 0 961 1141 5 MP
DP
0 -86 -86 0 0 86 86 0 1027 1160 5 MP
DP
0 -86 -86 0 0 86 86 0 1082 1179 5 MP
DP
0 -86 -86 0 0 86 86 0 1131 1200 5 MP
DP
0 -86 -86 0 0 86 86 0 1176 1225 5 MP
DP
0 -86 -86 0 0 86 86 0 1220 1247 5 MP
DP
0 -86 -86 0 0 86 86 0 1263 1271 5 MP
DP
0 -86 -86 0 0 86 86 0 1306 1295 5 MP
DP
0 -86 -86 0 0 86 86 0 1348 1315 5 MP
DP
0 -86 -86 0 0 86 86 0 1390 1336 5 MP
DP
0 -86 -86 0 0 86 86 0 1432 1355 5 MP
DP
0 -86 -86 0 0 86 86 0 1474 1370 5 MP
DP
0 -86 -86 0 0 86 86 0 1517 1388 5 MP
DP
0 -86 -86 0 0 86 86 0 1559 1399 5 MP
DP
0 -86 -86 0 0 86 86 0 1601 1416 5 MP
DP
0 -86 -86 0 0 86 86 0 1643 1428 5 MP
DP
0 -86 -86 0 0 86 86 0 1686 1442 5 MP
DP
0 -86 -86 0 0 86 86 0 1728 1454 5 MP
DP
0 -86 -86 0 0 86 86 0 1771 1468 5 MP
DP
0 -86 -86 0 0 86 86 0 1813 1483 5 MP
DP
0 -86 -86 0 0 86 86 0 1856 1495 5 MP
DP
0 -86 -86 0 0 86 86 0 1898 1506 5 MP
DP
0 -86 -86 0 0 86 86 0 1941 1517 5 MP
DP
0 -86 -86 0 0 86 86 0 1983 1528 5 MP
DP
0 -86 -86 0 0 86 86 0 2026 1537 5 MP
DP
0 -86 -86 0 0 86 86 0 2068 1546 5 MP
DP
0 -86 -86 0 0 86 86 0 2111 1556 5 MP
DP
0 -86 -86 0 0 86 86 0 2154 1565 5 MP
DP
0 -86 -86 0 0 86 86 0 2196 1573 5 MP
DP
0 -86 -86 0 0 86 86 0 2239 1581 5 MP
DP
0 -86 -86 0 0 86 86 0 2281 1588 5 MP
DP
0 -86 -86 0 0 86 86 0 2324 1596 5 MP
DP
0 -86 -86 0 0 86 86 0 2366 1603 5 MP
DP
0 -86 -86 0 0 86 86 0 2409 1611 5 MP
DP
0 -86 -86 0 0 86 86 0 2452 1617 5 MP
DP
0 -86 -86 0 0 86 86 0 2494 1623 5 MP
DP
0 -86 -86 0 0 86 86 0 2537 1629 5 MP
DP
0 -86 -86 0 0 86 86 0 2579 1636 5 MP
DP
0 -86 -86 0 0 86 86 0 2622 1640 5 MP
DP
0 -86 -86 0 0 86 86 0 2664 1646 5 MP
DP
0 -86 -86 0 0 86 86 0 2707 1653 5 MP
DP
0 -86 -86 0 0 86 86 0 2750 1658 5 MP
DP
0 -86 -86 0 0 86 86 0 2792 1662 5 MP
DP
0 -86 -86 0 0 86 86 0 2835 1665 5 MP
DP
0 -86 -86 0 0 86 86 0 2877 1671 5 MP
DP
0 -86 -86 0 0 86 86 0 2920 1674 5 MP
DP
0 -86 -86 0 0 86 86 0 2962 1679 5 MP
DP
0 -86 -86 0 0 86 86 0 3005 1684 5 MP
DP
0 -86 -86 0 0 86 86 0 3048 1688 5 MP
DP
0 -86 -86 0 0 86 86 0 3090 1692 5 MP
DP
0 -86 -86 0 0 86 86 0 3133 1694 5 MP
DP
0 -86 -86 0 0 86 86 0 3175 1698 5 MP
DP
0 -86 -86 0 0 86 86 0 3218 1703 5 MP
DP
0 -86 -86 0 0 86 86 0 3260 1707 5 MP
DP
0 -86 -86 0 0 86 86 0 3303 1709 5 MP
DP
0 -86 -86 0 0 86 86 0 3346 1713 5 MP
DP
0 -86 -86 0 0 86 86 0 3388 1716 5 MP
DP
0 -86 -86 0 0 86 86 0 3431 1719 5 MP
DP
0 -86 -86 0 0 86 86 0 3473 1722 5 MP
DP
0 -86 -86 0 0 86 86 0 3516 1725 5 MP
DP
0 -86 -86 0 0 86 86 0 3558 1727 5 MP
DP
0 -86 -86 0 0 86 86 0 3601 1730 5 MP
DP
0 -86 -86 0 0 86 86 0 3644 1732 5 MP
DP
0 -86 -86 0 0 86 86 0 3686 1734 5 MP
DP
0 -86 -86 0 0 86 86 0 3729 1736 5 MP
DP
0 -86 -86 0 0 86 86 0 3771 1738 5 MP
DP
0 -86 -86 0 0 86 86 0 3814 1741 5 MP
DP
0 -86 -86 0 0 86 86 0 3856 1743 5 MP
DP
0 -86 -86 0 0 86 86 0 3899 1745 5 MP
DP
0 -86 -86 0 0 86 86 0 3942 1748 5 MP
DP
0 -86 -86 0 0 86 86 0 3984 1750 5 MP
DP
0 -86 -86 0 0 86 86 0 4027 1753 5 MP
DP
0 -86 -86 0 0 86 86 0 4069 1755 5 MP
DP
0 -86 -86 0 0 86 86 0 4112 1757 5 MP
DP
0 -86 -86 0 0 86 86 0 4154 1759 5 MP
DP
0 -86 -86 0 0 86 86 0 4197 1762 5 MP
DP
0 -86 -86 0 0 86 86 0 4240 1763 5 MP
DP
0 -86 -86 0 0 86 86 0 4282 1765 5 MP
DP
gr

gs 624 357 3721 2794 rc
gr

0 sg
%%IncludeResource: font AvantGarde-Demi
/AvantGarde-Demi /ISOLatin1Encoding 228 FMSR

1949  232 mt 
(\(1+1\) - ES) s
0.3 sg
%%IncludeResource: font AvantGarde-Book
/AvantGarde-Book /ISOLatin1Encoding 180 FMSR

1988 3559 mt 
(log\(nbEval\)) s
 185 2177 mt  -90 rotate
(slope \(SR\)) s
90 rotate
0 sg
%%IncludeResource: font Helvetica
/Helvetica /ISOLatin1Encoding 120 FMSR

 607 3193 mt 
( ) s
4328  399 mt 
( ) s
6 w
1 sg
0 626 886 0 0 -626 3399 1043 4 MP
PP
-886 0 0 626 886 0 0 -626 3399 1043 5 MP stroke
4 w
DO
SO
6 w
0 sg
3399 1043 mt 4285 1043 L
3399  417 mt 4285  417 L
3399 1043 mt 3399  417 L
4285 1043 mt 4285  417 L
3399 1043 mt 4285 1043 L
3399 1043 mt 3399  417 L
3399 1043 mt 4285 1043 L
3399  417 mt 4285  417 L
3399 1043 mt 3399  417 L
4285 1043 mt 4285  417 L
3877  553 mt 
(Dim 2) s
gs 3399 417 887 627 rc
10.8 w
c8
367 0 3472 510 2 MP stroke
gr

10.8 w
c8
gs 3546 401 219 219 rc
3601  510 mt 3709  510 L
3655  456 mt 3655  564 L
gr

gs 3399 417 887 627 rc
gr

0 sg
3877  699 mt 
(Dim 4) s
gs 3399 417 887 627 rc
c9
367 0 3472 656 2 MP stroke
gs 3546 547 219 219 rc
  54   54 3655  656 FO
gr

gr

c9
0 sg
3877  846 mt 
(Dim 8) s
gs 3399 417 887 627 rc
c10
367 0 3472 803 2 MP stroke
gs 3546 694 219 219 rc
3617  765 mt 3693  841 L
3693  765 mt 3617  841 L
gr

gr

c10
0 sg
3877  992 mt 
(Dim 16) s
gs 3399 417 887 627 rc
c11
367 0 3472 949 2 MP stroke
gr

c11
gs 3546 840 219 219 rc
0 j
0 -86 -86 0 0 86 86 0 3612 906 5 MP
DP
gr

gs 3399 417 887 627 rc
6 w
gr

6 w

end %%Color Dict

eplot
%%EndObject

epage
end

showpage

%%Trailer
%%EOF
