%!PS-Adobe-3.0 EPSF-3.0
%%Creator: MATLAB, The MathWorks, Inc. Version 7.14.0.739 (R2012a). Operating System: Linux 3.13.0-35-generic #62-Ubuntu SMP Fri Aug 15 01:58:42 UTC 2014 x86_64.
%%Title: ./oneplusone_esareslow_lognbeval_reval2_0.eps
%%CreationDate: 08/29/2014  22:25:55
%%DocumentNeededFonts: Helvetica
%%+ AvantGarde-Book
%%+ AvantGarde-Demi
%%DocumentProcessColors: Cyan Magenta Yellow Black
%%LanguageLevel: 2
%%Pages: 1
%%BoundingBox:   105   246   477   550
%%EndComments

%%BeginProlog
% MathWorks dictionary
/MathWorks 160 dict begin
% definition operators
/bdef {bind def} bind def
/ldef {load def} bind def
/xdef {exch def} bdef
/xstore {exch store} bdef
% operator abbreviations
/c  /clip ldef
/cc /concat ldef
/cp /closepath ldef
/gr /grestore ldef
/gs /gsave ldef
/mt /moveto ldef
/np /newpath ldef
/cm /currentmatrix ldef
/sm /setmatrix ldef
/rm /rmoveto ldef
/rl /rlineto ldef
/s {show newpath} bdef
/sc {setcmykcolor} bdef
/sr /setrgbcolor ldef
/sg /setgray ldef
/w /setlinewidth ldef
/j /setlinejoin ldef
/cap /setlinecap ldef
/rc {rectclip} bdef
/rf {rectfill} bdef
% page state control
/pgsv () def
/bpage {/pgsv save def} bdef
/epage {pgsv restore} bdef
/bplot /gsave ldef
/eplot {stroke grestore} bdef
% orientation switch
/portraitMode 0 def /landscapeMode 1 def /rotateMode 2 def
% coordinate system mappings
/dpi2point 0 def
% font control
/FontSize 0 def
/FMS {/FontSize xstore findfont [FontSize 0 0 FontSize neg 0 0]
  makefont setfont} bdef
/reencode {exch dup where {pop load} {pop StandardEncoding} ifelse
  exch dup 3 1 roll findfont dup length dict begin
  { 1 index /FID ne {def}{pop pop} ifelse } forall
  /Encoding exch def currentdict end definefont pop} bdef
/isroman {findfont /CharStrings get /Agrave known} bdef
/FMSR {3 1 roll 1 index dup isroman {reencode} {pop pop} ifelse
  exch FMS} bdef
/csm {1 dpi2point div -1 dpi2point div scale neg translate
 dup landscapeMode eq {pop -90 rotate}
  {rotateMode eq {90 rotate} if} ifelse} bdef
% line types: solid, dotted, dashed, dotdash
/SO { [] 0 setdash } bdef
/DO { [.5 dpi2point mul 4 dpi2point mul] 0 setdash } bdef
/DA { [6 dpi2point mul] 0 setdash } bdef
/DD { [.5 dpi2point mul 4 dpi2point mul 6 dpi2point mul 4
  dpi2point mul] 0 setdash } bdef
% macros for lines and objects
/L {lineto stroke} bdef
/MP {3 1 roll moveto 1 sub {rlineto} repeat} bdef
/AP {{rlineto} repeat} bdef
/PDlw -1 def
/W {/PDlw currentlinewidth def setlinewidth} def
/PP {closepath eofill} bdef
/DP {closepath stroke} bdef
/MR {4 -2 roll moveto dup  0 exch rlineto exch 0 rlineto
  neg 0 exch rlineto closepath} bdef
/FR {MR stroke} bdef
/PR {MR fill} bdef
/L1i {{currentfile picstr readhexstring pop} image} bdef
/tMatrix matrix def
/MakeOval {newpath tMatrix currentmatrix pop translate scale
0 0 1 0 360 arc tMatrix setmatrix} bdef
/FO {MakeOval stroke} bdef
/PO {MakeOval fill} bdef
/PD {currentlinewidth 2 div 0 360 arc fill
   PDlw -1 eq not {PDlw w /PDlw -1 def} if} def
/FA {newpath tMatrix currentmatrix pop translate scale
  0 0 1 5 -2 roll arc tMatrix setmatrix stroke} bdef
/PA {newpath tMatrix currentmatrix pop	translate 0 0 moveto scale
  0 0 1 5 -2 roll arc closepath tMatrix setmatrix fill} bdef
/FAn {newpath tMatrix currentmatrix pop translate scale
  0 0 1 5 -2 roll arcn tMatrix setmatrix stroke} bdef
/PAn {newpath tMatrix currentmatrix pop translate 0 0 moveto scale
  0 0 1 5 -2 roll arcn closepath tMatrix setmatrix fill} bdef
/vradius 0 def /hradius 0 def /lry 0 def
/lrx 0 def /uly 0 def /ulx 0 def /rad 0 def
/MRR {/vradius xdef /hradius xdef /lry xdef /lrx xdef /uly xdef
  /ulx xdef newpath tMatrix currentmatrix pop ulx hradius add uly
  vradius add translate hradius vradius scale 0 0 1 180 270 arc 
  tMatrix setmatrix lrx hradius sub uly vradius add translate
  hradius vradius scale 0 0 1 270 360 arc tMatrix setmatrix
  lrx hradius sub lry vradius sub translate hradius vradius scale
  0 0 1 0 90 arc tMatrix setmatrix ulx hradius add lry vradius sub
  translate hradius vradius scale 0 0 1 90 180 arc tMatrix setmatrix
  closepath} bdef
/FRR {MRR stroke } bdef
/PRR {MRR fill } bdef
/MlrRR {/lry xdef /lrx xdef /uly xdef /ulx xdef /rad lry uly sub 2 div def
  newpath tMatrix currentmatrix pop ulx rad add uly rad add translate
  rad rad scale 0 0 1 90 270 arc tMatrix setmatrix lrx rad sub lry rad
  sub translate rad rad scale 0 0 1 270 90 arc tMatrix setmatrix
  closepath} bdef
/FlrRR {MlrRR stroke } bdef
/PlrRR {MlrRR fill } bdef
/MtbRR {/lry xdef /lrx xdef /uly xdef /ulx xdef /rad lrx ulx sub 2 div def
  newpath tMatrix currentmatrix pop ulx rad add uly rad add translate
  rad rad scale 0 0 1 180 360 arc tMatrix setmatrix lrx rad sub lry rad
  sub translate rad rad scale 0 0 1 0 180 arc tMatrix setmatrix
  closepath} bdef
/FtbRR {MtbRR stroke } bdef
/PtbRR {MtbRR fill } bdef
/stri 6 array def /dtri 6 array def
/smat 6 array def /dmat 6 array def
/tmat1 6 array def /tmat2 6 array def /dif 3 array def
/asub {/ind2 exch def /ind1 exch def dup dup
  ind1 get exch ind2 get sub exch } bdef
/tri_to_matrix {
  2 0 asub 3 1 asub 4 0 asub 5 1 asub
  dup 0 get exch 1 get 7 -1 roll astore } bdef
/compute_transform {
  dmat dtri tri_to_matrix tmat1 invertmatrix 
  smat stri tri_to_matrix tmat2 concatmatrix } bdef
/ds {stri astore pop} bdef
/dt {dtri astore pop} bdef
/db {2 copy /cols xdef /rows xdef mul dup 3 mul string
  currentfile 
  3 index 0 eq {/ASCIIHexDecode filter}
  {/ASCII85Decode filter 3 index 2 eq {/RunLengthDecode filter} if }
  ifelse exch readstring pop
  dup 0 3 index getinterval /rbmap xdef
  dup 2 index dup getinterval /gbmap xdef
  1 index dup 2 mul exch getinterval /bbmap xdef pop pop}bdef
/it {gs np dtri aload pop moveto lineto lineto cp c
  cols rows 8 compute_transform 
  rbmap gbmap bbmap true 3 colorimage gr}bdef
/il {newpath moveto lineto stroke}bdef
currentdict end def
%%EndProlog

%%BeginSetup
MathWorks begin

0 cap

end
%%EndSetup

%%Page: 1 1
%%BeginPageSetup
%%PageBoundingBox:   105   246   477   550
MathWorks begin
bpage
%%EndPageSetup

%%BeginObject: obj1
bplot

/dpi2point 12 def
portraitMode 1260 6552 csm

    0   -48  4467  3648 rc
89 dict begin %Colortable dictionary
/c0 { 0.000000 0.000000 0.000000 sr} bdef
/c1 { 1.000000 1.000000 1.000000 sr} bdef
/c2 { 0.900000 0.000000 0.000000 sr} bdef
/c3 { 0.000000 0.820000 0.000000 sr} bdef
/c4 { 0.000000 0.000000 0.800000 sr} bdef
/c5 { 0.910000 0.820000 0.320000 sr} bdef
/c6 { 1.000000 0.260000 0.820000 sr} bdef
/c7 { 0.000000 0.820000 0.820000 sr} bdef
c0
1 j
1 sg
   0    0 4801 3601 rf
6 w
0 2793 3720 0 0 -2793 624 3150 4 MP
PP
-3720 0 0 2793 3720 0 0 -2793 624 3150 5 MP stroke
4 w
DO
0.3 sg
 624 2821 mt 4344 2821 L
4344 2821 mt 4344 2821 L
 624 1999 mt 4344 1999 L
4344 1999 mt 4344 1999 L
 624 1178 mt 4344 1178 L
4344 1178 mt 4344 1178 L
SO
6 w
 624 3150 mt 4344 3150 L
 624 3150 mt  624  357 L
 624 3150 mt  624 3224 L
%%IncludeResource: font Helvetica
/Helvetica /ISOLatin1Encoding 120 FMSR

 591 3369 mt 
(6) s
 730 3150 mt  730 3187 L
 836 3150 mt  836 3187 L
 942 3150 mt  942 3187 L
1049 3150 mt 1049 3187 L
1155 3150 mt 1155 3187 L
1155 3150 mt 1155 3187 L
1155 3150 mt 1155 3187 L
1155 3150 mt 1155 3187 L
1155 3150 mt 1155 3187 L
1155 3150 mt 1155 3224 L
1122 3369 mt 
(8) s
1261 3150 mt 1261 3187 L
1368 3150 mt 1368 3187 L
1474 3150 mt 1474 3187 L
1580 3150 mt 1580 3187 L
1686 3150 mt 1686 3187 L
1686 3150 mt 1686 3187 L
1686 3150 mt 1686 3187 L
1686 3150 mt 1686 3187 L
1686 3150 mt 1686 3187 L
1686 3150 mt 1686 3224 L
1620 3369 mt 
(10) s
1793 3150 mt 1793 3187 L
1899 3150 mt 1899 3187 L
2005 3150 mt 2005 3187 L
2112 3150 mt 2112 3187 L
2218 3150 mt 2218 3187 L
2218 3150 mt 2218 3187 L
2218 3150 mt 2218 3187 L
2218 3150 mt 2218 3187 L
2218 3150 mt 2218 3187 L
2218 3150 mt 2218 3224 L
2152 3369 mt 
(12) s
2324 3150 mt 2324 3187 L
2430 3150 mt 2430 3187 L
2537 3150 mt 2537 3187 L
2643 3150 mt 2643 3187 L
2749 3150 mt 2749 3187 L
2749 3150 mt 2749 3187 L
2749 3150 mt 2749 3187 L
2749 3150 mt 2749 3187 L
2749 3150 mt 2749 3187 L
2749 3150 mt 2749 3224 L
2683 3369 mt 
(14) s
2856 3150 mt 2856 3187 L
2962 3150 mt 2962 3187 L
3068 3150 mt 3068 3187 L
3174 3150 mt 3174 3187 L
3281 3150 mt 3281 3187 L
3281 3150 mt 3281 3187 L
3281 3150 mt 3281 3187 L
3281 3150 mt 3281 3187 L
3281 3150 mt 3281 3187 L
3281 3150 mt 3281 3224 L
3215 3369 mt 
(16) s
3387 3150 mt 3387 3187 L
3493 3150 mt 3493 3187 L
3600 3150 mt 3600 3187 L
3706 3150 mt 3706 3187 L
3812 3150 mt 3812 3187 L
3812 3150 mt 3812 3187 L
3812 3150 mt 3812 3187 L
3812 3150 mt 3812 3187 L
3812 3150 mt 3812 3187 L
3812 3150 mt 3812 3224 L
3746 3369 mt 
(18) s
3918 3150 mt 3918 3187 L
4025 3150 mt 4025 3187 L
4131 3150 mt 4131 3187 L
4237 3150 mt 4237 3187 L
4344 3150 mt 4344 3187 L
4344 3150 mt 4344 3187 L
4344 3150 mt 4344 3187 L
4344 3150 mt 4344 3187 L
4344 3150 mt 4344 3187 L
4344 3150 mt 4344 3224 L
4278 3369 mt 
(20) s
 624 2903 mt  586 2903 L
 624 2985 mt  586 2985 L
 624 3067 mt  586 3067 L
 624 3150 mt  586 3150 L
 624 2821 mt  549 2821 L
 379 2865 mt 
(-1) s
 624 2739 mt  586 2739 L
 624 2657 mt  586 2657 L
 624 2574 mt  586 2574 L
 624 2492 mt  586 2492 L
 624 2410 mt  586 2410 L
 624 2328 mt  586 2328 L
 624 2246 mt  586 2246 L
 624 2164 mt  586 2164 L
 624 2082 mt  586 2082 L
 624 1999 mt  549 1999 L
 279 2043 mt 
(-0.5) s
 624 1917 mt  586 1917 L
 624 1835 mt  586 1835 L
 624 1753 mt  586 1753 L
 624 1671 mt  586 1671 L
 624 1589 mt  586 1589 L
 624 1507 mt  586 1507 L
 624 1424 mt  586 1424 L
 624 1342 mt  586 1342 L
 624 1260 mt  586 1260 L
 624 1178 mt  549 1178 L
 449 1222 mt 
(0) s
 624 1096 mt  586 1096 L
 624 1014 mt  586 1014 L
 624  932 mt  586  932 L
 624  849 mt  586  849 L
 624  767 mt  586  767 L
 624  685 mt  586  685 L
 624  603 mt  586  603 L
 624  521 mt  586  521 L
 624  439 mt  586  439 L
gs 624 357 3721 2794 rc
10.8 w
/c8 { 0.000000 0.500000 0.000000 sr} bdef
c8
10 1 10 2 10 0 11 -3 11 3 10 -2 11 -1 12 1 
11 -7 11 4 12 0 12 2 12 -6 12 8 12 -7 13 0 
12 1 13 1 13 -1 14 1 13 0 14 -11 14 0 15 -3 
14 4 15 11 15 -6 16 -4 15 -3 16 0 17 -5 17 -3 
17 6 17 1 18 0 18 -4 19 4 19 -2 20 -1 20 -7 
20 8 22 -1 21 -13 23 7 23 -6 23 5 25 -4 25 6 
26 3 27 -12 28 -6 29 -3 29 6 32 -6 32 2 34 -1 
35 -3 37 -2 38 1 41 -1 43 -15 45 3 48 1 51 -5 
54 0 58 -13 63 14 69 -14 75 -4 83 5 92 -2 104 -7 
120 -2 142 45 172 68 220 109 304 161 499 187 684 1427 79 MP stroke
gr

10.8 w
c8
gs 575 1318 3592 789 rc
 630 1427 mt  738 1427 L
 684 1373 mt  684 1481 L
1129 1614 mt 1237 1614 L
1183 1560 mt 1183 1668 L
1433 1775 mt 1541 1775 L
1487 1721 mt 1487 1829 L
1653 1884 mt 1761 1884 L
1707 1830 mt 1707 1938 L
1825 1952 mt 1933 1952 L
1879 1898 mt 1879 2006 L
1967 1997 mt 2075 1997 L
2021 1943 mt 2021 2051 L
2087 1995 mt 2195 1995 L
2141 1941 mt 2141 2049 L
2191 1988 mt 2299 1988 L
2245 1934 mt 2245 2042 L
2283 1986 mt 2391 1986 L
2337 1932 mt 2337 2040 L
2366 1991 mt 2474 1991 L
2420 1937 mt 2420 2045 L
2441 1987 mt 2549 1987 L
2495 1933 mt 2495 2041 L
2510 1973 mt 2618 1973 L
2564 1919 mt 2564 2027 L
2573 1987 mt 2681 1987 L
2627 1933 mt 2627 2041 L
2631 1974 mt 2739 1974 L
2685 1920 mt 2685 2028 L
2685 1974 mt 2793 1974 L
2739 1920 mt 2739 2028 L
2736 1969 mt 2844 1969 L
2790 1915 mt 2790 2023 L
2784 1970 mt 2892 1970 L
2838 1916 mt 2838 2024 L
2829 1973 mt 2937 1973 L
2883 1919 mt 2883 2027 L
2872 1958 mt 2980 1958 L
2926 1904 mt 2926 2012 L
2913 1957 mt 3021 1957 L
2967 1903 mt 2967 2011 L
2951 1958 mt 3059 1958 L
3005 1904 mt 3005 2012 L
2988 1956 mt 3096 1956 L
3042 1902 mt 3042 2010 L
3023 1953 mt 3131 1953 L
3077 1899 mt 3077 2007 L
3057 1952 mt 3165 1952 L
3111 1898 mt 3111 2006 L
3089 1954 mt 3197 1954 L
3143 1900 mt 3143 2008 L
3121 1948 mt 3229 1948 L
3175 1894 mt 3175 2002 L
3150 1954 mt 3258 1954 L
3204 1900 mt 3204 2008 L
3179 1951 mt 3287 1951 L
3233 1897 mt 3233 2005 L
3207 1945 mt 3315 1945 L
3261 1891 mt 3261 1999 L
3234 1933 mt 3342 1933 L
3288 1879 mt 3288 1987 L
3260 1936 mt 3368 1936 L
3314 1882 mt 3314 1990 L
3285 1942 mt 3393 1942 L
3339 1888 mt 3339 1996 L
3310 1938 mt 3418 1938 L
3364 1884 mt 3364 1992 L
3333 1943 mt 3441 1943 L
3387 1889 mt 3387 1997 L
3356 1937 mt 3464 1937 L
3410 1883 mt 3410 1991 L
3379 1944 mt 3487 1944 L
3433 1890 mt 3433 1998 L
3400 1931 mt 3508 1931 L
3454 1877 mt 3454 1985 L
3422 1930 mt 3530 1930 L
3476 1876 mt 3476 1984 L
3442 1938 mt 3550 1938 L
3496 1884 mt 3496 1992 L
3462 1931 mt 3570 1931 L
3516 1877 mt 3516 1985 L
3482 1930 mt 3590 1930 L
3536 1876 mt 3536 1984 L
3501 1928 mt 3609 1928 L
3555 1874 mt 3555 1982 L
3520 1932 mt 3628 1932 L
3574 1878 mt 3574 1986 L
3538 1928 mt 3646 1928 L
3592 1874 mt 3592 1982 L
3556 1928 mt 3664 1928 L
3610 1874 mt 3610 1982 L
3573 1929 mt 3681 1929 L
3627 1875 mt 3627 1983 L
3590 1935 mt 3698 1935 L
3644 1881 mt 3644 1989 L
3607 1932 mt 3715 1932 L
3661 1878 mt 3661 1986 L
3624 1927 mt 3732 1927 L
3678 1873 mt 3678 1981 L
3640 1927 mt 3748 1927 L
3694 1873 mt 3694 1981 L
3655 1924 mt 3763 1924 L
3709 1870 mt 3709 1978 L
3671 1920 mt 3779 1920 L
3725 1866 mt 3725 1974 L
3686 1914 mt 3794 1914 L
3740 1860 mt 3740 1968 L
3701 1925 mt 3809 1925 L
3755 1871 mt 3755 1979 L
3715 1929 mt 3823 1929 L
3769 1875 mt 3769 1983 L
3730 1926 mt 3838 1926 L
3784 1872 mt 3784 1980 L
3744 1926 mt 3852 1926 L
3798 1872 mt 3798 1980 L
3758 1915 mt 3866 1915 L
3812 1861 mt 3812 1969 L
3771 1915 mt 3879 1915 L
3825 1861 mt 3825 1969 L
3785 1916 mt 3893 1916 L
3839 1862 mt 3839 1970 L
3798 1915 mt 3906 1915 L
3852 1861 mt 3852 1969 L
3811 1916 mt 3919 1916 L
3865 1862 mt 3865 1970 L
3823 1917 mt 3931 1917 L
3877 1863 mt 3877 1971 L
3836 1917 mt 3944 1917 L
3890 1863 mt 3890 1971 L
3848 1910 mt 3956 1910 L
3902 1856 mt 3902 1964 L
3860 1918 mt 3968 1918 L
3914 1864 mt 3914 1972 L
3872 1912 mt 3980 1912 L
3926 1858 mt 3926 1966 L
3884 1914 mt 3992 1914 L
3938 1860 mt 3938 1968 L
3896 1914 mt 4004 1914 L
3950 1860 mt 3950 1968 L
3907 1918 mt 4015 1918 L
3961 1864 mt 3961 1972 L
3918 1911 mt 4026 1911 L
3972 1857 mt 3972 1965 L
3930 1912 mt 4038 1912 L
3984 1858 mt 3984 1966 L
3941 1911 mt 4049 1911 L
3995 1857 mt 3995 1965 L
3951 1909 mt 4059 1909 L
4005 1855 mt 4005 1963 L
3962 1912 mt 4070 1912 L
4016 1858 mt 4016 1966 L
3973 1909 mt 4081 1909 L
4027 1855 mt 4027 1963 L
3983 1909 mt 4091 1909 L
4037 1855 mt 4037 1963 L
3993 1911 mt 4101 1911 L
4047 1857 mt 4047 1965 L
4003 1912 mt 4111 1912 L
4057 1858 mt 4057 1966 L
gr

gs 624 357 3721 2794 rc
/c9 { 0.000000 0.000000 0.500000 sr} bdef
c9
10 1 10 0 10 -4 11 0 11 -2 10 3 11 -2 12 0 
11 -7 11 5 12 -3 12 6 12 -5 12 -3 12 3 13 4 
12 -2 13 5 13 -2 14 -3 13 -5 14 -2 14 -1 15 0 
14 4 15 2 15 -1 16 -1 15 -1 16 -1 17 1 17 -2 
17 -1 17 -4 18 5 18 -1 19 -3 19 1 20 1 20 -2 
20 2 22 -6 21 -2 23 2 23 -1 23 -1 25 1 25 0 
26 2 27 1 28 -4 29 4 29 1 32 -4 32 0 34 -2 
35 1 37 -6 38 -4 41 0 43 2 45 -2 48 -6 51 3 
54 6 58 2 63 3 69 12 75 6 83 18 92 27 104 44 
120 55 142 64 172 73 220 76 304 89 499 94 684 1317 79 MP stroke
gr

c9
gs 575 1208 3592 791 rc
  54   54  684 1317 FO
  54   54 1183 1411 FO
  54   54 1487 1500 FO
  54   54 1707 1576 FO
  54   54 1879 1649 FO
  54   54 2021 1713 FO
  54   54 2141 1768 FO
  54   54 2245 1812 FO
  54   54 2337 1839 FO
  54   54 2420 1857 FO
  54   54 2495 1863 FO
  54   54 2564 1875 FO
  54   54 2627 1878 FO
  54   54 2685 1880 FO
  54   54 2739 1886 FO
  54   54 2790 1889 FO
  54   54 2838 1883 FO
  54   54 2883 1881 FO
  54   54 2926 1883 FO
  54   54 2967 1883 FO
  54   54 3005 1879 FO
  54   54 3042 1873 FO
  54   54 3077 1874 FO
  54   54 3111 1872 FO
  54   54 3143 1872 FO
  54   54 3175 1868 FO
  54   54 3204 1869 FO
  54   54 3233 1873 FO
  54   54 3261 1869 FO
  54   54 3288 1870 FO
  54   54 3314 1872 FO
  54   54 3339 1872 FO
  54   54 3364 1873 FO
  54   54 3387 1872 FO
  54   54 3410 1871 FO
  54   54 3433 1873 FO
  54   54 3454 1871 FO
  54   54 3476 1865 FO
  54   54 3496 1867 FO
  54   54 3516 1865 FO
  54   54 3536 1866 FO
  54   54 3555 1867 FO
  54   54 3574 1864 FO
  54   54 3592 1863 FO
  54   54 3610 1868 FO
  54   54 3627 1864 FO
  54   54 3644 1863 FO
  54   54 3661 1861 FO
  54   54 3678 1862 FO
  54   54 3694 1861 FO
  54   54 3709 1860 FO
  54   54 3725 1859 FO
  54   54 3740 1858 FO
  54   54 3755 1860 FO
  54   54 3769 1864 FO
  54   54 3784 1864 FO
  54   54 3798 1863 FO
  54   54 3812 1861 FO
  54   54 3825 1856 FO
  54   54 3839 1853 FO
  54   54 3852 1851 FO
  54   54 3865 1856 FO
  54   54 3877 1854 FO
  54   54 3890 1858 FO
  54   54 3902 1861 FO
  54   54 3914 1858 FO
  54   54 3926 1853 FO
  54   54 3938 1859 FO
  54   54 3950 1856 FO
  54   54 3961 1861 FO
  54   54 3972 1854 FO
  54   54 3984 1854 FO
  54   54 3995 1852 FO
  54   54 4005 1855 FO
  54   54 4016 1853 FO
  54   54 4027 1853 FO
  54   54 4037 1849 FO
  54   54 4047 1849 FO
  54   54 4057 1850 FO
gr

gs 624 357 3721 2794 rc
/c10 { 0.500000 0.000000 0.000000 sr} bdef
c10
10 0 10 2 10 -2 11 1 11 2 10 1 11 1 12 -3 
11 0 11 -1 12 0 12 0 12 0 12 2 12 -2 13 1 
12 1 13 -1 13 0 14 2 13 -1 14 -1 14 -2 15 3 
14 1 15 1 15 -1 16 2 15 -2 16 -2 17 0 17 1 
17 2 17 0 18 -4 18 4 19 -2 19 -2 20 0 20 -2 
20 3 22 0 21 0 23 0 23 -4 23 0 25 2 25 1 
26 0 27 2 28 -2 29 1 29 1 32 3 32 2 34 3 
35 -1 37 5 38 2 41 6 43 8 45 9 48 15 51 15 
54 21 58 22 63 27 69 31 75 26 83 32 92 35 104 32 
120 32 142 37 172 42 220 44 304 42 499 60 684 1242 79 MP stroke
gr

c10
gs 575 1133 3592 774 rc
 646 1204 mt  722 1280 L
 722 1204 mt  646 1280 L
1145 1264 mt 1221 1340 L
1221 1264 mt 1145 1340 L
1449 1306 mt 1525 1382 L
1525 1306 mt 1449 1382 L
1669 1350 mt 1745 1426 L
1745 1350 mt 1669 1426 L
1841 1392 mt 1917 1468 L
1917 1392 mt 1841 1468 L
1983 1429 mt 2059 1505 L
2059 1429 mt 1983 1505 L
2103 1461 mt 2179 1537 L
2179 1461 mt 2103 1537 L
2207 1493 mt 2283 1569 L
2283 1493 mt 2207 1569 L
2299 1528 mt 2375 1604 L
2375 1528 mt 2299 1604 L
2382 1560 mt 2458 1636 L
2458 1560 mt 2382 1636 L
2457 1586 mt 2533 1662 L
2533 1586 mt 2457 1662 L
2526 1617 mt 2602 1693 L
2602 1617 mt 2526 1693 L
2589 1644 mt 2665 1720 L
2665 1644 mt 2589 1720 L
2647 1666 mt 2723 1742 L
2723 1666 mt 2647 1742 L
2701 1687 mt 2777 1763 L
2777 1687 mt 2701 1763 L
2752 1702 mt 2828 1778 L
2828 1702 mt 2752 1778 L
2800 1717 mt 2876 1793 L
2876 1717 mt 2800 1793 L
2845 1726 mt 2921 1802 L
2921 1726 mt 2845 1802 L
2888 1734 mt 2964 1810 L
2964 1734 mt 2888 1810 L
2929 1740 mt 3005 1816 L
3005 1740 mt 2929 1816 L
2967 1742 mt 3043 1818 L
3043 1742 mt 2967 1818 L
3004 1747 mt 3080 1823 L
3080 1747 mt 3004 1823 L
3039 1746 mt 3115 1822 L
3115 1746 mt 3039 1822 L
3073 1749 mt 3149 1825 L
3149 1749 mt 3073 1825 L
3105 1751 mt 3181 1827 L
3181 1751 mt 3105 1827 L
3137 1754 mt 3213 1830 L
3213 1754 mt 3137 1830 L
3166 1755 mt 3242 1831 L
3242 1755 mt 3166 1831 L
3195 1756 mt 3271 1832 L
3271 1756 mt 3195 1832 L
3223 1754 mt 3299 1830 L
3299 1754 mt 3223 1830 L
3250 1756 mt 3326 1832 L
3326 1756 mt 3250 1832 L
3276 1756 mt 3352 1832 L
3352 1756 mt 3276 1832 L
3301 1757 mt 3377 1833 L
3377 1757 mt 3301 1833 L
3326 1759 mt 3402 1835 L
3402 1759 mt 3326 1835 L
3349 1759 mt 3425 1835 L
3425 1759 mt 3349 1835 L
3372 1755 mt 3448 1831 L
3448 1755 mt 3372 1831 L
3395 1755 mt 3471 1831 L
3471 1755 mt 3395 1831 L
3416 1755 mt 3492 1831 L
3492 1755 mt 3416 1831 L
3438 1755 mt 3514 1831 L
3514 1755 mt 3438 1831 L
3458 1758 mt 3534 1834 L
3534 1758 mt 3458 1834 L
3478 1756 mt 3554 1832 L
3554 1756 mt 3478 1832 L
3498 1756 mt 3574 1832 L
3574 1756 mt 3498 1832 L
3517 1754 mt 3593 1830 L
3593 1754 mt 3517 1830 L
3536 1752 mt 3612 1828 L
3612 1752 mt 3536 1828 L
3554 1756 mt 3630 1832 L
3630 1756 mt 3554 1832 L
3572 1752 mt 3648 1828 L
3648 1752 mt 3572 1828 L
3589 1752 mt 3665 1828 L
3665 1752 mt 3589 1828 L
3606 1754 mt 3682 1830 L
3682 1754 mt 3606 1830 L
3623 1755 mt 3699 1831 L
3699 1755 mt 3623 1831 L
3640 1755 mt 3716 1831 L
3716 1755 mt 3640 1831 L
3656 1753 mt 3732 1829 L
3732 1753 mt 3656 1829 L
3671 1751 mt 3747 1827 L
3747 1751 mt 3671 1827 L
3687 1753 mt 3763 1829 L
3763 1753 mt 3687 1829 L
3702 1752 mt 3778 1828 L
3778 1752 mt 3702 1828 L
3717 1753 mt 3793 1829 L
3793 1753 mt 3717 1829 L
3731 1754 mt 3807 1830 L
3807 1754 mt 3731 1830 L
3746 1757 mt 3822 1833 L
3822 1757 mt 3746 1833 L
3760 1755 mt 3836 1831 L
3836 1755 mt 3760 1831 L
3774 1754 mt 3850 1830 L
3850 1754 mt 3774 1830 L
3787 1753 mt 3863 1829 L
3863 1753 mt 3787 1829 L
3801 1755 mt 3877 1831 L
3877 1755 mt 3801 1831 L
3814 1755 mt 3890 1831 L
3890 1755 mt 3814 1831 L
3827 1754 mt 3903 1830 L
3903 1754 mt 3827 1830 L
3839 1755 mt 3915 1831 L
3915 1755 mt 3839 1831 L
3852 1756 mt 3928 1832 L
3928 1756 mt 3852 1832 L
3864 1754 mt 3940 1830 L
3940 1754 mt 3864 1830 L
3876 1756 mt 3952 1832 L
3952 1756 mt 3876 1832 L
3888 1756 mt 3964 1832 L
3964 1756 mt 3888 1832 L
3900 1756 mt 3976 1832 L
3976 1756 mt 3900 1832 L
3912 1756 mt 3988 1832 L
3988 1756 mt 3912 1832 L
3923 1755 mt 3999 1831 L
3999 1755 mt 3923 1831 L
3934 1755 mt 4010 1831 L
4010 1755 mt 3934 1831 L
3946 1752 mt 4022 1828 L
4022 1752 mt 3946 1828 L
3957 1753 mt 4033 1829 L
4033 1753 mt 3957 1829 L
3967 1754 mt 4043 1830 L
4043 1754 mt 3967 1830 L
3978 1756 mt 4054 1832 L
4054 1756 mt 3978 1832 L
3989 1757 mt 4065 1833 L
4065 1757 mt 3989 1833 L
3999 1755 mt 4075 1831 L
4075 1755 mt 3999 1831 L
4009 1757 mt 4085 1833 L
4085 1757 mt 4009 1833 L
4019 1757 mt 4095 1833 L
4095 1757 mt 4019 1833 L
gr

gs 624 357 3721 2794 rc
/c11 { 0.000000 0.500000 0.500000 sr} bdef
c11
10 1 10 -1 10 1 11 0 11 1 10 1 11 -1 12 0 
11 0 11 0 12 0 12 0 12 0 12 -1 12 1 13 0 
12 -1 13 -1 13 1 14 0 13 -1 14 0 14 1 15 1 
14 1 15 2 15 1 16 0 15 1 16 2 17 -1 17 0 
17 0 17 2 18 2 18 0 19 3 19 0 20 2 20 3 
20 1 22 4 21 4 23 5 23 4 23 5 25 6 25 7 
26 9 27 7 28 8 29 10 29 8 32 10 32 10 34 11 
35 11 37 12 38 16 41 16 43 14 45 15 48 17 51 15 
54 16 58 17 63 18 69 16 75 17 83 17 92 19 104 18 
120 20 142 20 172 22 220 22 304 26 499 28 684 1207 79 MP stroke
gr

c11
gs 575 1098 3592 740 rc
0 j
0 -86 -86 0 0 86 86 0 641 1164 5 MP
DP
0 -86 -86 0 0 86 86 0 1140 1192 5 MP
DP
0 -86 -86 0 0 86 86 0 1444 1218 5 MP
DP
0 -86 -86 0 0 86 86 0 1664 1240 5 MP
DP
0 -86 -86 0 0 86 86 0 1836 1262 5 MP
DP
0 -86 -86 0 0 86 86 0 1978 1282 5 MP
DP
0 -86 -86 0 0 86 86 0 2098 1302 5 MP
DP
0 -86 -86 0 0 86 86 0 2202 1320 5 MP
DP
0 -86 -86 0 0 86 86 0 2294 1339 5 MP
DP
0 -86 -86 0 0 86 86 0 2377 1356 5 MP
DP
0 -86 -86 0 0 86 86 0 2452 1373 5 MP
DP
0 -86 -86 0 0 86 86 0 2521 1389 5 MP
DP
0 -86 -86 0 0 86 86 0 2584 1407 5 MP
DP
0 -86 -86 0 0 86 86 0 2642 1424 5 MP
DP
0 -86 -86 0 0 86 86 0 2696 1440 5 MP
DP
0 -86 -86 0 0 86 86 0 2747 1455 5 MP
DP
0 -86 -86 0 0 86 86 0 2795 1472 5 MP
DP
0 -86 -86 0 0 86 86 0 2840 1487 5 MP
DP
0 -86 -86 0 0 86 86 0 2883 1501 5 MP
DP
0 -86 -86 0 0 86 86 0 2924 1517 5 MP
DP
0 -86 -86 0 0 86 86 0 2962 1533 5 MP
DP
0 -86 -86 0 0 86 86 0 2999 1545 5 MP
DP
0 -86 -86 0 0 86 86 0 3034 1556 5 MP
DP
0 -86 -86 0 0 86 86 0 3068 1567 5 MP
DP
0 -86 -86 0 0 86 86 0 3100 1577 5 MP
DP
0 -86 -86 0 0 86 86 0 3132 1587 5 MP
DP
0 -86 -86 0 0 86 86 0 3161 1595 5 MP
DP
0 -86 -86 0 0 86 86 0 3190 1605 5 MP
DP
0 -86 -86 0 0 86 86 0 3218 1613 5 MP
DP
0 -86 -86 0 0 86 86 0 3245 1620 5 MP
DP
0 -86 -86 0 0 86 86 0 3271 1629 5 MP
DP
0 -86 -86 0 0 86 86 0 3296 1636 5 MP
DP
0 -86 -86 0 0 86 86 0 3321 1642 5 MP
DP
0 -86 -86 0 0 86 86 0 3344 1647 5 MP
DP
0 -86 -86 0 0 86 86 0 3367 1651 5 MP
DP
0 -86 -86 0 0 86 86 0 3390 1656 5 MP
DP
0 -86 -86 0 0 86 86 0 3411 1660 5 MP
DP
0 -86 -86 0 0 86 86 0 3433 1664 5 MP
DP
0 -86 -86 0 0 86 86 0 3453 1665 5 MP
DP
0 -86 -86 0 0 86 86 0 3473 1668 5 MP
DP
0 -86 -86 0 0 86 86 0 3493 1670 5 MP
DP
0 -86 -86 0 0 86 86 0 3512 1670 5 MP
DP
0 -86 -86 0 0 86 86 0 3531 1673 5 MP
DP
0 -86 -86 0 0 86 86 0 3549 1673 5 MP
DP
0 -86 -86 0 0 86 86 0 3567 1675 5 MP
DP
0 -86 -86 0 0 86 86 0 3584 1677 5 MP
DP
0 -86 -86 0 0 86 86 0 3601 1677 5 MP
DP
0 -86 -86 0 0 86 86 0 3618 1677 5 MP
DP
0 -86 -86 0 0 86 86 0 3635 1676 5 MP
DP
0 -86 -86 0 0 86 86 0 3651 1678 5 MP
DP
0 -86 -86 0 0 86 86 0 3666 1679 5 MP
DP
0 -86 -86 0 0 86 86 0 3682 1679 5 MP
DP
0 -86 -86 0 0 86 86 0 3697 1680 5 MP
DP
0 -86 -86 0 0 86 86 0 3712 1682 5 MP
DP
0 -86 -86 0 0 86 86 0 3726 1683 5 MP
DP
0 -86 -86 0 0 86 86 0 3741 1684 5 MP
DP
0 -86 -86 0 0 86 86 0 3755 1685 5 MP
DP
0 -86 -86 0 0 86 86 0 3769 1685 5 MP
DP
0 -86 -86 0 0 86 86 0 3782 1684 5 MP
DP
0 -86 -86 0 0 86 86 0 3796 1684 5 MP
DP
0 -86 -86 0 0 86 86 0 3809 1685 5 MP
DP
0 -86 -86 0 0 86 86 0 3822 1684 5 MP
DP
0 -86 -86 0 0 86 86 0 3834 1683 5 MP
DP
0 -86 -86 0 0 86 86 0 3847 1683 5 MP
DP
0 -86 -86 0 0 86 86 0 3859 1684 5 MP
DP
0 -86 -86 0 0 86 86 0 3871 1683 5 MP
DP
0 -86 -86 0 0 86 86 0 3883 1683 5 MP
DP
0 -86 -86 0 0 86 86 0 3895 1683 5 MP
DP
0 -86 -86 0 0 86 86 0 3907 1683 5 MP
DP
0 -86 -86 0 0 86 86 0 3918 1683 5 MP
DP
0 -86 -86 0 0 86 86 0 3929 1683 5 MP
DP
0 -86 -86 0 0 86 86 0 3941 1683 5 MP
DP
0 -86 -86 0 0 86 86 0 3952 1682 5 MP
DP
0 -86 -86 0 0 86 86 0 3962 1683 5 MP
DP
0 -86 -86 0 0 86 86 0 3973 1684 5 MP
DP
0 -86 -86 0 0 86 86 0 3984 1684 5 MP
DP
0 -86 -86 0 0 86 86 0 3994 1685 5 MP
DP
0 -86 -86 0 0 86 86 0 4004 1684 5 MP
DP
0 -86 -86 0 0 86 86 0 4014 1685 5 MP
DP
gr

gs 624 357 3721 2794 rc
gr

0 sg
%%IncludeResource: font AvantGarde-Demi
/AvantGarde-Demi /ISOLatin1Encoding 228 FMSR

1949  232 mt 
(\(1+1\) - ES) s
0.3 sg
%%IncludeResource: font AvantGarde-Book
/AvantGarde-Book /ISOLatin1Encoding 180 FMSR

1988 3559 mt 
(log\(nbEval\)) s
 185 2177 mt  -90 rotate
(slope \(SR\)) s
90 rotate
0 sg
%%IncludeResource: font Helvetica
/Helvetica /ISOLatin1Encoding 120 FMSR

 607 3193 mt 
( ) s
4328  399 mt 
( ) s
6 w
1 sg
0 626 886 0 0 -626 3399 1043 4 MP
PP
-886 0 0 626 886 0 0 -626 3399 1043 5 MP stroke
4 w
DO
SO
6 w
0 sg
3399 1043 mt 4285 1043 L
3399  417 mt 4285  417 L
3399 1043 mt 3399  417 L
4285 1043 mt 4285  417 L
3399 1043 mt 4285 1043 L
3399 1043 mt 3399  417 L
3399 1043 mt 4285 1043 L
3399  417 mt 4285  417 L
3399 1043 mt 3399  417 L
4285 1043 mt 4285  417 L
3877  553 mt 
(Dim 2) s
gs 3399 417 887 627 rc
10.8 w
c8
367 0 3472 510 2 MP stroke
gr

10.8 w
c8
gs 3546 401 219 219 rc
3601  510 mt 3709  510 L
3655  456 mt 3655  564 L
gr

gs 3399 417 887 627 rc
gr

0 sg
3877  699 mt 
(Dim 4) s
gs 3399 417 887 627 rc
c9
367 0 3472 656 2 MP stroke
gs 3546 547 219 219 rc
  54   54 3655  656 FO
gr

gr

c9
0 sg
3877  846 mt 
(Dim 8) s
gs 3399 417 887 627 rc
c10
367 0 3472 803 2 MP stroke
gs 3546 694 219 219 rc
3617  765 mt 3693  841 L
3693  765 mt 3617  841 L
gr

gr

c10
0 sg
3877  992 mt 
(Dim 16) s
gs 3399 417 887 627 rc
c11
367 0 3472 949 2 MP stroke
gr

c11
gs 3546 840 219 219 rc
0 j
0 -86 -86 0 0 86 86 0 3612 906 5 MP
DP
gr

gs 3399 417 887 627 rc
6 w
gr

6 w

end %%Color Dict

eplot
%%EndObject

epage
end

showpage

%%Trailer
%%EOF
