%!PS-Adobe-3.0 EPSF-3.0
%%Creator: MATLAB, The MathWorks, Inc. Version 7.14.0.739 (R2012a). Operating System: Linux 3.13.0-35-generic #62-Ubuntu SMP Fri Aug 15 01:58:42 UTC 2014 x86_64.
%%Title: ./shamir_esareslow_nbeval.eps
%%CreationDate: 08/29/2014  14:40:05
%%DocumentNeededFonts: Helvetica
%%+ AvantGarde-Book
%%+ AvantGarde-Demi
%%DocumentProcessColors: Cyan Magenta Yellow Black
%%LanguageLevel: 2
%%Pages: 1
%%BoundingBox:   113   246   477   549
%%EndComments

%%BeginProlog
% MathWorks dictionary
/MathWorks 160 dict begin
% definition operators
/bdef {bind def} bind def
/ldef {load def} bind def
/xdef {exch def} bdef
/xstore {exch store} bdef
% operator abbreviations
/c  /clip ldef
/cc /concat ldef
/cp /closepath ldef
/gr /grestore ldef
/gs /gsave ldef
/mt /moveto ldef
/np /newpath ldef
/cm /currentmatrix ldef
/sm /setmatrix ldef
/rm /rmoveto ldef
/rl /rlineto ldef
/s {show newpath} bdef
/sc {setcmykcolor} bdef
/sr /setrgbcolor ldef
/sg /setgray ldef
/w /setlinewidth ldef
/j /setlinejoin ldef
/cap /setlinecap ldef
/rc {rectclip} bdef
/rf {rectfill} bdef
% page state control
/pgsv () def
/bpage {/pgsv save def} bdef
/epage {pgsv restore} bdef
/bplot /gsave ldef
/eplot {stroke grestore} bdef
% orientation switch
/portraitMode 0 def /landscapeMode 1 def /rotateMode 2 def
% coordinate system mappings
/dpi2point 0 def
% font control
/FontSize 0 def
/FMS {/FontSize xstore findfont [FontSize 0 0 FontSize neg 0 0]
  makefont setfont} bdef
/reencode {exch dup where {pop load} {pop StandardEncoding} ifelse
  exch dup 3 1 roll findfont dup length dict begin
  { 1 index /FID ne {def}{pop pop} ifelse } forall
  /Encoding exch def currentdict end definefont pop} bdef
/isroman {findfont /CharStrings get /Agrave known} bdef
/FMSR {3 1 roll 1 index dup isroman {reencode} {pop pop} ifelse
  exch FMS} bdef
/csm {1 dpi2point div -1 dpi2point div scale neg translate
 dup landscapeMode eq {pop -90 rotate}
  {rotateMode eq {90 rotate} if} ifelse} bdef
% line types: solid, dotted, dashed, dotdash
/SO { [] 0 setdash } bdef
/DO { [.5 dpi2point mul 4 dpi2point mul] 0 setdash } bdef
/DA { [6 dpi2point mul] 0 setdash } bdef
/DD { [.5 dpi2point mul 4 dpi2point mul 6 dpi2point mul 4
  dpi2point mul] 0 setdash } bdef
% macros for lines and objects
/L {lineto stroke} bdef
/MP {3 1 roll moveto 1 sub {rlineto} repeat} bdef
/AP {{rlineto} repeat} bdef
/PDlw -1 def
/W {/PDlw currentlinewidth def setlinewidth} def
/PP {closepath eofill} bdef
/DP {closepath stroke} bdef
/MR {4 -2 roll moveto dup  0 exch rlineto exch 0 rlineto
  neg 0 exch rlineto closepath} bdef
/FR {MR stroke} bdef
/PR {MR fill} bdef
/L1i {{currentfile picstr readhexstring pop} image} bdef
/tMatrix matrix def
/MakeOval {newpath tMatrix currentmatrix pop translate scale
0 0 1 0 360 arc tMatrix setmatrix} bdef
/FO {MakeOval stroke} bdef
/PO {MakeOval fill} bdef
/PD {currentlinewidth 2 div 0 360 arc fill
   PDlw -1 eq not {PDlw w /PDlw -1 def} if} def
/FA {newpath tMatrix currentmatrix pop translate scale
  0 0 1 5 -2 roll arc tMatrix setmatrix stroke} bdef
/PA {newpath tMatrix currentmatrix pop	translate 0 0 moveto scale
  0 0 1 5 -2 roll arc closepath tMatrix setmatrix fill} bdef
/FAn {newpath tMatrix currentmatrix pop translate scale
  0 0 1 5 -2 roll arcn tMatrix setmatrix stroke} bdef
/PAn {newpath tMatrix currentmatrix pop translate 0 0 moveto scale
  0 0 1 5 -2 roll arcn closepath tMatrix setmatrix fill} bdef
/vradius 0 def /hradius 0 def /lry 0 def
/lrx 0 def /uly 0 def /ulx 0 def /rad 0 def
/MRR {/vradius xdef /hradius xdef /lry xdef /lrx xdef /uly xdef
  /ulx xdef newpath tMatrix currentmatrix pop ulx hradius add uly
  vradius add translate hradius vradius scale 0 0 1 180 270 arc 
  tMatrix setmatrix lrx hradius sub uly vradius add translate
  hradius vradius scale 0 0 1 270 360 arc tMatrix setmatrix
  lrx hradius sub lry vradius sub translate hradius vradius scale
  0 0 1 0 90 arc tMatrix setmatrix ulx hradius add lry vradius sub
  translate hradius vradius scale 0 0 1 90 180 arc tMatrix setmatrix
  closepath} bdef
/FRR {MRR stroke } bdef
/PRR {MRR fill } bdef
/MlrRR {/lry xdef /lrx xdef /uly xdef /ulx xdef /rad lry uly sub 2 div def
  newpath tMatrix currentmatrix pop ulx rad add uly rad add translate
  rad rad scale 0 0 1 90 270 arc tMatrix setmatrix lrx rad sub lry rad
  sub translate rad rad scale 0 0 1 270 90 arc tMatrix setmatrix
  closepath} bdef
/FlrRR {MlrRR stroke } bdef
/PlrRR {MlrRR fill } bdef
/MtbRR {/lry xdef /lrx xdef /uly xdef /ulx xdef /rad lrx ulx sub 2 div def
  newpath tMatrix currentmatrix pop ulx rad add uly rad add translate
  rad rad scale 0 0 1 180 360 arc tMatrix setmatrix lrx rad sub lry rad
  sub translate rad rad scale 0 0 1 0 180 arc tMatrix setmatrix
  closepath} bdef
/FtbRR {MtbRR stroke } bdef
/PtbRR {MtbRR fill } bdef
/stri 6 array def /dtri 6 array def
/smat 6 array def /dmat 6 array def
/tmat1 6 array def /tmat2 6 array def /dif 3 array def
/asub {/ind2 exch def /ind1 exch def dup dup
  ind1 get exch ind2 get sub exch } bdef
/tri_to_matrix {
  2 0 asub 3 1 asub 4 0 asub 5 1 asub
  dup 0 get exch 1 get 7 -1 roll astore } bdef
/compute_transform {
  dmat dtri tri_to_matrix tmat1 invertmatrix 
  smat stri tri_to_matrix tmat2 concatmatrix } bdef
/ds {stri astore pop} bdef
/dt {dtri astore pop} bdef
/db {2 copy /cols xdef /rows xdef mul dup 3 mul string
  currentfile 
  3 index 0 eq {/ASCIIHexDecode filter}
  {/ASCII85Decode filter 3 index 2 eq {/RunLengthDecode filter} if }
  ifelse exch readstring pop
  dup 0 3 index getinterval /rbmap xdef
  dup 2 index dup getinterval /gbmap xdef
  1 index dup 2 mul exch getinterval /bbmap xdef pop pop}bdef
/it {gs np dtri aload pop moveto lineto lineto cp c
  cols rows 8 compute_transform 
  rbmap gbmap bbmap true 3 colorimage gr}bdef
/il {newpath moveto lineto stroke}bdef
currentdict end def
%%EndProlog

%%BeginSetup
MathWorks begin

0 cap

end
%%EndSetup

%%Page: 1 1
%%BeginPageSetup
%%PageBoundingBox:   113   246   477   549
MathWorks begin
bpage
%%EndPageSetup

%%BeginObject: obj1
bplot

/dpi2point 12 def
portraitMode 1260 6552 csm

  106   -40  4361  3637 rc
89 dict begin %Colortable dictionary
/c0 { 0.000000 0.000000 0.000000 sr} bdef
/c1 { 1.000000 1.000000 1.000000 sr} bdef
/c2 { 0.900000 0.000000 0.000000 sr} bdef
/c3 { 0.000000 0.820000 0.000000 sr} bdef
/c4 { 0.000000 0.000000 0.800000 sr} bdef
/c5 { 0.910000 0.820000 0.320000 sr} bdef
/c6 { 1.000000 0.260000 0.820000 sr} bdef
/c7 { 0.000000 0.820000 0.820000 sr} bdef
c0
1 j
1 sg
   0    0 4801 3601 rf
6 w
0 2934 3720 0 0 -2934 624 3204 4 MP
PP
-3720 0 0 2934 3720 0 0 -2934 624 3204 5 MP stroke
4 w
DO
0.3 sg
 624 2858 mt 4344 2858 L
4344 2858 mt 4344 2858 L
 624 1995 mt 4344 1995 L
4344 1995 mt 4344 1995 L
 624 1132 mt 4344 1132 L
4344 1132 mt 4344 1132 L
SO
6 w
 624 3204 mt 4344 3204 L
 624 3204 mt  624  270 L
 624 3204 mt  624 3278 L
%%IncludeResource: font Helvetica
/Helvetica /ISOLatin1Encoding 96 FMSR

 598 3401 mt 
(0) s
 810 3204 mt  810 3241 L
 996 3204 mt  996 3241 L
 996 3204 mt  996 3241 L
 996 3204 mt  996 3241 L
 996 3204 mt  996 3241 L
 996 3204 mt  996 3241 L
 996 3204 mt  996 3241 L
 996 3204 mt  996 3241 L
 996 3204 mt  996 3241 L
 996 3204 mt  996 3278 L
 970 3401 mt 
(1) s
1182 3204 mt 1182 3241 L
1368 3204 mt 1368 3241 L
1368 3204 mt 1368 3241 L
1368 3204 mt 1368 3241 L
1368 3204 mt 1368 3241 L
1368 3204 mt 1368 3241 L
1368 3204 mt 1368 3241 L
1368 3204 mt 1368 3241 L
1368 3204 mt 1368 3241 L
1368 3204 mt 1368 3278 L
1342 3401 mt 
(2) s
1554 3204 mt 1554 3241 L
1740 3204 mt 1740 3241 L
1740 3204 mt 1740 3241 L
1740 3204 mt 1740 3241 L
1740 3204 mt 1740 3241 L
1740 3204 mt 1740 3241 L
1740 3204 mt 1740 3241 L
1740 3204 mt 1740 3241 L
1740 3204 mt 1740 3241 L
1740 3204 mt 1740 3278 L
1714 3401 mt 
(3) s
1926 3204 mt 1926 3241 L
2112 3204 mt 2112 3241 L
2112 3204 mt 2112 3241 L
2112 3204 mt 2112 3241 L
2112 3204 mt 2112 3241 L
2112 3204 mt 2112 3241 L
2112 3204 mt 2112 3241 L
2112 3204 mt 2112 3241 L
2112 3204 mt 2112 3241 L
2112 3204 mt 2112 3278 L
2086 3401 mt 
(4) s
2298 3204 mt 2298 3241 L
2484 3204 mt 2484 3241 L
2484 3204 mt 2484 3241 L
2484 3204 mt 2484 3241 L
2484 3204 mt 2484 3241 L
2484 3204 mt 2484 3241 L
2484 3204 mt 2484 3241 L
2484 3204 mt 2484 3241 L
2484 3204 mt 2484 3241 L
2484 3204 mt 2484 3278 L
2458 3401 mt 
(5) s
2670 3204 mt 2670 3241 L
2856 3204 mt 2856 3241 L
2856 3204 mt 2856 3241 L
2856 3204 mt 2856 3241 L
2856 3204 mt 2856 3241 L
2856 3204 mt 2856 3241 L
2856 3204 mt 2856 3241 L
2856 3204 mt 2856 3241 L
2856 3204 mt 2856 3241 L
2856 3204 mt 2856 3278 L
2830 3401 mt 
(6) s
3041 3204 mt 3041 3241 L
3228 3204 mt 3228 3241 L
3228 3204 mt 3228 3241 L
3228 3204 mt 3228 3241 L
3228 3204 mt 3228 3241 L
3228 3204 mt 3228 3241 L
3228 3204 mt 3228 3241 L
3228 3204 mt 3228 3241 L
3228 3204 mt 3228 3241 L
3228 3204 mt 3228 3278 L
3202 3401 mt 
(7) s
3414 3204 mt 3414 3241 L
3600 3204 mt 3600 3241 L
3600 3204 mt 3600 3241 L
3600 3204 mt 3600 3241 L
3600 3204 mt 3600 3241 L
3600 3204 mt 3600 3241 L
3600 3204 mt 3600 3241 L
3600 3204 mt 3600 3241 L
3600 3204 mt 3600 3241 L
3600 3204 mt 3600 3278 L
3574 3401 mt 
(8) s
3786 3204 mt 3786 3241 L
3972 3204 mt 3972 3241 L
3972 3204 mt 3972 3241 L
3972 3204 mt 3972 3241 L
3972 3204 mt 3972 3241 L
3972 3204 mt 3972 3241 L
3972 3204 mt 3972 3241 L
3972 3204 mt 3972 3241 L
3972 3204 mt 3972 3241 L
3972 3204 mt 3972 3278 L
3946 3401 mt 
(9) s
4158 3204 mt 4158 3241 L
4344 3204 mt 4344 3241 L
4344 3204 mt 4344 3241 L
4344 3204 mt 4344 3241 L
4344 3204 mt 4344 3241 L
4344 3204 mt 4344 3241 L
4344 3204 mt 4344 3241 L
4344 3204 mt 4344 3241 L
4344 3204 mt 4344 3241 L
4344 3204 mt 4344 3278 L
4291 3401 mt 
(10) s
4123 3589 mt 
(x 10) s
%%IncludeResource: font Helvetica
/Helvetica /ISOLatin1Encoding 72 FMSR

4304 3522 mt 
(5) s
 624 2945 mt  586 2945 L
 624 3031 mt  586 3031 L
 624 3117 mt  586 3117 L
 624 3204 mt  586 3204 L
 624 2858 mt  549 2858 L
%%IncludeResource: font Helvetica
/Helvetica /ISOLatin1Encoding 96 FMSR

 406 2893 mt 
(-1) s
 624 2772 mt  586 2772 L
 624 2686 mt  586 2686 L
 624 2599 mt  586 2599 L
 624 2513 mt  586 2513 L
 624 2427 mt  586 2427 L
 624 2341 mt  586 2341 L
 624 2254 mt  586 2254 L
 624 2168 mt  586 2168 L
 624 2082 mt  586 2082 L
 624 1995 mt  549 1995 L
 326 2030 mt 
(-0.5) s
 624 1909 mt  586 1909 L
 624 1823 mt  586 1823 L
 624 1737 mt  586 1737 L
 624 1650 mt  586 1650 L
 624 1564 mt  586 1564 L
 624 1478 mt  586 1478 L
 624 1391 mt  586 1391 L
 624 1305 mt  586 1305 L
 624 1219 mt  586 1219 L
 624 1132 mt  549 1132 L
 462 1167 mt 
(0) s
 624 1046 mt  586 1046 L
 624  960 mt  586  960 L
 624  874 mt  586  874 L
 624  787 mt  586  787 L
 624  701 mt  586  701 L
 624  615 mt  586  615 L
 624  528 mt  586  528 L
 624  442 mt  586  442 L
 624  356 mt  586  356 L
gs 624 270 3721 2935 rc
/c8 { 0.000000 0.500000 0.000000 sr} bdef
c8
55 -4 56 -2 56 -1 56 -2 56 0 55 -3 56 -2 56 -3 
56 -11 56 -12 55 -10 56 -6 56 4 56 6 56 10 55 8 
56 0 56 -4 56 0 56 6 55 8 56 6 56 5 56 4 
56 4 55 1 56 6 56 5 56 0 56 -3 55 -12 56 -5 
56 4 56 1 56 -2 55 10 56 5 56 -10 56 -11 56 4 
55 10 56 3 56 5 56 -1 56 8 55 6 56 -8 56 5 
56 0 56 2 55 -4 56 18 56 35 56 34 56 23 55 4 
56 -9 56 0 56 -22 56 1 55 9 56 -17 56 -55 56 84 
56 8 679 2446 66 MP stroke
gr

c8
 649 2446 mt  709 2446 L
 679 2416 mt  679 2476 L
 705 2454 mt  765 2454 L
 735 2424 mt  735 2484 L
 761 2538 mt  821 2538 L
 791 2508 mt  791 2568 L
 817 2483 mt  877 2483 L
 847 2453 mt  847 2513 L
 873 2466 mt  933 2466 L
 903 2436 mt  903 2496 L
 928 2475 mt  988 2475 L
 958 2445 mt  958 2505 L
 984 2476 mt 1044 2476 L
1014 2446 mt 1014 2506 L
1040 2454 mt 1100 2454 L
1070 2424 mt 1070 2484 L
1096 2454 mt 1156 2454 L
1126 2424 mt 1126 2484 L
1152 2445 mt 1212 2445 L
1182 2415 mt 1182 2475 L
1207 2449 mt 1267 2449 L
1237 2419 mt 1237 2479 L
1263 2472 mt 1323 2472 L
1293 2442 mt 1293 2502 L
1319 2506 mt 1379 2506 L
1349 2476 mt 1349 2536 L
1375 2541 mt 1435 2541 L
1405 2511 mt 1405 2571 L
1431 2559 mt 1491 2559 L
1461 2529 mt 1461 2589 L
1486 2555 mt 1546 2555 L
1516 2525 mt 1516 2585 L
1542 2557 mt 1602 2557 L
1572 2527 mt 1572 2587 L
1598 2557 mt 1658 2557 L
1628 2527 mt 1628 2587 L
1654 2562 mt 1714 2562 L
1684 2532 mt 1684 2592 L
1710 2554 mt 1770 2554 L
1740 2524 mt 1740 2584 L
1765 2560 mt 1825 2560 L
1795 2530 mt 1795 2590 L
1821 2568 mt 1881 2568 L
1851 2538 mt 1851 2598 L
1877 2567 mt 1937 2567 L
1907 2537 mt 1907 2597 L
1933 2572 mt 1993 2572 L
1963 2542 mt 1963 2602 L
1989 2575 mt 2049 2575 L
2019 2545 mt 2019 2605 L
2044 2585 mt 2104 2585 L
2074 2555 mt 2074 2615 L
2100 2589 mt 2160 2589 L
2130 2559 mt 2130 2619 L
2156 2578 mt 2216 2578 L
2186 2548 mt 2186 2608 L
2212 2568 mt 2272 2568 L
2242 2538 mt 2242 2598 L
2268 2573 mt 2328 2573 L
2298 2543 mt 2298 2603 L
2323 2583 mt 2383 2583 L
2353 2553 mt 2353 2613 L
2379 2581 mt 2439 2581 L
2409 2551 mt 2409 2611 L
2435 2582 mt 2495 2582 L
2465 2552 mt 2465 2612 L
2491 2586 mt 2551 2586 L
2521 2556 mt 2521 2616 L
2547 2581 mt 2607 2581 L
2577 2551 mt 2577 2611 L
2602 2569 mt 2662 2569 L
2632 2539 mt 2632 2599 L
2658 2566 mt 2718 2566 L
2688 2536 mt 2688 2596 L
2714 2566 mt 2774 2566 L
2744 2536 mt 2744 2596 L
2770 2571 mt 2830 2571 L
2800 2541 mt 2800 2601 L
2826 2577 mt 2886 2577 L
2856 2547 mt 2856 2607 L
2881 2578 mt 2941 2578 L
2911 2548 mt 2911 2608 L
2937 2582 mt 2997 2582 L
2967 2552 mt 2967 2612 L
2993 2586 mt 3053 2586 L
3023 2556 mt 3023 2616 L
3049 2591 mt 3109 2591 L
3079 2561 mt 3079 2621 L
3105 2597 mt 3165 2597 L
3135 2567 mt 3135 2627 L
3160 2605 mt 3220 2605 L
3190 2575 mt 3190 2635 L
3216 2611 mt 3276 2611 L
3246 2581 mt 3246 2641 L
3272 2611 mt 3332 2611 L
3302 2581 mt 3302 2641 L
3328 2607 mt 3388 2607 L
3358 2577 mt 3358 2637 L
3384 2607 mt 3444 2607 L
3414 2577 mt 3414 2637 L
3439 2615 mt 3499 2615 L
3469 2585 mt 3469 2645 L
3495 2625 mt 3555 2625 L
3525 2595 mt 3525 2655 L
3551 2631 mt 3611 2631 L
3581 2601 mt 3581 2661 L
3607 2635 mt 3667 2635 L
3637 2605 mt 3637 2665 L
3663 2629 mt 3723 2629 L
3693 2599 mt 3693 2659 L
3718 2619 mt 3778 2619 L
3748 2589 mt 3748 2649 L
3774 2607 mt 3834 2607 L
3804 2577 mt 3804 2637 L
3830 2596 mt 3890 2596 L
3860 2566 mt 3860 2626 L
3886 2593 mt 3946 2593 L
3916 2563 mt 3916 2623 L
3942 2591 mt 4002 2591 L
3972 2561 mt 3972 2621 L
3997 2588 mt 4057 2588 L
4027 2558 mt 4027 2618 L
4053 2588 mt 4113 2588 L
4083 2558 mt 4083 2618 L
4109 2586 mt 4169 2586 L
4139 2556 mt 4139 2616 L
4165 2585 mt 4225 2585 L
4195 2555 mt 4195 2615 L
4221 2583 mt 4281 2583 L
4251 2553 mt 4251 2613 L
4276 2579 mt 4336 2579 L
4306 2549 mt 4306 2609 L
gs 624 270 3721 2935 rc
/c9 { 0.000000 0.000000 0.500000 sr} bdef
c9
55 0 56 2 56 3 56 5 56 3 55 3 56 2 56 2 
56 1 56 -1 55 0 56 0 56 -1 56 2 56 1 55 0 
56 1 56 2 56 3 56 5 55 4 56 0 56 -1 56 0 
56 -2 55 2 56 4 56 7 56 8 56 5 55 3 56 2 
56 0 56 -5 56 -10 55 -14 56 -12 56 -8 56 -15 56 -6 
55 4 56 9 56 3 56 11 56 14 55 2 56 0 56 13 
56 8 56 -2 55 -6 56 -4 56 -2 56 -27 56 -11 55 -2 
56 40 56 32 56 5 56 2 55 46 56 27 56 -47 56 9 
56 20 679 2337 66 MP stroke
gr

c9
  30   30  679 2337 FO
  30   30  735 2357 FO
  30   30  791 2366 FO
  30   30  847 2319 FO
  30   30  903 2346 FO
  30   30  958 2392 FO
  30   30 1014 2394 FO
  30   30 1070 2399 FO
  30   30 1126 2431 FO
  30   30 1182 2471 FO
  30   30 1237 2469 FO
  30   30 1293 2458 FO
  30   30 1349 2431 FO
  30   30 1405 2429 FO
  30   30 1461 2425 FO
  30   30 1516 2419 FO
  30   30 1572 2417 FO
  30   30 1628 2425 FO
  30   30 1684 2438 FO
  30   30 1740 2438 FO
  30   30 1795 2440 FO
  30   30 1851 2454 FO
  30   30 1907 2465 FO
  30   30 1963 2468 FO
  30   30 2019 2477 FO
  30   30 2074 2481 FO
  30   30 2130 2475 FO
  30   30 2186 2460 FO
  30   30 2242 2452 FO
  30   30 2298 2440 FO
  30   30 2353 2426 FO
  30   30 2409 2416 FO
  30   30 2465 2411 FO
  30   30 2521 2411 FO
  30   30 2577 2413 FO
  30   30 2632 2416 FO
  30   30 2688 2421 FO
  30   30 2744 2429 FO
  30   30 2800 2436 FO
  30   30 2856 2440 FO
  30   30 2911 2442 FO
  30   30 2967 2440 FO
  30   30 3023 2440 FO
  30   30 3079 2439 FO
  30   30 3135 2439 FO
  30   30 3190 2443 FO
  30   30 3246 2448 FO
  30   30 3302 2451 FO
  30   30 3358 2453 FO
  30   30 3414 2454 FO
  30   30 3469 2454 FO
  30   30 3525 2455 FO
  30   30 3581 2457 FO
  30   30 3637 2456 FO
  30   30 3693 2456 FO
  30   30 3748 2456 FO
  30   30 3804 2455 FO
  30   30 3860 2456 FO
  30   30 3916 2458 FO
  30   30 3972 2460 FO
  30   30 4027 2463 FO
  30   30 4083 2466 FO
  30   30 4139 2471 FO
  30   30 4195 2474 FO
  30   30 4251 2476 FO
  30   30 4306 2476 FO
gs 624 270 3721 2935 rc
/c10 { 0.500000 0.000000 0.000000 sr} bdef
c10
55 2 56 4 56 4 56 0 56 2 55 0 56 -2 56 -1 
56 -1 56 -1 55 2 56 4 56 0 56 2 56 2 55 2 
56 1 56 3 56 4 56 4 55 3 56 3 56 1 56 1 
56 4 55 2 56 0 56 2 56 1 56 2 55 -1 56 1 
56 -1 56 -3 56 0 55 3 56 1 56 8 56 14 56 6 
55 5 56 2 56 -2 56 -10 56 -8 55 -3 56 4 56 -2 
56 0 56 -1 55 -3 56 1 56 -1 56 10 56 3 55 1 
56 9 56 0 56 20 56 16 55 9 56 12 56 9 56 25 
56 83 679 2147 66 MP stroke
gr

c10
 658 2126 mt  700 2168 L
 700 2126 mt  658 2168 L
 714 2209 mt  756 2251 L
 756 2209 mt  714 2251 L
 770 2234 mt  812 2276 L
 812 2234 mt  770 2276 L
 826 2243 mt  868 2285 L
 868 2243 mt  826 2285 L
 882 2255 mt  924 2297 L
 924 2255 mt  882 2297 L
 937 2264 mt  979 2306 L
 979 2264 mt  937 2306 L
 993 2280 mt 1035 2322 L
1035 2280 mt  993 2322 L
1049 2300 mt 1091 2342 L
1091 2300 mt 1049 2342 L
1105 2300 mt 1147 2342 L
1147 2300 mt 1105 2342 L
1161 2309 mt 1203 2351 L
1203 2309 mt 1161 2351 L
1216 2310 mt 1258 2352 L
1258 2310 mt 1216 2352 L
1272 2313 mt 1314 2355 L
1314 2313 mt 1272 2355 L
1328 2323 mt 1370 2365 L
1370 2323 mt 1328 2365 L
1384 2322 mt 1426 2364 L
1426 2322 mt 1384 2364 L
1440 2323 mt 1482 2365 L
1482 2323 mt 1440 2365 L
1495 2320 mt 1537 2362 L
1537 2320 mt 1495 2362 L
1551 2319 mt 1593 2361 L
1593 2319 mt 1551 2361 L
1607 2319 mt 1649 2361 L
1649 2319 mt 1607 2361 L
1663 2317 mt 1705 2359 L
1705 2317 mt 1663 2359 L
1719 2321 mt 1761 2363 L
1761 2321 mt 1719 2363 L
1774 2318 mt 1816 2360 L
1816 2318 mt 1774 2360 L
1830 2310 mt 1872 2352 L
1872 2310 mt 1830 2352 L
1886 2300 mt 1928 2342 L
1928 2300 mt 1886 2342 L
1942 2298 mt 1984 2340 L
1984 2298 mt 1942 2340 L
1998 2300 mt 2040 2342 L
2040 2300 mt 1998 2342 L
2053 2305 mt 2095 2347 L
2095 2305 mt 2053 2347 L
2109 2311 mt 2151 2353 L
2151 2311 mt 2109 2353 L
2165 2325 mt 2207 2367 L
2207 2325 mt 2165 2367 L
2221 2333 mt 2263 2375 L
2263 2333 mt 2221 2375 L
2277 2334 mt 2319 2376 L
2319 2334 mt 2277 2376 L
2332 2337 mt 2374 2379 L
2374 2337 mt 2332 2379 L
2388 2337 mt 2430 2379 L
2430 2337 mt 2388 2379 L
2444 2334 mt 2486 2376 L
2486 2334 mt 2444 2376 L
2500 2333 mt 2542 2375 L
2542 2333 mt 2500 2375 L
2556 2334 mt 2598 2376 L
2598 2334 mt 2556 2376 L
2611 2333 mt 2653 2375 L
2653 2333 mt 2611 2375 L
2667 2335 mt 2709 2377 L
2709 2335 mt 2667 2377 L
2723 2336 mt 2765 2378 L
2765 2336 mt 2723 2378 L
2779 2338 mt 2821 2380 L
2821 2338 mt 2779 2380 L
2835 2338 mt 2877 2380 L
2877 2338 mt 2835 2380 L
2890 2340 mt 2932 2382 L
2932 2340 mt 2890 2382 L
2946 2344 mt 2988 2386 L
2988 2344 mt 2946 2386 L
3002 2345 mt 3044 2387 L
3044 2345 mt 3002 2387 L
3058 2346 mt 3100 2388 L
3100 2346 mt 3058 2388 L
3114 2349 mt 3156 2391 L
3156 2349 mt 3114 2391 L
3169 2352 mt 3211 2394 L
3211 2352 mt 3169 2394 L
3225 2356 mt 3267 2398 L
3267 2356 mt 3225 2398 L
3281 2360 mt 3323 2402 L
3323 2360 mt 3281 2402 L
3337 2363 mt 3379 2405 L
3379 2363 mt 3337 2405 L
3393 2364 mt 3435 2406 L
3435 2364 mt 3393 2406 L
3448 2366 mt 3490 2408 L
3490 2366 mt 3448 2408 L
3504 2368 mt 3546 2410 L
3546 2368 mt 3504 2410 L
3560 2370 mt 3602 2412 L
3602 2370 mt 3560 2412 L
3616 2370 mt 3658 2412 L
3658 2370 mt 3616 2412 L
3672 2374 mt 3714 2416 L
3714 2374 mt 3672 2416 L
3727 2376 mt 3769 2418 L
3769 2376 mt 3727 2418 L
3783 2375 mt 3825 2417 L
3825 2375 mt 3783 2417 L
3839 2374 mt 3881 2416 L
3881 2374 mt 3839 2416 L
3895 2373 mt 3937 2415 L
3937 2373 mt 3895 2415 L
3951 2371 mt 3993 2413 L
3993 2371 mt 3951 2413 L
4006 2371 mt 4048 2413 L
4048 2371 mt 4006 2413 L
4062 2373 mt 4104 2415 L
4104 2373 mt 4062 2415 L
4118 2373 mt 4160 2415 L
4160 2373 mt 4118 2415 L
4174 2377 mt 4216 2419 L
4216 2377 mt 4174 2419 L
4230 2381 mt 4272 2423 L
4272 2381 mt 4230 2423 L
4285 2383 mt 4327 2425 L
4327 2383 mt 4285 2425 L
gs 624 270 3721 2935 rc
/c11 { 0.000000 0.500000 0.500000 sr} bdef
c11
55 -1 56 -1 56 1 56 1 56 0 55 0 56 0 56 0 
56 0 56 -1 55 -2 56 -2 56 1 56 0 56 0 55 0 
56 3 56 2 56 3 56 4 55 3 56 3 56 1 56 1 
56 1 55 2 56 3 56 1 56 2 56 0 55 1 56 1 
56 0 56 -1 56 3 55 4 56 6 56 2 56 6 56 3 
55 -2 56 -2 56 5 56 5 56 1 55 2 56 -2 56 -7 
56 3 56 7 55 3 56 5 56 2 56 -7 56 5 55 4 
56 9 56 18 56 1 56 13 55 11 56 33 56 100 56 227 
56 298 679 1519 66 MP stroke
gr

c11
0 j
0 -48 -48 0 0 48 48 0 655 1495 5 MP
DP
0 -48 -48 0 0 48 48 0 711 1793 5 MP
DP
0 -48 -48 0 0 48 48 0 767 2020 5 MP
DP
0 -48 -48 0 0 48 48 0 823 2120 5 MP
DP
0 -48 -48 0 0 48 48 0 879 2153 5 MP
DP
0 -48 -48 0 0 48 48 0 934 2164 5 MP
DP
0 -48 -48 0 0 48 48 0 990 2177 5 MP
DP
0 -48 -48 0 0 48 48 0 1046 2178 5 MP
DP
0 -48 -48 0 0 48 48 0 1102 2196 5 MP
DP
0 -48 -48 0 0 48 48 0 1158 2205 5 MP
DP
0 -48 -48 0 0 48 48 0 1213 2209 5 MP
DP
0 -48 -48 0 0 48 48 0 1269 2214 5 MP
DP
0 -48 -48 0 0 48 48 0 1325 2207 5 MP
DP
0 -48 -48 0 0 48 48 0 1381 2209 5 MP
DP
0 -48 -48 0 0 48 48 0 1437 2214 5 MP
DP
0 -48 -48 0 0 48 48 0 1492 2217 5 MP
DP
0 -48 -48 0 0 48 48 0 1548 2224 5 MP
DP
0 -48 -48 0 0 48 48 0 1604 2227 5 MP
DP
0 -48 -48 0 0 48 48 0 1660 2220 5 MP
DP
0 -48 -48 0 0 48 48 0 1716 2218 5 MP
DP
0 -48 -48 0 0 48 48 0 1771 2220 5 MP
DP
0 -48 -48 0 0 48 48 0 1827 2221 5 MP
DP
0 -48 -48 0 0 48 48 0 1883 2226 5 MP
DP
0 -48 -48 0 0 48 48 0 1939 2231 5 MP
DP
0 -48 -48 0 0 48 48 0 1995 2229 5 MP
DP
0 -48 -48 0 0 48 48 0 2050 2227 5 MP
DP
0 -48 -48 0 0 48 48 0 2106 2230 5 MP
DP
0 -48 -48 0 0 48 48 0 2162 2236 5 MP
DP
0 -48 -48 0 0 48 48 0 2218 2238 5 MP
DP
0 -48 -48 0 0 48 48 0 2274 2244 5 MP
DP
0 -48 -48 0 0 48 48 0 2329 2248 5 MP
DP
0 -48 -48 0 0 48 48 0 2385 2251 5 MP
DP
0 -48 -48 0 0 48 48 0 2441 2250 5 MP
DP
0 -48 -48 0 0 48 48 0 2497 2250 5 MP
DP
0 -48 -48 0 0 48 48 0 2553 2251 5 MP
DP
0 -48 -48 0 0 48 48 0 2608 2252 5 MP
DP
0 -48 -48 0 0 48 48 0 2664 2252 5 MP
DP
0 -48 -48 0 0 48 48 0 2720 2254 5 MP
DP
0 -48 -48 0 0 48 48 0 2776 2255 5 MP
DP
0 -48 -48 0 0 48 48 0 2832 2258 5 MP
DP
0 -48 -48 0 0 48 48 0 2887 2260 5 MP
DP
0 -48 -48 0 0 48 48 0 2943 2261 5 MP
DP
0 -48 -48 0 0 48 48 0 2999 2262 5 MP
DP
0 -48 -48 0 0 48 48 0 3055 2263 5 MP
DP
0 -48 -48 0 0 48 48 0 3111 2266 5 MP
DP
0 -48 -48 0 0 48 48 0 3166 2269 5 MP
DP
0 -48 -48 0 0 48 48 0 3222 2273 5 MP
DP
0 -48 -48 0 0 48 48 0 3278 2276 5 MP
DP
0 -48 -48 0 0 48 48 0 3334 2278 5 MP
DP
0 -48 -48 0 0 48 48 0 3390 2281 5 MP
DP
0 -48 -48 0 0 48 48 0 3445 2281 5 MP
DP
0 -48 -48 0 0 48 48 0 3501 2281 5 MP
DP
0 -48 -48 0 0 48 48 0 3557 2281 5 MP
DP
0 -48 -48 0 0 48 48 0 3613 2282 5 MP
DP
0 -48 -48 0 0 48 48 0 3669 2280 5 MP
DP
0 -48 -48 0 0 48 48 0 3724 2278 5 MP
DP
0 -48 -48 0 0 48 48 0 3780 2277 5 MP
DP
0 -48 -48 0 0 48 48 0 3836 2277 5 MP
DP
0 -48 -48 0 0 48 48 0 3892 2277 5 MP
DP
0 -48 -48 0 0 48 48 0 3948 2277 5 MP
DP
0 -48 -48 0 0 48 48 0 4003 2277 5 MP
DP
0 -48 -48 0 0 48 48 0 4059 2277 5 MP
DP
0 -48 -48 0 0 48 48 0 4115 2278 5 MP
DP
0 -48 -48 0 0 48 48 0 4171 2279 5 MP
DP
0 -48 -48 0 0 48 48 0 4227 2278 5 MP
DP
0 -48 -48 0 0 48 48 0 4282 2277 5 MP
DP
gs 624 270 3721 2935 rc
gr

0 sg
%%IncludeResource: font AvantGarde-Demi
/AvantGarde-Demi /ISOLatin1Encoding 144 FMSR

2217  180 mt 
(SHAMIR) s
0.3 sg
%%IncludeResource: font AvantGarde-Book
/AvantGarde-Book /ISOLatin1Encoding 120 FMSR

2289 3546 mt 
(nbEval) s
 245 2020 mt  -90 rotate
(slope \(SR\)) s
90 rotate
0 sg
%%IncludeResource: font Helvetica
/Helvetica /ISOLatin1Encoding 120 FMSR

 607 3247 mt 
( ) s
4328  312 mt 
( ) s
1 sg
0 514 811 0 0 -514 3474 844 4 MP
PP
-811 0 0 514 811 0 0 -514 3474 844 5 MP stroke
4 w
DO
SO
6 w
0 sg
3474  844 mt 4285  844 L
3474  330 mt 4285  330 L
3474  844 mt 3474  330 L
4285  844 mt 4285  330 L
3474  844 mt 4285  844 L
3474  844 mt 3474  330 L
3474  844 mt 4285  844 L
3474  330 mt 4285  330 L
3474  844 mt 3474  330 L
4285  844 mt 4285  330 L
%%IncludeResource: font Helvetica
/Helvetica /ISOLatin1Encoding 96 FMSR

3911  441 mt 
(Dim 2) s
gs 3474 330 812 515 rc
c8
336 0 3541 406 2 MP stroke
gs 3648 345 123 123 rc
3679  406 mt 3739  406 L
3709  376 mt 3709  436 L
gr

gr

c8
0 sg
3911  561 mt 
(Dim 4) s
gs 3474 330 812 515 rc
c9
336 0 3541 526 2 MP stroke
gs 3648 465 123 123 rc
  30   30 3709  526 FO
gr

gr

c9
0 sg
3911  682 mt 
(Dim 8) s
gs 3474 330 812 515 rc
c10
336 0 3541 647 2 MP stroke
gs 3648 586 123 123 rc
3688  626 mt 3730  668 L
3730  626 mt 3688  668 L
gr

gr

c10
0 sg
3911  802 mt 
(Dim 16) s
gs 3474 330 812 515 rc
c11
336 0 3541 767 2 MP stroke
gs 3648 706 123 123 rc
0 -48 -48 0 0 48 48 0 3685 743 5 MP
DP
gr

gr

c11

end %%Color Dict

eplot
%%EndObject

epage
end

showpage

%%Trailer
%%EOF
