%!PS-Adobe-3.0 EPSF-3.0
%%Creator: MATLAB, The MathWorks, Inc. Version 7.14.0.739 (R2012a). Operating System: Linux 3.13.0-35-generic #62-Ubuntu SMP Fri Aug 15 01:58:42 UTC 2014 x86_64.
%%Title: ./uhcma_esareslow_lognbeval.eps
%%CreationDate: 08/29/2014  14:15:23
%%DocumentNeededFonts: Helvetica
%%+ AvantGarde-Book
%%+ AvantGarde-Demi
%%DocumentProcessColors: Cyan Magenta Yellow Black
%%LanguageLevel: 2
%%Pages: 1
%%BoundingBox:   113   246   477   549
%%EndComments

%%BeginProlog
% MathWorks dictionary
/MathWorks 160 dict begin
% definition operators
/bdef {bind def} bind def
/ldef {load def} bind def
/xdef {exch def} bdef
/xstore {exch store} bdef
% operator abbreviations
/c  /clip ldef
/cc /concat ldef
/cp /closepath ldef
/gr /grestore ldef
/gs /gsave ldef
/mt /moveto ldef
/np /newpath ldef
/cm /currentmatrix ldef
/sm /setmatrix ldef
/rm /rmoveto ldef
/rl /rlineto ldef
/s {show newpath} bdef
/sc {setcmykcolor} bdef
/sr /setrgbcolor ldef
/sg /setgray ldef
/w /setlinewidth ldef
/j /setlinejoin ldef
/cap /setlinecap ldef
/rc {rectclip} bdef
/rf {rectfill} bdef
% page state control
/pgsv () def
/bpage {/pgsv save def} bdef
/epage {pgsv restore} bdef
/bplot /gsave ldef
/eplot {stroke grestore} bdef
% orientation switch
/portraitMode 0 def /landscapeMode 1 def /rotateMode 2 def
% coordinate system mappings
/dpi2point 0 def
% font control
/FontSize 0 def
/FMS {/FontSize xstore findfont [FontSize 0 0 FontSize neg 0 0]
  makefont setfont} bdef
/reencode {exch dup where {pop load} {pop StandardEncoding} ifelse
  exch dup 3 1 roll findfont dup length dict begin
  { 1 index /FID ne {def}{pop pop} ifelse } forall
  /Encoding exch def currentdict end definefont pop} bdef
/isroman {findfont /CharStrings get /Agrave known} bdef
/FMSR {3 1 roll 1 index dup isroman {reencode} {pop pop} ifelse
  exch FMS} bdef
/csm {1 dpi2point div -1 dpi2point div scale neg translate
 dup landscapeMode eq {pop -90 rotate}
  {rotateMode eq {90 rotate} if} ifelse} bdef
% line types: solid, dotted, dashed, dotdash
/SO { [] 0 setdash } bdef
/DO { [.5 dpi2point mul 4 dpi2point mul] 0 setdash } bdef
/DA { [6 dpi2point mul] 0 setdash } bdef
/DD { [.5 dpi2point mul 4 dpi2point mul 6 dpi2point mul 4
  dpi2point mul] 0 setdash } bdef
% macros for lines and objects
/L {lineto stroke} bdef
/MP {3 1 roll moveto 1 sub {rlineto} repeat} bdef
/AP {{rlineto} repeat} bdef
/PDlw -1 def
/W {/PDlw currentlinewidth def setlinewidth} def
/PP {closepath eofill} bdef
/DP {closepath stroke} bdef
/MR {4 -2 roll moveto dup  0 exch rlineto exch 0 rlineto
  neg 0 exch rlineto closepath} bdef
/FR {MR stroke} bdef
/PR {MR fill} bdef
/L1i {{currentfile picstr readhexstring pop} image} bdef
/tMatrix matrix def
/MakeOval {newpath tMatrix currentmatrix pop translate scale
0 0 1 0 360 arc tMatrix setmatrix} bdef
/FO {MakeOval stroke} bdef
/PO {MakeOval fill} bdef
/PD {currentlinewidth 2 div 0 360 arc fill
   PDlw -1 eq not {PDlw w /PDlw -1 def} if} def
/FA {newpath tMatrix currentmatrix pop translate scale
  0 0 1 5 -2 roll arc tMatrix setmatrix stroke} bdef
/PA {newpath tMatrix currentmatrix pop	translate 0 0 moveto scale
  0 0 1 5 -2 roll arc closepath tMatrix setmatrix fill} bdef
/FAn {newpath tMatrix currentmatrix pop translate scale
  0 0 1 5 -2 roll arcn tMatrix setmatrix stroke} bdef
/PAn {newpath tMatrix currentmatrix pop translate 0 0 moveto scale
  0 0 1 5 -2 roll arcn closepath tMatrix setmatrix fill} bdef
/vradius 0 def /hradius 0 def /lry 0 def
/lrx 0 def /uly 0 def /ulx 0 def /rad 0 def
/MRR {/vradius xdef /hradius xdef /lry xdef /lrx xdef /uly xdef
  /ulx xdef newpath tMatrix currentmatrix pop ulx hradius add uly
  vradius add translate hradius vradius scale 0 0 1 180 270 arc 
  tMatrix setmatrix lrx hradius sub uly vradius add translate
  hradius vradius scale 0 0 1 270 360 arc tMatrix setmatrix
  lrx hradius sub lry vradius sub translate hradius vradius scale
  0 0 1 0 90 arc tMatrix setmatrix ulx hradius add lry vradius sub
  translate hradius vradius scale 0 0 1 90 180 arc tMatrix setmatrix
  closepath} bdef
/FRR {MRR stroke } bdef
/PRR {MRR fill } bdef
/MlrRR {/lry xdef /lrx xdef /uly xdef /ulx xdef /rad lry uly sub 2 div def
  newpath tMatrix currentmatrix pop ulx rad add uly rad add translate
  rad rad scale 0 0 1 90 270 arc tMatrix setmatrix lrx rad sub lry rad
  sub translate rad rad scale 0 0 1 270 90 arc tMatrix setmatrix
  closepath} bdef
/FlrRR {MlrRR stroke } bdef
/PlrRR {MlrRR fill } bdef
/MtbRR {/lry xdef /lrx xdef /uly xdef /ulx xdef /rad lrx ulx sub 2 div def
  newpath tMatrix currentmatrix pop ulx rad add uly rad add translate
  rad rad scale 0 0 1 180 360 arc tMatrix setmatrix lrx rad sub lry rad
  sub translate rad rad scale 0 0 1 0 180 arc tMatrix setmatrix
  closepath} bdef
/FtbRR {MtbRR stroke } bdef
/PtbRR {MtbRR fill } bdef
/stri 6 array def /dtri 6 array def
/smat 6 array def /dmat 6 array def
/tmat1 6 array def /tmat2 6 array def /dif 3 array def
/asub {/ind2 exch def /ind1 exch def dup dup
  ind1 get exch ind2 get sub exch } bdef
/tri_to_matrix {
  2 0 asub 3 1 asub 4 0 asub 5 1 asub
  dup 0 get exch 1 get 7 -1 roll astore } bdef
/compute_transform {
  dmat dtri tri_to_matrix tmat1 invertmatrix 
  smat stri tri_to_matrix tmat2 concatmatrix } bdef
/ds {stri astore pop} bdef
/dt {dtri astore pop} bdef
/db {2 copy /cols xdef /rows xdef mul dup 3 mul string
  currentfile 
  3 index 0 eq {/ASCIIHexDecode filter}
  {/ASCII85Decode filter 3 index 2 eq {/RunLengthDecode filter} if }
  ifelse exch readstring pop
  dup 0 3 index getinterval /rbmap xdef
  dup 2 index dup getinterval /gbmap xdef
  1 index dup 2 mul exch getinterval /bbmap xdef pop pop}bdef
/it {gs np dtri aload pop moveto lineto lineto cp c
  cols rows 8 compute_transform 
  rbmap gbmap bbmap true 3 colorimage gr}bdef
/il {newpath moveto lineto stroke}bdef
currentdict end def
%%EndProlog

%%BeginSetup
MathWorks begin

0 cap

end
%%EndSetup

%%Page: 1 1
%%BeginPageSetup
%%PageBoundingBox:   113   246   477   549
MathWorks begin
bpage
%%EndPageSetup

%%BeginObject: obj1
bplot

/dpi2point 12 def
portraitMode 1260 6552 csm

  106   -40  4361  3637 rc
89 dict begin %Colortable dictionary
/c0 { 0.000000 0.000000 0.000000 sr} bdef
/c1 { 1.000000 1.000000 1.000000 sr} bdef
/c2 { 0.900000 0.000000 0.000000 sr} bdef
/c3 { 0.000000 0.820000 0.000000 sr} bdef
/c4 { 0.000000 0.000000 0.800000 sr} bdef
/c5 { 0.910000 0.820000 0.320000 sr} bdef
/c6 { 1.000000 0.260000 0.820000 sr} bdef
/c7 { 0.000000 0.820000 0.820000 sr} bdef
c0
1 j
1 sg
   0    0 4801 3601 rf
6 w
0 2934 3720 0 0 -2934 624 3204 4 MP
PP
-3720 0 0 2934 3720 0 0 -2934 624 3204 5 MP stroke
4 w
DO
0.3 sg
 624 2858 mt 4344 2858 L
4344 2858 mt 4344 2858 L
 624 1995 mt 4344 1995 L
4344 1995 mt 4344 1995 L
 624 1132 mt 4344 1132 L
4344 1132 mt 4344 1132 L
SO
6 w
 624 3204 mt 4344 3204 L
 624 3204 mt  624  270 L
 624 3204 mt  624 3278 L
%%IncludeResource: font Helvetica
/Helvetica /ISOLatin1Encoding 96 FMSR

 598 3401 mt 
(0) s
 730 3204 mt  730 3241 L
 836 3204 mt  836 3241 L
 942 3204 mt  942 3241 L
1048 3204 mt 1048 3241 L
1154 3204 mt 1154 3241 L
1154 3204 mt 1154 3241 L
1154 3204 mt 1154 3241 L
1154 3204 mt 1154 3241 L
1154 3204 mt 1154 3241 L
1154 3204 mt 1154 3278 L
1128 3401 mt 
(2) s
1260 3204 mt 1260 3241 L
1366 3204 mt 1366 3241 L
1472 3204 mt 1472 3241 L
1578 3204 mt 1578 3241 L
1684 3204 mt 1684 3241 L
1684 3204 mt 1684 3241 L
1684 3204 mt 1684 3241 L
1684 3204 mt 1684 3241 L
1684 3204 mt 1684 3241 L
1684 3204 mt 1684 3278 L
1658 3401 mt 
(4) s
1791 3204 mt 1791 3241 L
1897 3204 mt 1897 3241 L
2003 3204 mt 2003 3241 L
2109 3204 mt 2109 3241 L
2215 3204 mt 2215 3241 L
2215 3204 mt 2215 3241 L
2215 3204 mt 2215 3241 L
2215 3204 mt 2215 3241 L
2215 3204 mt 2215 3241 L
2215 3204 mt 2215 3278 L
2189 3401 mt 
(6) s
2321 3204 mt 2321 3241 L
2427 3204 mt 2427 3241 L
2533 3204 mt 2533 3241 L
2639 3204 mt 2639 3241 L
2745 3204 mt 2745 3241 L
2745 3204 mt 2745 3241 L
2745 3204 mt 2745 3241 L
2745 3204 mt 2745 3241 L
2745 3204 mt 2745 3241 L
2745 3204 mt 2745 3278 L
2719 3401 mt 
(8) s
2851 3204 mt 2851 3241 L
2958 3204 mt 2958 3241 L
3064 3204 mt 3064 3241 L
3170 3204 mt 3170 3241 L
3276 3204 mt 3276 3241 L
3276 3204 mt 3276 3241 L
3276 3204 mt 3276 3241 L
3276 3204 mt 3276 3241 L
3276 3204 mt 3276 3241 L
3276 3204 mt 3276 3278 L
3223 3401 mt 
(10) s
3382 3204 mt 3382 3241 L
3488 3204 mt 3488 3241 L
3594 3204 mt 3594 3241 L
3700 3204 mt 3700 3241 L
3806 3204 mt 3806 3241 L
3806 3204 mt 3806 3241 L
3806 3204 mt 3806 3241 L
3806 3204 mt 3806 3241 L
3806 3204 mt 3806 3241 L
3806 3204 mt 3806 3278 L
3753 3401 mt 
(12) s
3912 3204 mt 3912 3241 L
4018 3204 mt 4018 3241 L
4125 3204 mt 4125 3241 L
4231 3204 mt 4231 3241 L
4337 3204 mt 4337 3241 L
4337 3204 mt 4337 3241 L
4337 3204 mt 4337 3241 L
4337 3204 mt 4337 3241 L
4337 3204 mt 4337 3241 L
4337 3204 mt 4337 3278 L
4284 3401 mt 
(14) s
 624 2945 mt  586 2945 L
 624 3031 mt  586 3031 L
 624 3117 mt  586 3117 L
 624 3204 mt  586 3204 L
 624 2858 mt  549 2858 L
 406 2893 mt 
(-1) s
 624 2772 mt  586 2772 L
 624 2686 mt  586 2686 L
 624 2599 mt  586 2599 L
 624 2513 mt  586 2513 L
 624 2427 mt  586 2427 L
 624 2341 mt  586 2341 L
 624 2254 mt  586 2254 L
 624 2168 mt  586 2168 L
 624 2082 mt  586 2082 L
 624 1995 mt  549 1995 L
 326 2030 mt 
(-0.5) s
 624 1909 mt  586 1909 L
 624 1823 mt  586 1823 L
 624 1737 mt  586 1737 L
 624 1650 mt  586 1650 L
 624 1564 mt  586 1564 L
 624 1478 mt  586 1478 L
 624 1391 mt  586 1391 L
 624 1305 mt  586 1305 L
 624 1219 mt  586 1219 L
 624 1132 mt  549 1132 L
 462 1167 mt 
(0) s
 624 1046 mt  586 1046 L
 624  960 mt  586  960 L
 624  874 mt  586  874 L
 624  787 mt  586  787 L
 624  701 mt  586  701 L
 624  615 mt  586  615 L
 624  528 mt  586  528 L
 624  442 mt  586  442 L
 624  356 mt  586  356 L
gs 624 270 3721 2935 rc
/c8 { 0.000000 0.500000 0.000000 sr} bdef
c8
6 27 6 -16 5 1 6 -15 6 3 6 31 7 -17 6 -13 
7 6 6 -4 7 16 8 -19 7 10 7 -22 8 25 8 6 
8 -37 9 22 9 -8 9 -4 9 -6 10 -12 10 24 11 -46 
11 49 11 0 12 15 13 8 13 -12 14 -35 14 8 16 27 
16 -17 18 -21 18 9 20 2 22 -11 24 -5 26 18 29 11 
32 -25 37 -9 44 -49 51 64 64 -55 84 41 124 -15 241 -113 
836 -82 1189 531 1175 1074 51 MP stroke
gr

c8
1145 1074 mt 1205 1074 L
1175 1044 mt 1175 1104 L
2334 1605 mt 2394 1605 L
2364 1575 mt 2364 1635 L
3170 1523 mt 3230 1523 L
3200 1493 mt 3200 1553 L
3411 1410 mt 3471 1410 L
3441 1380 mt 3441 1440 L
3535 1395 mt 3595 1395 L
3565 1365 mt 3565 1425 L
3619 1436 mt 3679 1436 L
3649 1406 mt 3649 1466 L
3683 1381 mt 3743 1381 L
3713 1351 mt 3713 1411 L
3734 1445 mt 3794 1445 L
3764 1415 mt 3764 1475 L
3778 1396 mt 3838 1396 L
3808 1366 mt 3808 1426 L
3815 1387 mt 3875 1387 L
3845 1357 mt 3845 1417 L
3847 1362 mt 3907 1362 L
3877 1332 mt 3877 1392 L
3876 1373 mt 3936 1373 L
3906 1343 mt 3906 1403 L
3902 1391 mt 3962 1391 L
3932 1361 mt 3932 1421 L
3926 1386 mt 3986 1386 L
3956 1356 mt 3956 1416 L
3948 1375 mt 4008 1375 L
3978 1345 mt 3978 1405 L
3968 1377 mt 4028 1377 L
3998 1347 mt 3998 1407 L
3986 1386 mt 4046 1386 L
4016 1356 mt 4016 1416 L
4004 1365 mt 4064 1365 L
4034 1335 mt 4034 1395 L
4020 1348 mt 4080 1348 L
4050 1318 mt 4050 1378 L
4036 1375 mt 4096 1375 L
4066 1345 mt 4066 1405 L
4050 1383 mt 4110 1383 L
4080 1353 mt 4080 1413 L
4064 1348 mt 4124 1348 L
4094 1318 mt 4094 1378 L
4077 1336 mt 4137 1336 L
4107 1306 mt 4107 1366 L
4090 1344 mt 4150 1344 L
4120 1314 mt 4120 1374 L
4102 1359 mt 4162 1359 L
4132 1329 mt 4132 1389 L
4113 1359 mt 4173 1359 L
4143 1329 mt 4143 1389 L
4124 1408 mt 4184 1408 L
4154 1378 mt 4154 1438 L
4135 1362 mt 4195 1362 L
4165 1332 mt 4165 1392 L
4145 1386 mt 4205 1386 L
4175 1356 mt 4175 1416 L
4155 1374 mt 4215 1374 L
4185 1344 mt 4185 1404 L
4164 1368 mt 4224 1368 L
4194 1338 mt 4194 1398 L
4173 1364 mt 4233 1364 L
4203 1334 mt 4203 1394 L
4182 1356 mt 4242 1356 L
4212 1326 mt 4212 1386 L
4191 1378 mt 4251 1378 L
4221 1348 mt 4221 1408 L
4199 1341 mt 4259 1341 L
4229 1311 mt 4229 1371 L
4207 1347 mt 4267 1347 L
4237 1317 mt 4237 1377 L
4215 1372 mt 4275 1372 L
4245 1342 mt 4245 1402 L
4222 1350 mt 4282 1350 L
4252 1320 mt 4252 1380 L
4229 1360 mt 4289 1360 L
4259 1330 mt 4259 1390 L
4237 1341 mt 4297 1341 L
4267 1311 mt 4267 1371 L
4244 1357 mt 4304 1357 L
4274 1327 mt 4274 1387 L
4250 1353 mt 4310 1353 L
4280 1323 mt 4280 1383 L
4257 1359 mt 4317 1359 L
4287 1329 mt 4287 1389 L
4263 1346 mt 4323 1346 L
4293 1316 mt 4293 1376 L
4270 1329 mt 4330 1329 L
4300 1299 mt 4300 1359 L
4276 1360 mt 4336 1360 L
4306 1330 mt 4306 1390 L
4282 1363 mt 4342 1363 L
4312 1333 mt 4312 1393 L
4288 1348 mt 4348 1348 L
4318 1318 mt 4318 1378 L
4293 1349 mt 4353 1349 L
4323 1319 mt 4323 1379 L
4299 1333 mt 4359 1333 L
4329 1303 mt 4329 1363 L
4305 1360 mt 4365 1360 L
4335 1330 mt 4335 1390 L
gs 624 270 3721 2935 rc
/c9 { 0.000000 0.000000 0.500000 sr} bdef
c9
1 3 4 -18 5 6 4 16 5 -32 5 23 5 -19 5 -12 
5 32 5 -49 5 34 6 -6 5 9 6 -18 6 1 5 7 
6 -11 7 21 6 -3 6 6 7 -23 7 14 7 -14 7 23 
7 -14 8 13 7 -27 8 24 8 -25 9 -9 9 13 9 6 
9 -22 10 29 10 -22 11 23 10 -8 12 -11 12 8 12 1 
13 -24 14 9 15 3 15 1 16 -6 18 -1 18 -8 20 -18 
22 37 24 11 26 -72 28 24 32 27 37 -47 43 13 50 5 
63 5 82 -9 120 -20 224 -20 753 -249 1197 1097 1234 657 63 MP stroke
gr

c9
  30   30 1234  657 FO
  30   30 2431 1754 FO
  30   30 3184 1505 FO
  30   30 3408 1485 FO
  30   30 3528 1465 FO
  30   30 3610 1456 FO
  30   30 3673 1461 FO
  30   30 3723 1466 FO
  30   30 3766 1479 FO
  30   30 3803 1432 FO
  30   30 3835 1459 FO
  30   30 3863 1483 FO
  30   30 3889 1411 FO
  30   30 3913 1422 FO
  30   30 3935 1459 FO
  30   30 3955 1441 FO
  30   30 3973 1433 FO
  30   30 3991 1432 FO
  30   30 4007 1426 FO
  30   30 4022 1427 FO
  30   30 4037 1430 FO
  30   30 4051 1439 FO
  30   30 4064 1415 FO
  30   30 4076 1416 FO
  30   30 4088 1424 FO
  30   30 4100 1413 FO
  30   30 4110 1405 FO
  30   30 4121 1428 FO
  30   30 4131 1406 FO
  30   30 4141 1435 FO
  30   30 4150 1413 FO
  30   30 4159 1419 FO
  30   30 4168 1432 FO
  30   30 4177 1423 FO
  30   30 4185 1398 FO
  30   30 4193 1422 FO
  30   30 4200 1395 FO
  30   30 4208 1408 FO
  30   30 4215 1394 FO
  30   30 4222 1417 FO
  30   30 4229 1403 FO
  30   30 4236 1417 FO
  30   30 4243 1394 FO
  30   30 4249 1400 FO
  30   30 4255 1397 FO
  30   30 4262 1418 FO
  30   30 4268 1407 FO
  30   30 4273 1414 FO
  30   30 4279 1415 FO
  30   30 4285 1397 FO
  30   30 4290 1406 FO
  30   30 4296 1400 FO
  30   30 4301 1434 FO
  30   30 4306 1385 FO
  30   30 4311 1417 FO
  30   30 4316 1405 FO
  30   30 4321 1386 FO
  30   30 4326 1409 FO
  30   30 4331 1377 FO
  30   30 4335 1393 FO
  30   30 4340 1399 FO
  30   30 4344 1381 FO
gs 624 270 3721 2935 rc
/c10 { 0.500000 0.000000 0.000000 sr} bdef
c10
2 6 6 -10 6 30 7 10 6 -16 7 -34 6 -19 7 13 
7 -13 8 18 7 12 8 -22 8 0 8 33 9 -18 9 -19 
9 -1 9 17 10 -30 10 30 10 -30 11 13 12 27 12 -22 
12 -1 13 4 14 20 15 4 15 -4 16 -3 18 -14 18 -30 
20 10 22 4 24 -13 26 10 28 -31 33 8 36 32 43 -56 
51 12 63 -9 82 -23 121 9 227 -47 770 -218 1201 1389 1283 444 48 MP stroke
gr

c10
1262  423 mt 1304  465 L
1304  423 mt 1262  465 L
2463 1812 mt 2505 1854 L
2505 1812 mt 2463 1854 L
3233 1594 mt 3275 1636 L
3275 1594 mt 3233 1636 L
3460 1547 mt 3502 1589 L
3502 1547 mt 3460 1589 L
3581 1556 mt 3623 1598 L
3623 1556 mt 3581 1598 L
3663 1533 mt 3705 1575 L
3705 1533 mt 3663 1575 L
3726 1524 mt 3768 1566 L
3768 1524 mt 3726 1566 L
3777 1536 mt 3819 1578 L
3819 1536 mt 3777 1578 L
3820 1480 mt 3862 1522 L
3862 1480 mt 3820 1522 L
3856 1512 mt 3898 1554 L
3898 1512 mt 3856 1554 L
3889 1520 mt 3931 1562 L
3931 1520 mt 3889 1562 L
3917 1489 mt 3959 1531 L
3959 1489 mt 3917 1531 L
3943 1499 mt 3985 1541 L
3985 1499 mt 3943 1541 L
3967 1486 mt 4009 1528 L
4009 1486 mt 3967 1528 L
3989 1490 mt 4031 1532 L
4031 1490 mt 3989 1532 L
4009 1500 mt 4051 1542 L
4051 1500 mt 4009 1542 L
4027 1470 mt 4069 1512 L
4069 1470 mt 4027 1512 L
4045 1456 mt 4087 1498 L
4087 1456 mt 4045 1498 L
4061 1453 mt 4103 1495 L
4103 1453 mt 4061 1495 L
4076 1449 mt 4118 1491 L
4118 1449 mt 4076 1491 L
4091 1453 mt 4133 1495 L
4133 1453 mt 4091 1495 L
4105 1473 mt 4147 1515 L
4147 1473 mt 4105 1515 L
4118 1477 mt 4160 1519 L
4160 1477 mt 4118 1519 L
4130 1476 mt 4172 1518 L
4172 1476 mt 4130 1518 L
4142 1454 mt 4184 1496 L
4184 1454 mt 4142 1496 L
4154 1481 mt 4196 1523 L
4196 1481 mt 4154 1523 L
4165 1494 mt 4207 1536 L
4207 1494 mt 4165 1536 L
4175 1464 mt 4217 1506 L
4217 1464 mt 4175 1506 L
4185 1494 mt 4227 1536 L
4227 1494 mt 4185 1536 L
4195 1464 mt 4237 1506 L
4237 1464 mt 4195 1506 L
4204 1481 mt 4246 1523 L
4246 1481 mt 4204 1523 L
4213 1480 mt 4255 1522 L
4255 1480 mt 4213 1522 L
4222 1461 mt 4264 1503 L
4264 1461 mt 4222 1503 L
4231 1443 mt 4273 1485 L
4273 1443 mt 4231 1485 L
4239 1476 mt 4281 1518 L
4281 1476 mt 4239 1518 L
4247 1476 mt 4289 1518 L
4289 1476 mt 4247 1518 L
4255 1454 mt 4297 1496 L
4297 1454 mt 4255 1496 L
4262 1466 mt 4304 1508 L
4304 1466 mt 4262 1508 L
4270 1484 mt 4312 1526 L
4312 1484 mt 4270 1526 L
4277 1471 mt 4319 1513 L
4319 1471 mt 4277 1513 L
4284 1484 mt 4326 1526 L
4326 1484 mt 4284 1526 L
4290 1465 mt 4332 1507 L
4332 1465 mt 4290 1507 L
4297 1431 mt 4339 1473 L
4339 1431 mt 4297 1473 L
4303 1415 mt 4345 1457 L
4345 1415 mt 4303 1457 L
4310 1425 mt 4352 1467 L
4352 1425 mt 4310 1467 L
4316 1455 mt 4358 1497 L
4358 1455 mt 4316 1497 L
4322 1445 mt 4364 1487 L
4364 1445 mt 4322 1487 L
gs 624 270 3721 2935 rc
/c11 { 0.000000 0.500000 0.500000 sr} bdef
c11
2 12 6 -36 5 -31 6 51 6 -13 6 36 6 -32 6 11 
7 0 6 7 7 -9 7 8 7 -24 8 -10 7 9 8 -53 
8 86 8 1 8 -50 9 -31 9 52 10 -8 9 5 10 23 
11 -9 11 -13 11 -23 12 31 13 -4 13 -48 13 19 15 -19 
15 17 17 17 17 19 18 -54 20 24 22 4 24 4 25 -22 
29 -62 32 -27 36 -7 43 66 50 3 62 -11 81 -4 118 -51 
217 -106 701 -118 1206 1644 1342 292 52 MP stroke
gr

c11
0 j
0 -48 -48 0 0 48 48 0 1318 268 5 MP
DP
0 -48 -48 0 0 48 48 0 2524 1912 5 MP
DP
0 -48 -48 0 0 48 48 0 3225 1794 5 MP
DP
0 -48 -48 0 0 48 48 0 3442 1688 5 MP
DP
0 -48 -48 0 0 48 48 0 3560 1637 5 MP
DP
0 -48 -48 0 0 48 48 0 3641 1633 5 MP
DP
0 -48 -48 0 0 48 48 0 3703 1622 5 MP
DP
0 -48 -48 0 0 48 48 0 3753 1625 5 MP
DP
0 -48 -48 0 0 48 48 0 3796 1691 5 MP
DP
0 -48 -48 0 0 48 48 0 3832 1684 5 MP
DP
0 -48 -48 0 0 48 48 0 3864 1657 5 MP
DP
0 -48 -48 0 0 48 48 0 3893 1595 5 MP
DP
0 -48 -48 0 0 48 48 0 3918 1573 5 MP
DP
0 -48 -48 0 0 48 48 0 3942 1577 5 MP
DP
0 -48 -48 0 0 48 48 0 3964 1581 5 MP
DP
0 -48 -48 0 0 48 48 0 3984 1605 5 MP
DP
0 -48 -48 0 0 48 48 0 4002 1551 5 MP
DP
0 -48 -48 0 0 48 48 0 4019 1570 5 MP
DP
0 -48 -48 0 0 48 48 0 4036 1587 5 MP
DP
0 -48 -48 0 0 48 48 0 4051 1604 5 MP
DP
0 -48 -48 0 0 48 48 0 4066 1585 5 MP
DP
0 -48 -48 0 0 48 48 0 4079 1604 5 MP
DP
0 -48 -48 0 0 48 48 0 4092 1556 5 MP
DP
0 -48 -48 0 0 48 48 0 4105 1552 5 MP
DP
0 -48 -48 0 0 48 48 0 4117 1583 5 MP
DP
0 -48 -48 0 0 48 48 0 4128 1560 5 MP
DP
0 -48 -48 0 0 48 48 0 4139 1547 5 MP
DP
0 -48 -48 0 0 48 48 0 4150 1538 5 MP
DP
0 -48 -48 0 0 48 48 0 4160 1561 5 MP
DP
0 -48 -48 0 0 48 48 0 4169 1566 5 MP
DP
0 -48 -48 0 0 48 48 0 4179 1558 5 MP
DP
0 -48 -48 0 0 48 48 0 4188 1610 5 MP
DP
0 -48 -48 0 0 48 48 0 4197 1579 5 MP
DP
0 -48 -48 0 0 48 48 0 4205 1529 5 MP
DP
0 -48 -48 0 0 48 48 0 4213 1530 5 MP
DP
0 -48 -48 0 0 48 48 0 4221 1616 5 MP
DP
0 -48 -48 0 0 48 48 0 4229 1563 5 MP
DP
0 -48 -48 0 0 48 48 0 4236 1572 5 MP
DP
0 -48 -48 0 0 48 48 0 4244 1562 5 MP
DP
0 -48 -48 0 0 48 48 0 4251 1538 5 MP
DP
0 -48 -48 0 0 48 48 0 4258 1546 5 MP
DP
0 -48 -48 0 0 48 48 0 4265 1537 5 MP
DP
0 -48 -48 0 0 48 48 0 4271 1544 5 MP
DP
0 -48 -48 0 0 48 48 0 4278 1544 5 MP
DP
0 -48 -48 0 0 48 48 0 4284 1555 5 MP
DP
0 -48 -48 0 0 48 48 0 4290 1523 5 MP
DP
0 -48 -48 0 0 48 48 0 4296 1559 5 MP
DP
0 -48 -48 0 0 48 48 0 4302 1546 5 MP
DP
0 -48 -48 0 0 48 48 0 4308 1597 5 MP
DP
0 -48 -48 0 0 48 48 0 4313 1566 5 MP
DP
0 -48 -48 0 0 48 48 0 4319 1530 5 MP
DP
gs 624 270 3721 2935 rc
gr

0 sg
%%IncludeResource: font AvantGarde-Demi
/AvantGarde-Demi /ISOLatin1Encoding 144 FMSR

2139  180 mt 
(UHCMAES) s
0.3 sg
%%IncludeResource: font AvantGarde-Book
/AvantGarde-Book /ISOLatin1Encoding 120 FMSR

2153 3546 mt 
(log\(nbEval\)) s
 245 2020 mt  -90 rotate
(slope \(SR\)) s
90 rotate
0 sg
%%IncludeResource: font Helvetica
/Helvetica /ISOLatin1Encoding 120 FMSR

 607 3247 mt 
( ) s
4328  312 mt 
( ) s
1 sg
0 514 811 0 0 -514 3474 844 4 MP
PP
-811 0 0 514 811 0 0 -514 3474 844 5 MP stroke
4 w
DO
SO
6 w
0 sg
3474  844 mt 4285  844 L
3474  330 mt 4285  330 L
3474  844 mt 3474  330 L
4285  844 mt 4285  330 L
3474  844 mt 4285  844 L
3474  844 mt 3474  330 L
3474  844 mt 4285  844 L
3474  330 mt 4285  330 L
3474  844 mt 3474  330 L
4285  844 mt 4285  330 L
%%IncludeResource: font Helvetica
/Helvetica /ISOLatin1Encoding 96 FMSR

3911  441 mt 
(Dim 2) s
gs 3474 330 812 515 rc
c8
336 0 3541 406 2 MP stroke
gs 3648 345 123 123 rc
3679  406 mt 3739  406 L
3709  376 mt 3709  436 L
gr

gr

c8
0 sg
3911  561 mt 
(Dim 4) s
gs 3474 330 812 515 rc
c9
336 0 3541 526 2 MP stroke
gs 3648 465 123 123 rc
  30   30 3709  526 FO
gr

gr

c9
0 sg
3911  682 mt 
(Dim 8) s
gs 3474 330 812 515 rc
c10
336 0 3541 647 2 MP stroke
gs 3648 586 123 123 rc
3688  626 mt 3730  668 L
3730  626 mt 3688  668 L
gr

gr

c10
0 sg
3911  802 mt 
(Dim 16) s
gs 3474 330 812 515 rc
c11
336 0 3541 767 2 MP stroke
gs 3648 706 123 123 rc
0 -48 -48 0 0 48 48 0 3685 743 5 MP
DP
gr

gr

c11

end %%Color Dict

eplot
%%EndObject

epage
end

showpage

%%Trailer
%%EOF
