%!PS-Adobe-3.0 EPSF-3.0
%%Creator: MATLAB, The MathWorks, Inc. Version 7.14.0.739 (R2012a). Operating System: Linux 3.13.0-35-generic #62-Ubuntu SMP Fri Aug 15 01:58:42 UTC 2014 x86_64.
%%Title: ./uhcma_esareslow_nbeval.eps
%%CreationDate: 08/29/2014  14:06:31
%%DocumentNeededFonts: Helvetica
%%+ AvantGarde-Book
%%+ AvantGarde-Demi
%%DocumentProcessColors: Cyan Magenta Yellow Black
%%LanguageLevel: 2
%%Pages: 1
%%BoundingBox:   113   246   477   549
%%EndComments

%%BeginProlog
% MathWorks dictionary
/MathWorks 160 dict begin
% definition operators
/bdef {bind def} bind def
/ldef {load def} bind def
/xdef {exch def} bdef
/xstore {exch store} bdef
% operator abbreviations
/c  /clip ldef
/cc /concat ldef
/cp /closepath ldef
/gr /grestore ldef
/gs /gsave ldef
/mt /moveto ldef
/np /newpath ldef
/cm /currentmatrix ldef
/sm /setmatrix ldef
/rm /rmoveto ldef
/rl /rlineto ldef
/s {show newpath} bdef
/sc {setcmykcolor} bdef
/sr /setrgbcolor ldef
/sg /setgray ldef
/w /setlinewidth ldef
/j /setlinejoin ldef
/cap /setlinecap ldef
/rc {rectclip} bdef
/rf {rectfill} bdef
% page state control
/pgsv () def
/bpage {/pgsv save def} bdef
/epage {pgsv restore} bdef
/bplot /gsave ldef
/eplot {stroke grestore} bdef
% orientation switch
/portraitMode 0 def /landscapeMode 1 def /rotateMode 2 def
% coordinate system mappings
/dpi2point 0 def
% font control
/FontSize 0 def
/FMS {/FontSize xstore findfont [FontSize 0 0 FontSize neg 0 0]
  makefont setfont} bdef
/reencode {exch dup where {pop load} {pop StandardEncoding} ifelse
  exch dup 3 1 roll findfont dup length dict begin
  { 1 index /FID ne {def}{pop pop} ifelse } forall
  /Encoding exch def currentdict end definefont pop} bdef
/isroman {findfont /CharStrings get /Agrave known} bdef
/FMSR {3 1 roll 1 index dup isroman {reencode} {pop pop} ifelse
  exch FMS} bdef
/csm {1 dpi2point div -1 dpi2point div scale neg translate
 dup landscapeMode eq {pop -90 rotate}
  {rotateMode eq {90 rotate} if} ifelse} bdef
% line types: solid, dotted, dashed, dotdash
/SO { [] 0 setdash } bdef
/DO { [.5 dpi2point mul 4 dpi2point mul] 0 setdash } bdef
/DA { [6 dpi2point mul] 0 setdash } bdef
/DD { [.5 dpi2point mul 4 dpi2point mul 6 dpi2point mul 4
  dpi2point mul] 0 setdash } bdef
% macros for lines and objects
/L {lineto stroke} bdef
/MP {3 1 roll moveto 1 sub {rlineto} repeat} bdef
/AP {{rlineto} repeat} bdef
/PDlw -1 def
/W {/PDlw currentlinewidth def setlinewidth} def
/PP {closepath eofill} bdef
/DP {closepath stroke} bdef
/MR {4 -2 roll moveto dup  0 exch rlineto exch 0 rlineto
  neg 0 exch rlineto closepath} bdef
/FR {MR stroke} bdef
/PR {MR fill} bdef
/L1i {{currentfile picstr readhexstring pop} image} bdef
/tMatrix matrix def
/MakeOval {newpath tMatrix currentmatrix pop translate scale
0 0 1 0 360 arc tMatrix setmatrix} bdef
/FO {MakeOval stroke} bdef
/PO {MakeOval fill} bdef
/PD {currentlinewidth 2 div 0 360 arc fill
   PDlw -1 eq not {PDlw w /PDlw -1 def} if} def
/FA {newpath tMatrix currentmatrix pop translate scale
  0 0 1 5 -2 roll arc tMatrix setmatrix stroke} bdef
/PA {newpath tMatrix currentmatrix pop	translate 0 0 moveto scale
  0 0 1 5 -2 roll arc closepath tMatrix setmatrix fill} bdef
/FAn {newpath tMatrix currentmatrix pop translate scale
  0 0 1 5 -2 roll arcn tMatrix setmatrix stroke} bdef
/PAn {newpath tMatrix currentmatrix pop translate 0 0 moveto scale
  0 0 1 5 -2 roll arcn closepath tMatrix setmatrix fill} bdef
/vradius 0 def /hradius 0 def /lry 0 def
/lrx 0 def /uly 0 def /ulx 0 def /rad 0 def
/MRR {/vradius xdef /hradius xdef /lry xdef /lrx xdef /uly xdef
  /ulx xdef newpath tMatrix currentmatrix pop ulx hradius add uly
  vradius add translate hradius vradius scale 0 0 1 180 270 arc 
  tMatrix setmatrix lrx hradius sub uly vradius add translate
  hradius vradius scale 0 0 1 270 360 arc tMatrix setmatrix
  lrx hradius sub lry vradius sub translate hradius vradius scale
  0 0 1 0 90 arc tMatrix setmatrix ulx hradius add lry vradius sub
  translate hradius vradius scale 0 0 1 90 180 arc tMatrix setmatrix
  closepath} bdef
/FRR {MRR stroke } bdef
/PRR {MRR fill } bdef
/MlrRR {/lry xdef /lrx xdef /uly xdef /ulx xdef /rad lry uly sub 2 div def
  newpath tMatrix currentmatrix pop ulx rad add uly rad add translate
  rad rad scale 0 0 1 90 270 arc tMatrix setmatrix lrx rad sub lry rad
  sub translate rad rad scale 0 0 1 270 90 arc tMatrix setmatrix
  closepath} bdef
/FlrRR {MlrRR stroke } bdef
/PlrRR {MlrRR fill } bdef
/MtbRR {/lry xdef /lrx xdef /uly xdef /ulx xdef /rad lrx ulx sub 2 div def
  newpath tMatrix currentmatrix pop ulx rad add uly rad add translate
  rad rad scale 0 0 1 180 360 arc tMatrix setmatrix lrx rad sub lry rad
  sub translate rad rad scale 0 0 1 0 180 arc tMatrix setmatrix
  closepath} bdef
/FtbRR {MtbRR stroke } bdef
/PtbRR {MtbRR fill } bdef
/stri 6 array def /dtri 6 array def
/smat 6 array def /dmat 6 array def
/tmat1 6 array def /tmat2 6 array def /dif 3 array def
/asub {/ind2 exch def /ind1 exch def dup dup
  ind1 get exch ind2 get sub exch } bdef
/tri_to_matrix {
  2 0 asub 3 1 asub 4 0 asub 5 1 asub
  dup 0 get exch 1 get 7 -1 roll astore } bdef
/compute_transform {
  dmat dtri tri_to_matrix tmat1 invertmatrix 
  smat stri tri_to_matrix tmat2 concatmatrix } bdef
/ds {stri astore pop} bdef
/dt {dtri astore pop} bdef
/db {2 copy /cols xdef /rows xdef mul dup 3 mul string
  currentfile 
  3 index 0 eq {/ASCIIHexDecode filter}
  {/ASCII85Decode filter 3 index 2 eq {/RunLengthDecode filter} if }
  ifelse exch readstring pop
  dup 0 3 index getinterval /rbmap xdef
  dup 2 index dup getinterval /gbmap xdef
  1 index dup 2 mul exch getinterval /bbmap xdef pop pop}bdef
/it {gs np dtri aload pop moveto lineto lineto cp c
  cols rows 8 compute_transform 
  rbmap gbmap bbmap true 3 colorimage gr}bdef
/il {newpath moveto lineto stroke}bdef
currentdict end def
%%EndProlog

%%BeginSetup
MathWorks begin

0 cap

end
%%EndSetup

%%Page: 1 1
%%BeginPageSetup
%%PageBoundingBox:   113   246   477   549
MathWorks begin
bpage
%%EndPageSetup

%%BeginObject: obj1
bplot

/dpi2point 12 def
portraitMode 1260 6552 csm

  106   -40  4361  3637 rc
89 dict begin %Colortable dictionary
/c0 { 0.000000 0.000000 0.000000 sr} bdef
/c1 { 1.000000 1.000000 1.000000 sr} bdef
/c2 { 0.900000 0.000000 0.000000 sr} bdef
/c3 { 0.000000 0.820000 0.000000 sr} bdef
/c4 { 0.000000 0.000000 0.800000 sr} bdef
/c5 { 0.910000 0.820000 0.320000 sr} bdef
/c6 { 1.000000 0.260000 0.820000 sr} bdef
/c7 { 0.000000 0.820000 0.820000 sr} bdef
c0
1 j
1 sg
   0    0 4801 3601 rf
6 w
0 2934 3720 0 0 -2934 624 3204 4 MP
PP
-3720 0 0 2934 3720 0 0 -2934 624 3204 5 MP stroke
4 w
DO
0.3 sg
 624 2858 mt 4344 2858 L
4344 2858 mt 4344 2858 L
 624 1995 mt 4344 1995 L
4344 1995 mt 4344 1995 L
 624 1132 mt 4344 1132 L
4344 1132 mt 4344 1132 L
SO
6 w
 624 3204 mt 4344 3204 L
 624 3204 mt  624  270 L
 624 3204 mt  624 3278 L
%%IncludeResource: font Helvetica
/Helvetica /ISOLatin1Encoding 96 FMSR

 598 3401 mt 
(0) s
 744 3204 mt  744 3241 L
 865 3204 mt  865 3241 L
 985 3204 mt  985 3241 L
1106 3204 mt 1106 3241 L
1227 3204 mt 1227 3241 L
1227 3204 mt 1227 3241 L
1227 3204 mt 1227 3241 L
1227 3204 mt 1227 3241 L
1227 3204 mt 1227 3241 L
1227 3204 mt 1227 3278 L
1201 3401 mt 
(2) s
1347 3204 mt 1347 3241 L
1468 3204 mt 1468 3241 L
1589 3204 mt 1589 3241 L
1709 3204 mt 1709 3241 L
1830 3204 mt 1830 3241 L
1830 3204 mt 1830 3241 L
1830 3204 mt 1830 3241 L
1830 3204 mt 1830 3241 L
1830 3204 mt 1830 3241 L
1830 3204 mt 1830 3278 L
1804 3401 mt 
(4) s
1950 3204 mt 1950 3241 L
2071 3204 mt 2071 3241 L
2192 3204 mt 2192 3241 L
2312 3204 mt 2312 3241 L
2433 3204 mt 2433 3241 L
2433 3204 mt 2433 3241 L
2433 3204 mt 2433 3241 L
2433 3204 mt 2433 3241 L
2433 3204 mt 2433 3241 L
2433 3204 mt 2433 3278 L
2407 3401 mt 
(6) s
2554 3204 mt 2554 3241 L
2674 3204 mt 2674 3241 L
2795 3204 mt 2795 3241 L
2915 3204 mt 2915 3241 L
3036 3204 mt 3036 3241 L
3036 3204 mt 3036 3241 L
3036 3204 mt 3036 3241 L
3036 3204 mt 3036 3241 L
3036 3204 mt 3036 3241 L
3036 3204 mt 3036 3278 L
3010 3401 mt 
(8) s
3157 3204 mt 3157 3241 L
3277 3204 mt 3277 3241 L
3398 3204 mt 3398 3241 L
3519 3204 mt 3519 3241 L
3639 3204 mt 3639 3241 L
3639 3204 mt 3639 3241 L
3639 3204 mt 3639 3241 L
3639 3204 mt 3639 3241 L
3639 3204 mt 3639 3241 L
3639 3204 mt 3639 3278 L
3586 3401 mt 
(10) s
3760 3204 mt 3760 3241 L
3880 3204 mt 3880 3241 L
4001 3204 mt 4001 3241 L
4122 3204 mt 4122 3241 L
4242 3204 mt 4242 3241 L
4242 3204 mt 4242 3241 L
4242 3204 mt 4242 3241 L
4242 3204 mt 4242 3241 L
4242 3204 mt 4242 3241 L
4242 3204 mt 4242 3278 L
4189 3401 mt 
(12) s
4123 3589 mt 
(x 10) s
%%IncludeResource: font Helvetica
/Helvetica /ISOLatin1Encoding 72 FMSR

4304 3522 mt 
(5) s
 624 2945 mt  586 2945 L
 624 3031 mt  586 3031 L
 624 3117 mt  586 3117 L
 624 3204 mt  586 3204 L
 624 2858 mt  549 2858 L
%%IncludeResource: font Helvetica
/Helvetica /ISOLatin1Encoding 96 FMSR

 406 2893 mt 
(-1) s
 624 2772 mt  586 2772 L
 624 2686 mt  586 2686 L
 624 2599 mt  586 2599 L
 624 2513 mt  586 2513 L
 624 2427 mt  586 2427 L
 624 2341 mt  586 2341 L
 624 2254 mt  586 2254 L
 624 2168 mt  586 2168 L
 624 2082 mt  586 2082 L
 624 1995 mt  549 1995 L
 326 2030 mt 
(-0.5) s
 624 1909 mt  586 1909 L
 624 1823 mt  586 1823 L
 624 1737 mt  586 1737 L
 624 1650 mt  586 1650 L
 624 1564 mt  586 1564 L
 624 1478 mt  586 1478 L
 624 1391 mt  586 1391 L
 624 1305 mt  586 1305 L
 624 1219 mt  586 1219 L
 624 1132 mt  549 1132 L
 462 1167 mt 
(0) s
 624 1046 mt  586 1046 L
 624  960 mt  586  960 L
 624  874 mt  586  874 L
 624  787 mt  586  787 L
 624  701 mt  586  701 L
 624  615 mt  586  615 L
 624  528 mt  586  528 L
 624  442 mt  586  442 L
 624  356 mt  586  356 L
gs 624 270 3721 2935 rc
/c8 { 0.000000 0.500000 0.000000 sr} bdef
c8
74 27 74 -16 74 1 74 -15 74 3 74 31 73 -17 74 -13 
74 6 74 -4 74 16 74 -19 74 10 74 -22 74 25 73 6 
74 -37 74 22 74 -8 74 -4 74 -6 74 -12 74 24 73 -46 
74 49 74 0 74 15 74 8 74 -12 74 -35 74 8 74 27 
73 -17 74 -21 74 9 74 2 74 -11 74 -5 74 18 74 11 
73 -25 74 -9 74 -49 74 64 74 -55 74 41 74 -15 74 -113 
47 -82 2 531 624 1074 51 MP stroke
gr

c8
 594 1074 mt  654 1074 L
 624 1044 mt  624 1104 L
 596 1605 mt  656 1605 L
 626 1575 mt  626 1635 L
 643 1523 mt  703 1523 L
 673 1493 mt  673 1553 L
 717 1410 mt  777 1410 L
 747 1380 mt  747 1440 L
 791 1395 mt  851 1395 L
 821 1365 mt  821 1425 L
 865 1436 mt  925 1436 L
 895 1406 mt  895 1466 L
 939 1381 mt  999 1381 L
 969 1351 mt  969 1411 L
1013 1445 mt 1073 1445 L
1043 1415 mt 1043 1475 L
1087 1396 mt 1147 1396 L
1117 1366 mt 1117 1426 L
1161 1387 mt 1221 1387 L
1191 1357 mt 1191 1417 L
1234 1362 mt 1294 1362 L
1264 1332 mt 1264 1392 L
1308 1373 mt 1368 1373 L
1338 1343 mt 1338 1403 L
1382 1391 mt 1442 1391 L
1412 1361 mt 1412 1421 L
1456 1386 mt 1516 1386 L
1486 1356 mt 1486 1416 L
1530 1375 mt 1590 1375 L
1560 1345 mt 1560 1405 L
1604 1377 mt 1664 1377 L
1634 1347 mt 1634 1407 L
1678 1386 mt 1738 1386 L
1708 1356 mt 1708 1416 L
1752 1365 mt 1812 1365 L
1782 1335 mt 1782 1395 L
1825 1348 mt 1885 1348 L
1855 1318 mt 1855 1378 L
1899 1375 mt 1959 1375 L
1929 1345 mt 1929 1405 L
1973 1383 mt 2033 1383 L
2003 1353 mt 2003 1413 L
2047 1348 mt 2107 1348 L
2077 1318 mt 2077 1378 L
2121 1336 mt 2181 1336 L
2151 1306 mt 2151 1366 L
2195 1344 mt 2255 1344 L
2225 1314 mt 2225 1374 L
2269 1359 mt 2329 1359 L
2299 1329 mt 2299 1389 L
2343 1359 mt 2403 1359 L
2373 1329 mt 2373 1389 L
2417 1408 mt 2477 1408 L
2447 1378 mt 2447 1438 L
2490 1362 mt 2550 1362 L
2520 1332 mt 2520 1392 L
2564 1386 mt 2624 1386 L
2594 1356 mt 2594 1416 L
2638 1374 mt 2698 1374 L
2668 1344 mt 2668 1404 L
2712 1368 mt 2772 1368 L
2742 1338 mt 2742 1398 L
2786 1364 mt 2846 1364 L
2816 1334 mt 2816 1394 L
2860 1356 mt 2920 1356 L
2890 1326 mt 2890 1386 L
2934 1378 mt 2994 1378 L
2964 1348 mt 2964 1408 L
3008 1341 mt 3068 1341 L
3038 1311 mt 3038 1371 L
3081 1347 mt 3141 1347 L
3111 1317 mt 3111 1377 L
3155 1372 mt 3215 1372 L
3185 1342 mt 3185 1402 L
3229 1350 mt 3289 1350 L
3259 1320 mt 3259 1380 L
3303 1360 mt 3363 1360 L
3333 1330 mt 3333 1390 L
3377 1341 mt 3437 1341 L
3407 1311 mt 3407 1371 L
3451 1357 mt 3511 1357 L
3481 1327 mt 3481 1387 L
3525 1353 mt 3585 1353 L
3555 1323 mt 3555 1383 L
3599 1359 mt 3659 1359 L
3629 1329 mt 3629 1389 L
3673 1346 mt 3733 1346 L
3703 1316 mt 3703 1376 L
3746 1329 mt 3806 1329 L
3776 1299 mt 3776 1359 L
3820 1360 mt 3880 1360 L
3850 1330 mt 3850 1390 L
3894 1363 mt 3954 1363 L
3924 1333 mt 3924 1393 L
3968 1348 mt 4028 1348 L
3998 1318 mt 3998 1378 L
4042 1349 mt 4102 1349 L
4072 1319 mt 4072 1379 L
4116 1333 mt 4176 1333 L
4146 1303 mt 4146 1363 L
4190 1360 mt 4250 1360 L
4220 1330 mt 4220 1390 L
gs 624 270 3721 2935 rc
/c9 { 0.000000 0.000000 0.500000 sr} bdef
c9
54 -15 62 6 63 16 62 -32 63 23 62 -19 63 -12 62 32 
62 -49 63 34 62 -6 63 9 62 -18 63 1 62 7 62 -11 
63 21 62 -3 63 6 62 -23 62 14 63 -14 62 23 63 -14 
62 13 63 -27 62 24 62 -25 63 -9 62 13 63 6 62 -22 
63 29 62 -22 62 23 63 -8 62 -11 63 8 62 1 63 -24 
62 9 62 3 63 1 62 -6 63 -1 62 -8 62 -18 63 37 
62 11 63 -72 62 24 63 27 62 -47 62 13 63 5 62 5 
63 -9 62 -20 63 -20 44 -249 2 1097 624 657 62 MP stroke
gr

c9
  30   30  624  657 FO
  30   30  626 1754 FO
  30   30  670 1505 FO
  30   30  733 1485 FO
  30   30  795 1465 FO
  30   30  858 1456 FO
  30   30  920 1461 FO
  30   30  983 1466 FO
  30   30 1045 1479 FO
  30   30 1107 1432 FO
  30   30 1170 1459 FO
  30   30 1232 1483 FO
  30   30 1295 1411 FO
  30   30 1357 1422 FO
  30   30 1420 1459 FO
  30   30 1482 1441 FO
  30   30 1544 1433 FO
  30   30 1607 1432 FO
  30   30 1669 1426 FO
  30   30 1732 1427 FO
  30   30 1794 1430 FO
  30   30 1856 1439 FO
  30   30 1919 1415 FO
  30   30 1981 1416 FO
  30   30 2044 1424 FO
  30   30 2106 1413 FO
  30   30 2169 1405 FO
  30   30 2231 1428 FO
  30   30 2293 1406 FO
  30   30 2356 1435 FO
  30   30 2418 1413 FO
  30   30 2481 1419 FO
  30   30 2543 1432 FO
  30   30 2606 1423 FO
  30   30 2668 1398 FO
  30   30 2730 1422 FO
  30   30 2793 1395 FO
  30   30 2855 1408 FO
  30   30 2918 1394 FO
  30   30 2980 1417 FO
  30   30 3043 1403 FO
  30   30 3105 1417 FO
  30   30 3167 1394 FO
  30   30 3230 1400 FO
  30   30 3292 1397 FO
  30   30 3355 1418 FO
  30   30 3417 1407 FO
  30   30 3479 1414 FO
  30   30 3542 1415 FO
  30   30 3604 1397 FO
  30   30 3667 1406 FO
  30   30 3729 1400 FO
  30   30 3792 1434 FO
  30   30 3854 1385 FO
  30   30 3916 1417 FO
  30   30 3979 1405 FO
  30   30 4041 1386 FO
  30   30 4104 1409 FO
  30   30 4166 1377 FO
  30   30 4229 1393 FO
  30   30 4291 1399 FO
gs 624 270 3721 2935 rc
/c10 { 0.500000 0.000000 0.000000 sr} bdef
c10
11 3 83 -10 83 30 83 10 83 -16 83 -34 83 -19 83 13 
83 -13 83 18 83 12 83 -22 83 0 82 33 83 -18 83 -19 
83 -1 83 17 83 -30 83 30 83 -30 83 13 83 27 83 -22 
83 -1 83 4 83 20 82 4 83 -4 83 -3 83 -14 83 -30 
83 10 83 4 83 -13 83 10 83 -31 83 8 83 32 83 -56 
83 12 83 -9 82 -23 83 9 83 -47 58 -218 3 1389 624 444 48 MP stroke
gr

c10
 603  423 mt  645  465 L
 645  423 mt  603  465 L
 606 1812 mt  648 1854 L
 648 1812 mt  606 1854 L
 664 1594 mt  706 1636 L
 706 1594 mt  664 1636 L
 747 1547 mt  789 1589 L
 789 1547 mt  747 1589 L
 830 1556 mt  872 1598 L
 872 1556 mt  830 1598 L
 912 1533 mt  954 1575 L
 954 1533 mt  912 1575 L
 995 1524 mt 1037 1566 L
1037 1524 mt  995 1566 L
1078 1536 mt 1120 1578 L
1120 1536 mt 1078 1578 L
1161 1480 mt 1203 1522 L
1203 1480 mt 1161 1522 L
1244 1512 mt 1286 1554 L
1286 1512 mt 1244 1554 L
1327 1520 mt 1369 1562 L
1369 1520 mt 1327 1562 L
1410 1489 mt 1452 1531 L
1452 1489 mt 1410 1531 L
1493 1499 mt 1535 1541 L
1535 1499 mt 1493 1541 L
1576 1486 mt 1618 1528 L
1618 1486 mt 1576 1528 L
1659 1490 mt 1701 1532 L
1701 1490 mt 1659 1532 L
1742 1500 mt 1784 1542 L
1784 1500 mt 1742 1542 L
1825 1470 mt 1867 1512 L
1867 1470 mt 1825 1512 L
1908 1456 mt 1950 1498 L
1950 1456 mt 1908 1498 L
1991 1453 mt 2033 1495 L
2033 1453 mt 1991 1495 L
2074 1449 mt 2116 1491 L
2116 1449 mt 2074 1491 L
2156 1453 mt 2198 1495 L
2198 1453 mt 2156 1495 L
2239 1473 mt 2281 1515 L
2281 1473 mt 2239 1515 L
2322 1477 mt 2364 1519 L
2364 1477 mt 2322 1519 L
2405 1476 mt 2447 1518 L
2447 1476 mt 2405 1518 L
2488 1454 mt 2530 1496 L
2530 1454 mt 2488 1496 L
2571 1481 mt 2613 1523 L
2613 1481 mt 2571 1523 L
2654 1494 mt 2696 1536 L
2696 1494 mt 2654 1536 L
2737 1464 mt 2779 1506 L
2779 1464 mt 2737 1506 L
2820 1494 mt 2862 1536 L
2862 1494 mt 2820 1536 L
2903 1464 mt 2945 1506 L
2945 1464 mt 2903 1506 L
2986 1481 mt 3028 1523 L
3028 1481 mt 2986 1523 L
3069 1480 mt 3111 1522 L
3111 1480 mt 3069 1522 L
3152 1461 mt 3194 1503 L
3194 1461 mt 3152 1503 L
3235 1443 mt 3277 1485 L
3277 1443 mt 3235 1485 L
3317 1476 mt 3359 1518 L
3359 1476 mt 3317 1518 L
3400 1476 mt 3442 1518 L
3442 1476 mt 3400 1518 L
3483 1454 mt 3525 1496 L
3525 1454 mt 3483 1496 L
3566 1466 mt 3608 1508 L
3608 1466 mt 3566 1508 L
3649 1484 mt 3691 1526 L
3691 1484 mt 3649 1526 L
3732 1471 mt 3774 1513 L
3774 1471 mt 3732 1513 L
3815 1484 mt 3857 1526 L
3857 1484 mt 3815 1526 L
3898 1465 mt 3940 1507 L
3940 1465 mt 3898 1507 L
3981 1431 mt 4023 1473 L
4023 1431 mt 3981 1473 L
4064 1415 mt 4106 1457 L
4106 1415 mt 4064 1457 L
4147 1425 mt 4189 1467 L
4189 1425 mt 4147 1467 L
4230 1455 mt 4272 1497 L
4272 1455 mt 4230 1497 L
4313 1445 mt 4355 1487 L
4355 1445 mt 4313 1487 L
gs 624 270 3721 2935 rc
/c11 { 0.000000 0.500000 0.500000 sr} bdef
c11
14 6 76 -36 76 -31 76 51 76 -13 76 36 76 -32 76 11 
76 0 76 7 76 -9 76 8 76 -24 76 -10 76 9 76 -53 
76 86 76 1 76 -50 76 -31 76 52 76 -8 76 5 76 23 
76 -9 76 -13 76 -23 76 31 75 -4 76 -48 76 19 76 -19 
76 17 76 17 76 19 76 -54 76 24 76 4 76 4 76 -22 
76 -62 76 -27 76 -7 76 66 76 3 76 -11 76 -4 76 -51 
76 -106 56 -118 4 1644 624 292 52 MP stroke
gr

c11
0 j
0 -48 -48 0 0 48 48 0 600 268 5 MP
DP
0 -48 -48 0 0 48 48 0 604 1912 5 MP
DP
0 -48 -48 0 0 48 48 0 660 1794 5 MP
DP
0 -48 -48 0 0 48 48 0 736 1688 5 MP
DP
0 -48 -48 0 0 48 48 0 812 1637 5 MP
DP
0 -48 -48 0 0 48 48 0 888 1633 5 MP
DP
0 -48 -48 0 0 48 48 0 964 1622 5 MP
DP
0 -48 -48 0 0 48 48 0 1040 1625 5 MP
DP
0 -48 -48 0 0 48 48 0 1116 1691 5 MP
DP
0 -48 -48 0 0 48 48 0 1192 1684 5 MP
DP
0 -48 -48 0 0 48 48 0 1268 1657 5 MP
DP
0 -48 -48 0 0 48 48 0 1344 1595 5 MP
DP
0 -48 -48 0 0 48 48 0 1420 1573 5 MP
DP
0 -48 -48 0 0 48 48 0 1496 1577 5 MP
DP
0 -48 -48 0 0 48 48 0 1572 1581 5 MP
DP
0 -48 -48 0 0 48 48 0 1648 1605 5 MP
DP
0 -48 -48 0 0 48 48 0 1724 1551 5 MP
DP
0 -48 -48 0 0 48 48 0 1800 1570 5 MP
DP
0 -48 -48 0 0 48 48 0 1876 1587 5 MP
DP
0 -48 -48 0 0 48 48 0 1952 1604 5 MP
DP
0 -48 -48 0 0 48 48 0 2028 1585 5 MP
DP
0 -48 -48 0 0 48 48 0 2104 1604 5 MP
DP
0 -48 -48 0 0 48 48 0 2180 1556 5 MP
DP
0 -48 -48 0 0 48 48 0 2255 1552 5 MP
DP
0 -48 -48 0 0 48 48 0 2331 1583 5 MP
DP
0 -48 -48 0 0 48 48 0 2407 1560 5 MP
DP
0 -48 -48 0 0 48 48 0 2483 1547 5 MP
DP
0 -48 -48 0 0 48 48 0 2559 1538 5 MP
DP
0 -48 -48 0 0 48 48 0 2635 1561 5 MP
DP
0 -48 -48 0 0 48 48 0 2711 1566 5 MP
DP
0 -48 -48 0 0 48 48 0 2787 1558 5 MP
DP
0 -48 -48 0 0 48 48 0 2863 1610 5 MP
DP
0 -48 -48 0 0 48 48 0 2939 1579 5 MP
DP
0 -48 -48 0 0 48 48 0 3015 1529 5 MP
DP
0 -48 -48 0 0 48 48 0 3091 1530 5 MP
DP
0 -48 -48 0 0 48 48 0 3167 1616 5 MP
DP
0 -48 -48 0 0 48 48 0 3243 1563 5 MP
DP
0 -48 -48 0 0 48 48 0 3319 1572 5 MP
DP
0 -48 -48 0 0 48 48 0 3395 1562 5 MP
DP
0 -48 -48 0 0 48 48 0 3471 1538 5 MP
DP
0 -48 -48 0 0 48 48 0 3547 1546 5 MP
DP
0 -48 -48 0 0 48 48 0 3623 1537 5 MP
DP
0 -48 -48 0 0 48 48 0 3699 1544 5 MP
DP
0 -48 -48 0 0 48 48 0 3775 1544 5 MP
DP
0 -48 -48 0 0 48 48 0 3851 1555 5 MP
DP
0 -48 -48 0 0 48 48 0 3927 1523 5 MP
DP
0 -48 -48 0 0 48 48 0 4003 1559 5 MP
DP
0 -48 -48 0 0 48 48 0 4079 1546 5 MP
DP
0 -48 -48 0 0 48 48 0 4155 1597 5 MP
DP
0 -48 -48 0 0 48 48 0 4231 1566 5 MP
DP
0 -48 -48 0 0 48 48 0 4307 1530 5 MP
DP
gs 624 270 3721 2935 rc
gr

0 sg
%%IncludeResource: font AvantGarde-Demi
/AvantGarde-Demi /ISOLatin1Encoding 144 FMSR

2139  180 mt 
(UHCMAES) s
0.3 sg
%%IncludeResource: font AvantGarde-Book
/AvantGarde-Book /ISOLatin1Encoding 120 FMSR

2289 3546 mt 
(nbEval) s
 245 2020 mt  -90 rotate
(slope \(SR\)) s
90 rotate
0 sg
%%IncludeResource: font Helvetica
/Helvetica /ISOLatin1Encoding 120 FMSR

 607 3247 mt 
( ) s
4328  312 mt 
( ) s
1 sg
0 514 811 0 0 -514 3474 844 4 MP
PP
-811 0 0 514 811 0 0 -514 3474 844 5 MP stroke
4 w
DO
SO
6 w
0 sg
3474  844 mt 4285  844 L
3474  330 mt 4285  330 L
3474  844 mt 3474  330 L
4285  844 mt 4285  330 L
3474  844 mt 4285  844 L
3474  844 mt 3474  330 L
3474  844 mt 4285  844 L
3474  330 mt 4285  330 L
3474  844 mt 3474  330 L
4285  844 mt 4285  330 L
%%IncludeResource: font Helvetica
/Helvetica /ISOLatin1Encoding 96 FMSR

3911  441 mt 
(Dim 2) s
gs 3474 330 812 515 rc
c8
336 0 3541 406 2 MP stroke
gs 3648 345 123 123 rc
3679  406 mt 3739  406 L
3709  376 mt 3709  436 L
gr

gr

c8
0 sg
3911  561 mt 
(Dim 4) s
gs 3474 330 812 515 rc
c9
336 0 3541 526 2 MP stroke
gs 3648 465 123 123 rc
  30   30 3709  526 FO
gr

gr

c9
0 sg
3911  682 mt 
(Dim 8) s
gs 3474 330 812 515 rc
c10
336 0 3541 647 2 MP stroke
gs 3648 586 123 123 rc
3688  626 mt 3730  668 L
3730  626 mt 3688  668 L
gr

gr

c10
0 sg
3911  802 mt 
(Dim 16) s
gs 3474 330 812 515 rc
c11
336 0 3541 767 2 MP stroke
gs 3648 706 123 123 rc
0 -48 -48 0 0 48 48 0 3685 743 5 MP
DP
gr

gr

c11

end %%Color Dict

eplot
%%EndObject

epage
end

showpage

%%Trailer
%%EOF
