%!PS-Adobe-3.0 EPSF-3.0
%%Title: glps_renderer figure
%%Creator: GL2PS 1.3.8, (C) 1999-2012 C. Geuzaine
%%For: Octave
%%CreationDate: Fri Feb  6 15:48:37 2015
%%LanguageLevel: 3
%%DocumentData: Clean7Bit
%%Pages: 1
%%BoundingBox: 0 0 576 432
%%EndComments
%%BeginProlog
/gl2psdict 64 dict def gl2psdict begin
0 setlinecap 0 setlinejoin
/tryPS3shading false def % set to false to force subdivision
/rThreshold 0.064 def % red component subdivision threshold
/gThreshold 0.034 def % green component subdivision threshold
/bThreshold 0.1 def % blue component subdivision threshold
/BD { bind def } bind def
/C  { setrgbcolor } BD
/G  { 0.082 mul exch 0.6094 mul add exch 0.3086 mul add neg 1.0 add setgray } BD
/W  { setlinewidth } BD
/FC { findfont exch /SH exch def SH scalefont setfont } BD
/SW { dup stringwidth pop } BD
/S  { FC moveto show } BD
/SBC{ FC moveto SW -2 div 0 rmoveto show } BD
/SBR{ FC moveto SW neg 0 rmoveto show } BD
/SCL{ FC moveto 0 SH -2 div rmoveto show } BD
/SCC{ FC moveto SW -2 div SH -2 div rmoveto show } BD
/SCR{ FC moveto SW neg SH -2 div rmoveto show } BD
/STL{ FC moveto 0 SH neg rmoveto show } BD
/STC{ FC moveto SW -2 div SH neg rmoveto show } BD
/STR{ FC moveto SW neg SH neg rmoveto show } BD
/FCT { FC translate 0 0 } BD
/SR  { gsave FCT moveto rotate show grestore } BD
/SBCR{ gsave FCT moveto rotate SW -2 div 0 rmoveto show grestore } BD
/SBRR{ gsave FCT moveto rotate SW neg 0 rmoveto show grestore } BD
/SCLR{ gsave FCT moveto rotate 0 SH -2 div rmoveto show grestore} BD
/SCCR{ gsave FCT moveto rotate SW -2 div SH -2 div rmoveto show grestore} BD
/SCRR{ gsave FCT moveto rotate SW neg SH -2 div rmoveto show grestore} BD
/STLR{ gsave FCT moveto rotate 0 SH neg rmoveto show grestore } BD
/STCR{ gsave FCT moveto rotate SW -2 div SH neg rmoveto show grestore } BD
/STRR{ gsave FCT moveto rotate SW neg SH neg rmoveto show grestore } BD
/P  { newpath 0.0 360.0 arc closepath fill } BD
/LS { newpath moveto } BD
/L  { lineto } BD
/LE { lineto stroke } BD
/T  { newpath moveto lineto lineto closepath fill } BD
/STshfill {
      /b1 exch def /g1 exch def /r1 exch def /y1 exch def /x1 exch def
      /b2 exch def /g2 exch def /r2 exch def /y2 exch def /x2 exch def
      /b3 exch def /g3 exch def /r3 exch def /y3 exch def /x3 exch def
      gsave << /ShadingType 4 /ColorSpace [/DeviceRGB]
      /DataSource [ 0 x1 y1 r1 g1 b1 0 x2 y2 r2 g2 b2 0 x3 y3 r3 g3 b3 ] >>
      shfill grestore } BD
/Tm { 3 -1 roll 8 -1 roll 13 -1 roll add add 3 div
      3 -1 roll 7 -1 roll 11 -1 roll add add 3 div
      3 -1 roll 6 -1 roll 9 -1 roll add add 3 div C T } BD
/STsplit {
      4 index 15 index add 0.5 mul
      4 index 15 index add 0.5 mul
      4 index 15 index add 0.5 mul
      4 index 15 index add 0.5 mul
      4 index 15 index add 0.5 mul
      5 copy 5 copy 25 15 roll
      9 index 30 index add 0.5 mul
      9 index 30 index add 0.5 mul
      9 index 30 index add 0.5 mul
      9 index 30 index add 0.5 mul
      9 index 30 index add 0.5 mul
      5 copy 5 copy 35 5 roll 25 5 roll 15 5 roll
      4 index 10 index add 0.5 mul
      4 index 10 index add 0.5 mul
      4 index 10 index add 0.5 mul
      4 index 10 index add 0.5 mul
      4 index 10 index add 0.5 mul
      5 copy 5 copy 40 5 roll 25 5 roll 15 5 roll 25 5 roll
      STnoshfill STnoshfill STnoshfill STnoshfill } BD
/STnoshfill {
      2 index 8 index sub abs rThreshold gt
      { STsplit }
      { 1 index 7 index sub abs gThreshold gt
        { STsplit }
        { dup 6 index sub abs bThreshold gt
          { STsplit }
          { 2 index 13 index sub abs rThreshold gt
            { STsplit }
            { 1 index 12 index sub abs gThreshold gt
              { STsplit }
              { dup 11 index sub abs bThreshold gt
                { STsplit }
                { 7 index 13 index sub abs rThreshold gt
                  { STsplit }
                  { 6 index 12 index sub abs gThreshold gt
                    { STsplit }
                    { 5 index 11 index sub abs bThreshold gt
                      { STsplit }
                      { Tm }
                      ifelse }
                    ifelse }
                  ifelse }
                ifelse }
              ifelse }
            ifelse }
          ifelse }
        ifelse }
      ifelse } BD
tryPS3shading
{ /shfill where
  { /ST { STshfill } BD }
  { /ST { STnoshfill } BD }
  ifelse }
{ /ST { STnoshfill } BD }
ifelse
end
%%EndProlog
%%BeginSetup
/DeviceRGB setcolorspace
gl2psdict begin
%%EndSetup
%%Page: 1 1
%%BeginPageSetup
%%EndPageSetup
mark
gsave
1.0 1.0 scale
1 1 1 C
521.28 50.9461 521.28 398 521.28 50.9461 T
521.28 50.9461 521.28 398 521.28 398 T
74.88 398 521.28 398 74.88 398 T
74.88 398 521.28 398 521.28 398 T
74.88 398 521.28 50.9461 74.88 50.9461 T
74.88 398 521.28 398 521.28 50.9461 T
0.5 W
[16 0] 0 setdash
0.3 0.3 0.3 C
74.88 50.9461 LS
521.28 50.9461 LE
74.88 50.9461 LS
74.88 398 LE
0 0 0 C
74.88 398 LS
74.88 398 LE
0.3 0.3 0.3 C
74.88 50.9461 LS
74.88 42.0168 LE
164.16 50.9461 LS
164.16 42.0168 LE
253.44 50.9461 LS
253.44 42.0168 LE
342.72 50.9461 LS
342.72 42.0168 LE
432 50.9461 LS
432 42.0168 LE
521.28 50.9461 LS
521.28 42.0168 LE
(0) 74.88 37.016 10 /Helvetica STC
(200000) 164.16 37.016 10 /Helvetica STC
(400000) 253.44 37.016 10 /Helvetica STC
(600000) 342.72 37.016 10 /Helvetica STC
(800000) 432 37.016 10 /Helvetica STC
(1e+06) 521.28 37.016 10 /Helvetica STC
92.736 50.9461 LS
92.736 46.4815 LE
110.592 50.9461 LS
110.592 46.4815 LE
128.448 50.9461 LS
128.448 46.4815 LE
146.304 50.9461 LS
146.304 46.4815 LE
182.016 50.9461 LS
182.016 46.4815 LE
199.872 50.9461 LS
199.872 46.4815 LE
217.728 50.9461 LS
217.728 46.4815 LE
235.584 50.9461 LS
235.584 46.4815 LE
271.296 50.9461 LS
271.296 46.4815 LE
289.152 50.9461 LS
289.152 46.4815 LE
307.008 50.9461 LS
307.008 46.4815 LE
324.864 50.9461 LS
324.864 46.4815 LE
360.576 50.9461 LS
360.576 46.4815 LE
378.432 50.9461 LS
378.432 46.4815 LE
396.288 50.9461 LS
396.288 46.4815 LE
414.144 50.9461 LS
414.144 46.4815 LE
449.856 50.9461 LS
449.856 46.4815 LE
467.712 50.9461 LS
467.712 46.4815 LE
485.568 50.9461 LS
485.568 46.4815 LE
503.424 50.9461 LS
503.424 46.4815 LE
[0 3 1 3 1 3 1 3 1 0] 0 setdash
74.88 137.71 LS
521.28 137.71 LE
74.88 224.473 LS
521.28 224.473 LE
74.88 311.237 LS
521.28 311.237 LE
[16 0] 0 setdash
74.88 137.71 LS
65.944 137.71 LE
74.88 224.473 LS
65.944 224.473 LE
74.88 311.237 LS
65.944 311.237 LE
(-1) 60.9395 137.71 10 /Helvetica SCR
(-0.5) 60.9395 224.473 10 /Helvetica SCR
(0) 60.9395 311.237 10 /Helvetica SCR
74.88 68.2988 LS
70.412 68.2988 LE
74.88 85.6516 LS
70.412 85.6516 LE
74.88 103.004 LS
70.412 103.004 LE
74.88 120.357 LS
70.412 120.357 LE
74.88 155.062 LS
70.412 155.062 LE
74.88 172.415 LS
70.412 172.415 LE
74.88 189.768 LS
70.412 189.768 LE
74.88 207.12 LS
70.412 207.12 LE
74.88 241.826 LS
70.412 241.826 LE
74.88 259.178 LS
70.412 259.178 LE
74.88 276.531 LS
70.412 276.531 LE
74.88 293.884 LS
70.412 293.884 LE
74.88 328.589 LS
70.412 328.589 LE
74.88 345.942 LS
70.412 345.942 LE
74.88 363.295 LS
70.412 363.295 LE
74.88 380.647 LS
70.412 380.647 LE
0 0 0 C
(nbEval) 298.08 22.016 14 /Helvetica STC
(slope (ASR)) 90 38.9395 224.473 14 /Helvetica SBCR
(Criterion: ASR (dim=2)) 298.08 408 15 /Helvetica SBC
[] 0 setdash
0 0.5 0 C
80.6766 398.347 LS
85.8579 240.185 L
99.9195 245.543 L
113.981 248.116 L
128.043 249.775 L
142.104 250.167 L
156.166 251.124 L
170.227 250.277 L
184.289 250.952 L
198.351 251.534 L
212.412 252.044 L
226.474 252.496 L
240.535 252.902 L
254.597 253.271 L
268.659 253.607 L
282.72 253.916 L
296.782 254.203 L
310.843 254.468 L
324.905 254.717 L
338.967 254.949 L
353.028 255.168 L
367.09 255.375 L
381.151 255.57 L
395.213 255.755 L
409.275 255.932 L
423.336 256.1 L
437.398 256.26 L
451.459 256.413 L
465.521 256.56 LE
81.3579 240.185 LS
90.3579 240.185 LE
85.8579 244.685 LS
85.8579 235.685 LE
95.4195 245.543 LS
104.419 245.543 LE
99.9195 250.043 LS
99.9195 241.043 LE
109.481 248.116 LS
118.481 248.116 LE
113.981 252.616 LS
113.981 243.616 LE
123.543 249.775 LS
132.543 249.775 LE
128.043 254.275 LS
128.043 245.275 LE
137.604 250.167 LS
146.604 250.167 LE
142.104 254.667 LS
142.104 245.667 LE
151.666 251.124 LS
160.666 251.124 LE
156.166 255.624 LS
156.166 246.624 LE
165.727 250.277 LS
174.727 250.277 LE
170.227 254.777 LS
170.227 245.777 LE
179.789 250.952 LS
188.789 250.952 LE
184.289 255.452 LS
184.289 246.452 LE
193.851 251.534 LS
202.851 251.534 LE
198.351 256.034 LS
198.351 247.034 LE
207.912 252.044 LS
216.912 252.044 LE
212.412 256.544 LS
212.412 247.544 LE
221.974 252.496 LS
230.974 252.496 LE
226.474 256.996 LS
226.474 247.996 LE
236.035 252.902 LS
245.035 252.902 LE
240.535 257.402 LS
240.535 248.402 LE
250.097 253.271 LS
259.097 253.271 LE
254.597 257.771 LS
254.597 248.771 LE
264.159 253.607 LS
273.159 253.607 LE
268.659 258.107 LS
268.659 249.107 LE
278.22 253.916 LS
287.22 253.916 LE
282.72 258.416 LS
282.72 249.416 LE
292.282 254.203 LS
301.282 254.203 LE
296.782 258.703 LS
296.782 249.703 LE
306.344 254.468 LS
315.344 254.468 LE
310.844 258.968 LS
310.844 249.968 LE
320.405 254.717 LS
329.405 254.717 LE
324.905 259.217 LS
324.905 250.217 LE
334.467 254.949 LS
343.467 254.949 LE
338.967 259.449 LS
338.967 250.449 LE
348.528 255.168 LS
357.528 255.168 LE
353.028 259.668 LS
353.028 250.668 LE
362.59 255.375 LS
371.59 255.375 LE
367.09 259.875 LS
367.09 250.875 LE
376.651 255.57 LS
385.651 255.57 LE
381.151 260.07 LS
381.151 251.07 LE
390.713 255.755 LS
399.713 255.755 LE
395.213 260.255 LS
395.213 251.255 LE
404.775 255.932 LS
413.775 255.932 LE
409.275 260.432 LS
409.275 251.432 LE
418.836 256.1 LS
427.836 256.1 LE
423.336 260.6 LS
423.336 251.6 LE
432.898 256.26 LS
441.898 256.26 LE
437.398 260.76 LS
437.398 251.76 LE
446.959 256.413 LS
455.959 256.413 LE
451.459 260.913 LS
451.459 251.913 LE
461.021 256.56 LS
470.021 256.56 LE
465.521 261.06 LS
465.521 252.06 LE
0.5 0 0 C
97.2004 272.618 LS
119.52 274.943 L
141.84 276.178 L
164.16 277.004 L
186.48 277.619 L
208.8 278.105 L
231.12 278.505 L
253.44 278.844 L
275.76 279.137 L
298.08 279.394 L
320.4 279.624 L
342.72 279.831 L
365.04 280.019 L
387.36 280.19 L
409.68 280.349 L
432 280.496 L
454.32 280.632 L
476.64 280.76 L
498.96 280.879 LE
92.7004 272.618 LS
101.7 272.618 LE
97.2004 277.118 LS
97.2004 268.118 LE
94.0185 275.8 LS
100.382 269.436 LE
94.0185 269.436 LS
100.382 275.8 LE
115.02 274.943 LS
124.02 274.943 LE
119.52 279.443 LS
119.52 270.443 LE
116.338 278.125 LS
122.702 271.761 LE
116.338 271.761 LS
122.702 278.125 LE
137.34 276.178 LS
146.34 276.178 LE
141.84 280.678 LS
141.84 271.678 LE
138.658 279.36 LS
145.022 272.996 LE
138.658 272.996 LS
145.022 279.36 LE
159.66 277.004 LS
168.66 277.004 LE
164.16 281.504 LS
164.16 272.504 LE
160.978 280.186 LS
167.342 273.822 LE
160.978 273.822 LS
167.342 280.186 LE
181.98 277.619 LS
190.98 277.619 LE
186.48 282.119 LS
186.48 273.119 LE
183.298 280.801 LS
189.662 274.437 LE
183.298 274.437 LS
189.662 280.801 LE
204.3 278.105 LS
213.3 278.105 LE
208.8 282.605 LS
208.8 273.605 LE
205.618 281.287 LS
211.982 274.923 LE
205.618 274.923 LS
211.982 281.287 LE
226.62 278.505 LS
235.62 278.505 LE
231.12 283.005 LS
231.12 274.005 LE
227.938 281.687 LS
234.302 275.323 LE
227.938 275.323 LS
234.302 281.687 LE
248.94 278.844 LS
257.94 278.844 LE
253.44 283.344 LS
253.44 274.344 LE
250.258 282.026 LS
256.622 275.662 LE
250.258 275.662 LS
256.622 282.026 LE
271.26 279.137 LS
280.26 279.137 LE
275.76 283.637 LS
275.76 274.637 LE
272.578 282.319 LS
278.942 275.955 LE
272.578 275.955 LS
278.942 282.319 LE
293.58 279.394 LS
302.58 279.394 LE
298.08 283.894 LS
298.08 274.894 LE
294.898 282.576 LS
301.262 276.212 LE
294.898 276.212 LS
301.262 282.576 LE
315.9 279.624 LS
324.9 279.624 LE
320.4 284.124 LS
320.4 275.124 LE
317.218 282.806 LS
323.582 276.442 LE
317.218 276.442 LS
323.582 282.806 LE
338.22 279.831 LS
347.22 279.831 LE
342.72 284.331 LS
342.72 275.331 LE
339.538 283.013 LS
345.902 276.649 LE
339.538 276.649 LS
345.902 283.013 LE
360.54 280.019 LS
369.54 280.019 LE
365.04 284.519 LS
365.04 275.519 LE
361.858 283.201 LS
368.222 276.837 LE
361.858 276.837 LS
368.222 283.201 LE
382.86 280.19 LS
391.86 280.19 LE
387.36 284.69 LS
387.36 275.69 LE
384.178 283.372 LS
390.542 277.009 LE
384.178 277.009 LS
390.542 283.372 LE
405.18 280.349 LS
414.18 280.349 LE
409.68 284.849 LS
409.68 275.849 LE
406.498 283.531 LS
412.862 277.167 LE
406.498 277.167 LS
412.862 283.531 LE
427.5 280.495 LS
436.5 280.495 LE
432 284.995 LS
432 275.995 LE
428.818 283.677 LS
435.182 277.314 LE
428.818 277.314 LS
435.182 283.677 LE
449.82 280.632 LS
458.82 280.632 LE
454.32 285.132 LS
454.32 276.132 LE
451.138 283.814 LS
457.502 277.45 LE
451.138 277.45 LS
457.502 283.814 LE
472.14 280.76 LS
481.14 280.76 LE
476.64 285.26 LS
476.64 276.26 LE
473.458 283.942 LS
479.822 277.578 LE
473.458 277.578 LS
479.822 283.942 LE
494.46 280.879 LS
503.46 280.879 LE
498.96 285.379 LS
498.96 276.379 LE
495.779 284.061 LS
502.142 277.697 LE
495.779 277.697 LS
502.142 284.061 LE
0.5 0.5 0 C
93.4065 260.031 LS
111.675 260.499 L
130.483 262.284 L
148.936 263.451 L
167.366 264.319 L
185.911 265.009 L
204.393 265.575 L
223.012 263.946 L
241.675 264.384 L
260.256 264.766 L
278.704 265.104 L
297.423 265.413 L
316.094 265.692 L
334.406 264.604 L
352.553 264.841 L
371.057 265.064 L
389.603 265.272 L
408.259 265.468 L
427.022 265.652 L
445.085 265.82 L
463.406 265.98 L
481.691 266.132 L
500.261 266.278 L
518.845 266.417 L
521.726 266.438 LE
97.9065 260.031 LS
97.0471 257.386 L
94.7971 255.751 L
92.0159 255.751 L
89.7659 257.386 L
88.9065 260.031 L
89.7659 262.676 L
92.0159 264.31 L
94.7971 264.31 L
97.0471 262.676 L
97.9065 260.031 LE
116.175 260.499 LS
115.316 257.854 L
113.066 256.219 L
110.285 256.219 L
108.035 257.854 L
107.175 260.499 L
108.035 263.144 L
110.285 264.779 L
113.066 264.779 L
115.316 263.144 L
116.175 260.499 LE
134.983 262.284 LS
134.123 259.639 L
131.873 258.004 L
129.092 258.004 L
126.842 259.639 L
125.983 262.284 L
126.842 264.929 L
129.092 266.564 L
131.873 266.564 L
134.123 264.929 L
134.983 262.284 LE
153.436 263.451 LS
152.576 260.806 L
150.326 259.172 L
147.545 259.172 L
145.295 260.806 L
144.436 263.451 L
145.295 266.096 L
147.545 267.731 L
150.326 267.731 L
152.576 266.096 L
153.436 263.451 LE
171.866 264.319 LS
171.007 261.674 L
168.757 260.039 L
165.975 260.039 L
163.725 261.674 L
162.866 264.319 L
163.725 266.964 L
165.975 268.599 L
168.757 268.599 L
171.007 266.964 L
171.866 264.319 LE
190.411 265.009 LS
189.552 262.364 L
187.302 260.729 L
184.521 260.729 L
182.271 262.364 L
181.411 265.009 L
182.271 267.654 L
184.521 269.289 L
187.302 269.289 L
189.552 267.654 L
190.411 265.009 LE
208.893 265.575 LS
208.034 262.93 L
205.784 261.295 L
203.003 261.295 L
200.753 262.93 L
199.893 265.575 L
200.753 268.22 L
203.003 269.855 L
205.784 269.855 L
208.034 268.22 L
208.893 265.575 LE
227.512 263.946 LS
226.653 261.301 L
224.403 259.667 L
221.622 259.667 L
219.372 261.301 L
218.512 263.946 L
219.372 266.591 L
221.622 268.226 L
224.403 268.226 L
226.653 266.591 L
227.512 263.946 LE
246.175 264.384 LS
245.316 261.739 L
243.066 260.104 L
240.285 260.104 L
238.035 261.739 L
237.175 264.384 L
238.035 267.029 L
240.285 268.664 L
243.066 268.664 L
245.316 267.029 L
246.175 264.384 LE
264.756 264.766 LS
263.897 262.121 L
261.647 260.487 L
258.865 260.487 L
256.615 262.121 L
255.756 264.766 L
256.615 267.411 L
258.865 269.046 L
261.647 269.046 L
263.897 267.411 L
264.756 264.766 LE
283.204 265.104 LS
282.344 262.459 L
280.094 260.824 L
277.313 260.824 L
275.063 262.459 L
274.204 265.104 L
275.063 267.749 L
277.313 269.383 L
280.094 269.383 L
282.344 267.749 L
283.204 265.104 LE
301.923 265.413 LS
301.063 262.768 L
298.813 261.133 L
296.032 261.133 L
293.782 262.768 L
292.923 265.413 L
293.782 268.058 L
296.032 269.692 L
298.813 269.692 L
301.063 268.058 L
301.923 265.413 LE
320.594 265.692 LS
319.735 263.047 L
317.485 261.412 L
314.703 261.412 L
312.453 263.047 L
311.594 265.692 L
312.453 268.337 L
314.703 269.972 L
317.485 269.972 L
319.735 268.337 L
320.594 265.692 LE
338.906 264.604 LS
338.046 261.959 L
335.796 260.325 L
333.015 260.325 L
330.765 261.959 L
329.906 264.604 L
330.765 267.249 L
333.015 268.884 L
335.796 268.884 L
338.046 267.249 L
338.906 264.604 LE
357.053 264.841 LS
356.194 262.195 L
353.944 260.561 L
351.163 260.561 L
348.913 262.195 L
348.053 264.841 L
348.913 267.486 L
351.163 269.12 L
353.944 269.12 L
356.194 267.486 L
357.053 264.841 LE
375.557 265.064 LS
374.698 262.419 L
372.448 260.784 L
369.667 260.784 L
367.417 262.419 L
366.557 265.064 L
367.417 267.709 L
369.667 269.344 L
372.448 269.344 L
374.698 267.709 L
375.557 265.064 LE
394.103 265.272 LS
393.244 262.627 L
390.994 260.992 L
388.213 260.992 L
385.963 262.627 L
385.103 265.272 L
385.963 267.917 L
388.213 269.552 L
390.994 269.552 L
393.244 267.917 L
394.103 265.272 LE
412.759 265.468 LS
411.9 262.823 L
409.65 261.188 L
406.869 261.188 L
404.619 262.823 L
403.759 265.468 L
404.619 268.113 L
406.869 269.748 L
409.65 269.748 L
411.9 268.113 L
412.759 265.468 LE
431.522 265.652 LS
430.663 263.007 L
428.413 261.373 L
425.632 261.373 L
423.382 263.007 L
422.522 265.652 L
423.382 268.297 L
425.632 269.932 L
428.413 269.932 L
430.663 268.297 L
431.522 265.652 LE
449.585 265.82 LS
448.726 263.175 L
446.476 261.54 L
443.695 261.54 L
441.445 263.175 L
440.585 265.82 L
441.445 268.465 L
443.695 270.099 L
446.476 270.099 L
448.726 268.465 L
449.585 265.82 LE
467.906 265.98 LS
467.047 263.335 L
464.797 261.7 L
462.016 261.7 L
459.766 263.335 L
458.906 265.98 L
459.766 268.625 L
462.016 270.26 L
464.797 270.26 L
467.047 268.625 L
467.906 265.98 LE
486.191 266.132 LS
485.331 263.487 L
483.081 261.852 L
480.3 261.852 L
478.05 263.487 L
477.191 266.132 L
478.05 268.777 L
480.3 270.411 L
483.081 270.411 L
485.331 268.777 L
486.191 266.132 LE
504.761 266.278 LS
503.901 263.633 L
501.651 261.998 L
498.87 261.998 L
496.62 263.633 L
495.761 266.278 L
496.62 268.923 L
498.87 270.558 L
501.651 270.558 L
503.901 268.923 L
504.761 266.278 LE
523.345 266.417 LS
522.485 263.772 L
520.235 262.137 L
517.454 262.137 L
515.204 263.772 L
514.345 266.417 L
515.204 269.062 L
517.454 270.697 L
520.235 270.697 L
522.485 269.062 L
523.345 266.417 LE
0 0 0.5 C
74.8809 299.932 LS
74.8836 305.943 L
74.8871 303.198 L
74.8943 296.384 L
74.9086 289.808 L
74.9514 291.918 L
75.0514 289.818 L
75.2657 287.254 L
75.7085 284.052 L
76.6085 282.803 L
77.5227 279.874 L
79.3511 276.99 L
84.8365 279.418 L
97.6357 280.645 L
112.263 281.16 L
156.146 280.957 L
258.54 276.873 L
477.954 272.718 LE
77.8809 299.932 75.808 297.079 77.3079 298.169 T
77.8809 299.932 73.9538 297.079 75.808 297.079 T
77.8809 299.932 72.4538 298.169 73.9538 297.079 T
77.8809 299.932 71.8809 299.932 72.4538 298.169 T
77.8809 299.932 72.4538 301.695 71.8809 299.932 T
77.8809 299.932 73.9538 302.785 72.4538 301.695 T
77.8809 299.932 75.808 302.785 73.9538 302.785 T
77.8809 299.932 77.3079 301.695 75.808 302.785 T
77.8836 305.943 75.8106 303.09 77.3106 304.179 T
77.8836 305.943 73.9565 303.09 75.8106 303.09 T
77.8836 305.943 72.4565 304.179 73.9565 303.09 T
77.8836 305.943 71.8836 305.943 72.4565 304.179 T
77.8836 305.943 72.4565 307.706 71.8836 305.943 T
77.8836 305.943 73.9565 308.796 72.4565 307.706 T
77.8836 305.943 75.8106 308.796 73.9565 308.796 T
77.8836 305.943 77.3106 307.706 75.8106 308.796 T
77.8871 303.198 75.8142 300.345 77.3142 301.434 T
77.8871 303.198 73.9601 300.345 75.8142 300.345 T
77.8871 303.198 72.4601 301.434 73.9601 300.345 T
77.8871 303.198 71.8871 303.198 72.4601 301.434 T
77.8871 303.198 72.4601 304.961 71.8871 303.198 T
77.8871 303.198 73.9601 306.051 72.4601 304.961 T
77.8871 303.198 75.8142 306.051 73.9601 306.051 T
77.8871 303.198 77.3142 304.961 75.8142 306.051 T
77.8943 296.384 75.8213 293.531 77.3213 294.621 T
77.8943 296.384 73.9672 293.531 75.8213 293.531 T
77.8943 296.384 72.4672 294.621 73.9672 293.531 T
77.8943 296.384 71.8943 296.384 72.4672 294.621 T
77.8943 296.384 72.4672 298.148 71.8943 296.384 T
77.8943 296.384 73.9672 299.237 72.4672 298.148 T
77.8943 296.384 75.8213 299.237 73.9672 299.237 T
77.8943 296.384 77.3213 298.148 75.8213 299.237 T
77.9086 289.808 75.8356 286.955 77.3356 288.045 T
77.9086 289.808 73.9815 286.955 75.8356 286.955 T
77.9086 289.808 72.4815 288.045 73.9815 286.955 T
77.9086 289.808 71.9086 289.808 72.4815 288.045 T
77.9086 289.808 72.4815 291.571 71.9086 289.808 T
77.9086 289.808 73.9815 292.661 72.4815 291.571 T
77.9086 289.808 75.8356 292.661 73.9815 292.661 T
77.9086 289.808 77.3356 291.571 75.8356 292.661 T
77.9514 291.918 75.8785 289.065 77.3785 290.155 T
77.9514 291.918 74.0244 289.065 75.8785 289.065 T
77.9514 291.918 72.5244 290.155 74.0244 289.065 T
77.9514 291.918 71.9514 291.918 72.5244 290.155 T
77.9514 291.918 72.5244 293.681 71.9514 291.918 T
77.9514 291.918 74.0244 294.771 72.5244 293.681 T
77.9514 291.918 75.8785 294.771 74.0244 294.771 T
77.9514 291.918 77.3785 293.681 75.8785 294.771 T
78.0514 289.818 75.9785 286.965 77.4785 288.055 T
78.0514 289.818 74.1244 286.965 75.9785 286.965 T
78.0514 289.818 72.6244 288.055 74.1244 286.965 T
78.0514 289.818 72.0514 289.818 72.6244 288.055 T
78.0514 289.818 72.6244 291.581 72.0514 289.818 T
78.0514 289.818 74.1244 292.671 72.6244 291.581 T
78.0514 289.818 75.9785 292.671 74.1244 292.671 T
78.0514 289.818 77.4785 291.581 75.9785 292.671 T
78.2657 287.254 76.1927 284.401 77.6927 285.491 T
78.2657 287.254 74.3386 284.401 76.1927 284.401 T
78.2657 287.254 72.8386 285.491 74.3386 284.401 T
78.2657 287.254 72.2657 287.254 72.8386 285.491 T
78.2657 287.254 72.8386 289.017 72.2657 287.254 T
78.2657 287.254 74.3386 290.107 72.8386 289.017 T
78.2657 287.254 76.1927 290.107 74.3386 290.107 T
78.2657 287.254 77.6927 289.017 76.1927 290.107 T
78.7085 284.052 76.6356 281.199 78.1356 282.289 T
78.7085 284.052 74.7815 281.199 76.6356 281.199 T
78.7085 284.052 73.2815 282.289 74.7815 281.199 T
78.7085 284.052 72.7085 284.052 73.2815 282.289 T
78.7085 284.052 73.2815 285.816 72.7085 284.052 T
78.7085 284.052 74.7815 286.905 73.2815 285.816 T
78.7085 284.052 76.6356 286.905 74.7815 286.905 T
78.7085 284.052 78.1356 285.816 76.6356 286.905 T
79.6085 282.803 77.5355 279.949 79.0355 281.039 T
79.6085 282.803 75.6814 279.949 77.5355 279.949 T
79.6085 282.803 74.1814 281.039 75.6814 279.949 T
79.6085 282.803 73.6084 282.803 74.1814 281.039 T
79.6085 282.803 74.1814 284.566 73.6084 282.803 T
79.6085 282.803 75.6814 285.656 74.1814 284.566 T
79.6085 282.803 77.5355 285.656 75.6814 285.656 T
79.6085 282.803 79.0355 284.566 77.5355 285.656 T
80.5227 279.874 78.4498 277.021 79.9497 278.111 T
80.5227 279.874 76.5956 277.021 78.4498 277.021 T
80.5227 279.874 75.0956 278.111 76.5956 277.021 T
80.5227 279.874 74.5227 279.874 75.0956 278.111 T
80.5227 279.874 75.0956 281.638 74.5227 279.874 T
80.5227 279.874 76.5956 282.727 75.0956 281.638 T
80.5227 279.874 78.4498 282.727 76.5956 282.727 T
80.5227 279.874 79.9497 281.638 78.4498 282.727 T
82.3512 276.99 80.2782 274.137 81.7782 275.227 T
82.3512 276.99 78.4241 274.137 80.2782 274.137 T
82.3512 276.99 76.9241 275.227 78.4241 274.137 T
82.3512 276.99 76.3511 276.99 76.9241 275.227 T
82.3512 276.99 76.9241 278.753 76.3511 276.99 T
82.3512 276.99 78.4241 279.843 76.9241 278.753 T
82.3512 276.99 80.2782 279.843 78.4241 279.843 T
82.3512 276.99 81.7782 278.753 80.2782 279.843 T
87.8365 279.418 85.7635 276.565 87.2635 277.655 T
87.8365 279.418 83.9094 276.565 85.7635 276.565 T
87.8365 279.418 82.4094 277.655 83.9094 276.565 T
87.8365 279.418 81.8365 279.418 82.4094 277.655 T
87.8365 279.418 82.4094 281.181 81.8365 279.418 T
87.8365 279.418 83.9094 282.271 82.4094 281.181 T
87.8365 279.418 85.7635 282.271 83.9094 282.271 T
87.8365 279.418 87.2635 281.181 85.7635 282.271 T
100.636 280.645 98.5627 277.791 100.063 278.881 T
100.636 280.645 96.7086 277.791 98.5627 277.791 T
100.636 280.645 95.2086 278.881 96.7086 277.791 T
100.636 280.645 94.6357 280.645 95.2086 278.881 T
100.636 280.645 95.2086 282.408 94.6357 280.645 T
100.636 280.645 96.7086 283.498 95.2086 282.408 T
100.636 280.645 98.5627 283.498 96.7086 283.498 T
100.636 280.645 100.063 282.408 98.5627 283.498 T
115.263 281.16 113.19 278.307 114.69 279.397 T
115.263 281.16 111.336 278.307 113.19 278.307 T
115.263 281.16 109.836 279.397 111.336 278.307 T
115.263 281.16 109.263 281.16 109.836 279.397 T
115.263 281.16 109.836 282.924 109.263 281.16 T
115.263 281.16 111.336 284.014 109.836 282.924 T
115.263 281.16 113.19 284.014 111.336 284.014 T
115.263 281.16 114.69 282.924 113.19 284.014 T
159.146 280.957 157.073 278.104 158.573 279.193 T
159.146 280.957 155.219 278.104 157.073 278.104 T
159.146 280.957 153.719 279.193 155.219 278.104 T
159.146 280.957 153.146 280.957 153.719 279.193 T
159.146 280.957 153.719 282.72 153.146 280.957 T
159.146 280.957 155.219 283.81 153.719 282.72 T
159.146 280.957 157.073 283.81 155.219 283.81 T
159.146 280.957 158.573 282.72 157.073 283.81 T
261.54 276.873 259.467 274.02 260.967 275.11 T
261.54 276.873 257.613 274.02 259.467 274.02 T
261.54 276.873 256.113 275.11 257.613 274.02 T
261.54 276.873 255.54 276.873 256.113 275.11 T
261.54 276.873 256.113 278.637 255.54 276.873 T
261.54 276.873 257.613 279.727 256.113 278.637 T
261.54 276.873 259.467 279.727 257.613 279.727 T
261.54 276.873 260.967 278.637 259.467 279.727 T
480.954 272.718 478.881 269.865 480.381 270.955 T
480.954 272.718 477.027 269.865 478.881 269.865 T
480.954 272.718 475.527 270.955 477.027 269.865 T
480.954 272.718 474.954 272.718 475.527 270.955 T
480.954 272.718 475.527 274.482 474.954 272.718 T
480.954 272.718 477.027 275.572 475.527 274.482 T
480.954 272.718 478.881 275.572 477.027 275.572 T
480.954 272.718 480.381 274.482 478.881 275.572 T
0.5 0.5 0.5 C
86.0404 301.385 LS
97.2004 302.016 L
108.36 302.349 L
119.52 302.572 L
130.68 302.736 L
141.84 302.866 L
153 302.973 L
164.16 303.064 L
175.32 303.142 L
186.48 303.21 L
197.64 303.271 L
208.8 303.326 L
219.96 303.376 L
231.12 303.422 L
242.28 303.464 L
253.44 303.503 L
264.6 303.539 L
275.76 303.573 L
286.92 303.604 L
298.08 303.634 L
309.24 303.662 L
320.4 303.689 L
331.56 303.714 L
342.72 303.738 L
353.88 303.761 L
365.04 303.783 L
376.2 303.804 L
387.36 303.824 L
398.52 303.844 L
409.68 303.862 L
420.84 303.88 L
432 303.897 L
443.16 303.914 L
454.32 303.93 L
465.48 303.945 L
476.64 303.96 L
487.8 303.975 L
498.96 303.989 L
510.12 304.002 L
521.28 304.016 L
521.726 304.016 LE
81.5404 305.885 LS
90.5404 296.885 LE
81.5404 296.885 LS
90.5404 305.885 LE
92.7004 306.516 LS
101.7 297.516 LE
92.7004 297.516 LS
101.7 306.516 LE
103.86 306.849 LS
112.86 297.849 LE
103.86 297.849 LS
112.86 306.849 LE
115.02 307.072 LS
124.02 298.072 LE
115.02 298.072 LS
124.02 307.072 LE
126.18 307.236 LS
135.18 298.236 LE
126.18 298.236 LS
135.18 307.236 LE
137.34 307.366 LS
146.34 298.366 LE
137.34 298.366 LS
146.34 307.366 LE
148.5 307.473 LS
157.5 298.473 LE
148.5 298.473 LS
157.5 307.473 LE
159.66 307.564 LS
168.66 298.564 LE
159.66 298.564 LS
168.66 307.564 LE
170.82 307.642 LS
179.82 298.642 LE
170.82 298.642 LS
179.82 307.642 LE
181.98 307.71 LS
190.98 298.71 LE
181.98 298.71 LS
190.98 307.71 LE
193.14 307.771 LS
202.14 298.771 LE
193.14 298.771 LS
202.14 307.771 LE
204.3 307.826 LS
213.3 298.826 LE
204.3 298.826 LS
213.3 307.826 LE
215.46 307.876 LS
224.46 298.876 LE
215.46 298.876 LS
224.46 307.876 LE
226.62 307.922 LS
235.62 298.922 LE
226.62 298.922 LS
235.62 307.922 LE
237.78 307.964 LS
246.78 298.964 LE
237.78 298.964 LS
246.78 307.964 LE
248.94 308.003 LS
257.94 299.003 LE
248.94 299.003 LS
257.94 308.003 LE
260.1 308.039 LS
269.1 299.039 LE
260.1 299.039 LS
269.1 308.039 LE
271.26 308.073 LS
280.26 299.073 LE
271.26 299.073 LS
280.26 308.073 LE
282.42 308.104 LS
291.42 299.104 LE
282.42 299.104 LS
291.42 308.104 LE
293.58 308.134 LS
302.58 299.134 LE
293.58 299.134 LS
302.58 308.134 LE
304.74 308.162 LS
313.74 299.162 LE
304.74 299.162 LS
313.74 308.162 LE
315.9 308.189 LS
324.9 299.189 LE
315.9 299.189 LS
324.9 308.189 LE
327.06 308.214 LS
336.06 299.214 LE
327.06 299.214 LS
336.06 308.214 LE
338.22 308.238 LS
347.22 299.238 LE
338.22 299.238 LS
347.22 308.238 LE
349.38 308.261 LS
358.38 299.261 LE
349.38 299.261 LS
358.38 308.261 LE
360.54 308.283 LS
369.54 299.283 LE
360.54 299.283 LS
369.54 308.283 LE
371.7 308.304 LS
380.7 299.304 LE
371.7 299.304 LS
380.7 308.304 LE
382.86 308.324 LS
391.86 299.324 LE
382.86 299.324 LS
391.86 308.324 LE
394.02 308.344 LS
403.02 299.344 LE
394.02 299.344 LS
403.02 308.344 LE
405.18 308.362 LS
414.18 299.362 LE
405.18 299.362 LS
414.18 308.362 LE
416.34 308.38 LS
425.34 299.38 LE
416.34 299.38 LS
425.34 308.38 LE
427.5 308.397 LS
436.5 299.397 LE
427.5 299.397 LS
436.5 308.397 LE
438.66 308.414 LS
447.66 299.414 LE
438.66 299.414 LS
447.66 308.414 LE
449.82 308.43 LS
458.82 299.43 LE
449.82 299.43 LS
458.82 308.43 LE
460.98 308.445 LS
469.98 299.445 LE
460.98 299.445 LS
469.98 308.445 LE
472.14 308.46 LS
481.14 299.46 LE
472.14 299.46 LS
481.14 308.46 LE
483.3 308.475 LS
492.3 299.475 LE
483.3 299.475 LS
492.3 308.475 LE
494.46 308.489 LS
503.46 299.489 LE
494.46 299.489 LS
503.46 308.489 LE
505.62 308.502 LS
514.62 299.502 LE
505.62 299.502 LS
514.62 308.502 LE
516.78 308.516 LS
525.78 299.516 LE
516.78 299.516 LS
525.78 308.516 LE
1 1 1 C
518.208 306.289 518.208 396.528 518.208 306.289 T
518.208 306.289 518.208 396.528 518.208 396.528 T
386.882 396.528 518.208 396.528 386.882 396.528 T
386.882 396.528 518.208 396.528 518.208 396.528 T
386.882 396.528 518.208 306.289 386.882 306.289 T
386.882 396.528 518.208 396.528 518.208 306.289 T
[16 0] 0 setdash
0 0 0 C
386.882 306.289 LS
518.208 306.289 LE
386.882 396.528 LS
518.208 396.528 LE
386.882 396.528 LS
518.208 396.528 LE
386.882 306.289 LS
518.208 306.289 LE
386.882 306.289 LS
386.882 396.528 LE
518.208 306.289 LS
518.208 396.528 LE
518.208 306.289 LS
518.208 396.528 LE
386.882 306.289 LS
386.882 396.528 L
386.882 396.528 LE
518.208 396.528 LS
518.208 396.528 LE
518.208 306.289 LS
518.208 306.289 LE
386.882 306.289 LS
386.882 306.289 LE
(UHCMAES) 416.064 387.504 10 /Helvetica SCL
(Shamir) 416.064 369.456 10 /Helvetica SCL
((1+1)-ES) 416.064 351.409 10 /Helvetica SCL
((1+1)-ES resamp) 416.064 333.361 10 /Helvetica SCL
(Fabian) 416.064 315.313 10 /Helvetica SCL
[] 0 setdash
0 0.5 0 C
389.954 387.504 LS
412.993 387.504 LE
396.973 387.504 LS
405.973 387.504 LE
401.473 392.004 LS
401.473 383.004 LE
0.5 0 0 C
389.954 369.456 LS
412.993 369.456 LE
396.973 369.456 LS
405.973 369.456 LE
401.473 373.956 LS
401.473 364.956 LE
398.291 372.638 LS
404.655 366.274 LE
398.291 366.274 LS
404.655 372.638 LE
0.5 0.5 0 C
389.954 351.409 LS
412.993 351.409 LE
405.973 351.409 LS
405.114 348.764 L
402.864 347.129 L
400.083 347.129 L
397.833 348.764 L
396.973 351.409 L
397.833 354.054 L
400.083 355.688 L
402.864 355.688 L
405.114 354.054 L
405.973 351.409 LE
0 0 0.5 C
389.954 333.361 LS
412.993 333.361 LE
404.473 333.361 402.4 330.508 403.9 331.597 T
404.473 333.361 400.546 330.508 402.4 330.508 T
404.473 333.361 399.046 331.597 400.546 330.508 T
404.473 333.361 398.473 333.361 399.046 331.597 T
404.473 333.361 399.046 335.124 398.473 333.361 T
404.473 333.361 400.546 336.214 399.046 335.124 T
404.473 333.361 402.4 336.214 400.546 336.214 T
404.473 333.361 403.9 335.124 402.4 336.214 T
0.5 0.5 0.5 C
389.954 315.313 LS
412.993 315.313 LE
396.973 319.813 LS
405.973 310.813 LE
396.973 310.813 LS
405.973 319.813 LE
grestore
showpage
cleartomark
%%PageTrailer
%%Trailer
end
%%EOF
