%!PS-Adobe-3.0 EPSF-3.0
%%Title: glps_renderer figure
%%Creator: GL2PS 1.3.8, (C) 1999-2012 C. Geuzaine
%%For: Octave
%%CreationDate: Wed Feb  4 15:57:53 2015
%%LanguageLevel: 3
%%DocumentData: Clean7Bit
%%Pages: 1
%%BoundingBox: 0 0 576 432
%%EndComments
%%BeginProlog
/gl2psdict 64 dict def gl2psdict begin
0 setlinecap 0 setlinejoin
/tryPS3shading false def % set to false to force subdivision
/rThreshold 0.064 def % red component subdivision threshold
/gThreshold 0.034 def % green component subdivision threshold
/bThreshold 0.1 def % blue component subdivision threshold
/BD { bind def } bind def
/C  { setrgbcolor } BD
/G  { 0.082 mul exch 0.6094 mul add exch 0.3086 mul add neg 1.0 add setgray } BD
/W  { setlinewidth } BD
/FC { findfont exch /SH exch def SH scalefont setfont } BD
/SW { dup stringwidth pop } BD
/S  { FC moveto show } BD
/SBC{ FC moveto SW -2 div 0 rmoveto show } BD
/SBR{ FC moveto SW neg 0 rmoveto show } BD
/SCL{ FC moveto 0 SH -2 div rmoveto show } BD
/SCC{ FC moveto SW -2 div SH -2 div rmoveto show } BD
/SCR{ FC moveto SW neg SH -2 div rmoveto show } BD
/STL{ FC moveto 0 SH neg rmoveto show } BD
/STC{ FC moveto SW -2 div SH neg rmoveto show } BD
/STR{ FC moveto SW neg SH neg rmoveto show } BD
/FCT { FC translate 0 0 } BD
/SR  { gsave FCT moveto rotate show grestore } BD
/SBCR{ gsave FCT moveto rotate SW -2 div 0 rmoveto show grestore } BD
/SBRR{ gsave FCT moveto rotate SW neg 0 rmoveto show grestore } BD
/SCLR{ gsave FCT moveto rotate 0 SH -2 div rmoveto show grestore} BD
/SCCR{ gsave FCT moveto rotate SW -2 div SH -2 div rmoveto show grestore} BD
/SCRR{ gsave FCT moveto rotate SW neg SH -2 div rmoveto show grestore} BD
/STLR{ gsave FCT moveto rotate 0 SH neg rmoveto show grestore } BD
/STCR{ gsave FCT moveto rotate SW -2 div SH neg rmoveto show grestore } BD
/STRR{ gsave FCT moveto rotate SW neg SH neg rmoveto show grestore } BD
/P  { newpath 0.0 360.0 arc closepath fill } BD
/LS { newpath moveto } BD
/L  { lineto } BD
/LE { lineto stroke } BD
/T  { newpath moveto lineto lineto closepath fill } BD
/STshfill {
      /b1 exch def /g1 exch def /r1 exch def /y1 exch def /x1 exch def
      /b2 exch def /g2 exch def /r2 exch def /y2 exch def /x2 exch def
      /b3 exch def /g3 exch def /r3 exch def /y3 exch def /x3 exch def
      gsave << /ShadingType 4 /ColorSpace [/DeviceRGB]
      /DataSource [ 0 x1 y1 r1 g1 b1 0 x2 y2 r2 g2 b2 0 x3 y3 r3 g3 b3 ] >>
      shfill grestore } BD
/Tm { 3 -1 roll 8 -1 roll 13 -1 roll add add 3 div
      3 -1 roll 7 -1 roll 11 -1 roll add add 3 div
      3 -1 roll 6 -1 roll 9 -1 roll add add 3 div C T } BD
/STsplit {
      4 index 15 index add 0.5 mul
      4 index 15 index add 0.5 mul
      4 index 15 index add 0.5 mul
      4 index 15 index add 0.5 mul
      4 index 15 index add 0.5 mul
      5 copy 5 copy 25 15 roll
      9 index 30 index add 0.5 mul
      9 index 30 index add 0.5 mul
      9 index 30 index add 0.5 mul
      9 index 30 index add 0.5 mul
      9 index 30 index add 0.5 mul
      5 copy 5 copy 35 5 roll 25 5 roll 15 5 roll
      4 index 10 index add 0.5 mul
      4 index 10 index add 0.5 mul
      4 index 10 index add 0.5 mul
      4 index 10 index add 0.5 mul
      4 index 10 index add 0.5 mul
      5 copy 5 copy 40 5 roll 25 5 roll 15 5 roll 25 5 roll
      STnoshfill STnoshfill STnoshfill STnoshfill } BD
/STnoshfill {
      2 index 8 index sub abs rThreshold gt
      { STsplit }
      { 1 index 7 index sub abs gThreshold gt
        { STsplit }
        { dup 6 index sub abs bThreshold gt
          { STsplit }
          { 2 index 13 index sub abs rThreshold gt
            { STsplit }
            { 1 index 12 index sub abs gThreshold gt
              { STsplit }
              { dup 11 index sub abs bThreshold gt
                { STsplit }
                { 7 index 13 index sub abs rThreshold gt
                  { STsplit }
                  { 6 index 12 index sub abs gThreshold gt
                    { STsplit }
                    { 5 index 11 index sub abs bThreshold gt
                      { STsplit }
                      { Tm }
                      ifelse }
                    ifelse }
                  ifelse }
                ifelse }
              ifelse }
            ifelse }
          ifelse }
        ifelse }
      ifelse } BD
tryPS3shading
{ /shfill where
  { /ST { STshfill } BD }
  { /ST { STnoshfill } BD }
  ifelse }
{ /ST { STnoshfill } BD }
ifelse
end
%%EndProlog
%%BeginSetup
/DeviceRGB setcolorspace
gl2psdict begin
%%EndSetup
%%Page: 1 1
%%BeginPageSetup
%%EndPageSetup
mark
gsave
1.0 1.0 scale
1 1 1 C
521.28 50.9461 521.28 398 521.28 50.9461 T
521.28 50.9461 521.28 398 521.28 398 T
74.88 398 521.28 398 74.88 398 T
74.88 398 521.28 398 521.28 398 T
74.88 398 521.28 50.9461 74.88 50.9461 T
74.88 398 521.28 398 521.28 50.9461 T
0.5 W
[16 0] 0 setdash
0.3 0.3 0.3 C
74.88 50.9461 LS
521.28 50.9461 LE
74.88 50.9461 LS
74.88 398 LE
0 0 0 C
74.88 398 LS
74.88 398 LE
0.3 0.3 0.3 C
74.88 50.9461 LS
74.88 42.0168 LE
164.16 50.9461 LS
164.16 42.0168 LE
253.44 50.9461 LS
253.44 42.0168 LE
342.72 50.9461 LS
342.72 42.0168 LE
432 50.9461 LS
432 42.0168 LE
521.28 50.9461 LS
521.28 42.0168 LE
(0) 74.88 37.016 10 /Helvetica STC
(200000) 164.16 37.016 10 /Helvetica STC
(400000) 253.44 37.016 10 /Helvetica STC
(600000) 342.72 37.016 10 /Helvetica STC
(800000) 432 37.016 10 /Helvetica STC
(1e+06) 521.28 37.016 10 /Helvetica STC
92.736 50.9461 LS
92.736 46.4815 LE
110.592 50.9461 LS
110.592 46.4815 LE
128.448 50.9461 LS
128.448 46.4815 LE
146.304 50.9461 LS
146.304 46.4815 LE
182.016 50.9461 LS
182.016 46.4815 LE
199.872 50.9461 LS
199.872 46.4815 LE
217.728 50.9461 LS
217.728 46.4815 LE
235.584 50.9461 LS
235.584 46.4815 LE
271.296 50.9461 LS
271.296 46.4815 LE
289.152 50.9461 LS
289.152 46.4815 LE
307.008 50.9461 LS
307.008 46.4815 LE
324.864 50.9461 LS
324.864 46.4815 LE
360.576 50.9461 LS
360.576 46.4815 LE
378.432 50.9461 LS
378.432 46.4815 LE
396.288 50.9461 LS
396.288 46.4815 LE
414.144 50.9461 LS
414.144 46.4815 LE
449.856 50.9461 LS
449.856 46.4815 LE
467.712 50.9461 LS
467.712 46.4815 LE
485.568 50.9461 LS
485.568 46.4815 LE
503.424 50.9461 LS
503.424 46.4815 LE
[0 3 1 3 1 3 1 3 1 0] 0 setdash
74.88 137.71 LS
521.28 137.71 LE
74.88 224.473 LS
521.28 224.473 LE
74.88 311.237 LS
521.28 311.237 LE
[16 0] 0 setdash
74.88 137.71 LS
65.944 137.71 LE
74.88 224.473 LS
65.944 224.473 LE
74.88 311.237 LS
65.944 311.237 LE
(-1) 60.9395 137.71 10 /Helvetica SCR
(-0.5) 60.9395 224.473 10 /Helvetica SCR
(0) 60.9395 311.237 10 /Helvetica SCR
74.88 68.2988 LS
70.412 68.2988 LE
74.88 85.6516 LS
70.412 85.6516 LE
74.88 103.004 LS
70.412 103.004 LE
74.88 120.357 LS
70.412 120.357 LE
74.88 155.062 LS
70.412 155.062 LE
74.88 172.415 LS
70.412 172.415 LE
74.88 189.768 LS
70.412 189.768 LE
74.88 207.12 LS
70.412 207.12 LE
74.88 241.826 LS
70.412 241.826 LE
74.88 259.178 LS
70.412 259.178 LE
74.88 276.531 LS
70.412 276.531 LE
74.88 293.884 LS
70.412 293.884 LE
74.88 328.589 LS
70.412 328.589 LE
74.88 345.942 LS
70.412 345.942 LE
74.88 363.295 LS
70.412 363.295 LE
74.88 380.647 LS
70.412 380.647 LE
0 0 0 C
(nbEval) 298.08 22.016 14 /Helvetica STC
(slope (SR)) 90 38.9395 224.473 14 /Helvetica SBCR
(Criterion: SR (dim=2)) 298.08 408 15 /Helvetica SBC
[] 0 setdash
0 0.5 0 C
81.4146 398.347 LS
85.8579 278.039 L
99.9195 276.929 L
113.981 278.527 L
128.043 289.245 L
142.104 276.932 L
156.166 282.738 L
170.227 287.641 L
184.289 291.226 L
198.351 282.498 L
212.412 280.138 L
226.474 275.744 L
240.535 272.965 L
254.597 285.299 L
268.659 284.33 L
282.72 293.936 L
296.782 281.162 L
310.843 277.589 L
324.905 288.96 L
338.967 267.232 L
353.028 282.191 L
367.09 279.581 L
381.151 272.273 L
395.213 279.553 L
409.275 279.784 L
423.336 283.184 L
437.398 280.185 L
451.459 286.48 L
465.521 287.286 LE
81.3579 278.039 LS
90.3579 278.039 LE
85.8579 282.539 LS
85.8579 273.539 LE
95.4195 276.929 LS
104.419 276.929 LE
99.9195 281.429 LS
99.9195 272.429 LE
109.481 278.527 LS
118.481 278.527 LE
113.981 283.027 LS
113.981 274.027 LE
123.543 289.245 LS
132.543 289.245 LE
128.043 293.745 LS
128.043 284.745 LE
137.604 276.932 LS
146.604 276.932 LE
142.104 281.432 LS
142.104 272.432 LE
151.666 282.738 LS
160.666 282.738 LE
156.166 287.238 LS
156.166 278.238 LE
165.727 287.641 LS
174.727 287.641 LE
170.227 292.141 LS
170.227 283.141 LE
179.789 291.226 LS
188.789 291.226 LE
184.289 295.726 LS
184.289 286.726 LE
193.851 282.498 LS
202.851 282.498 LE
198.351 286.998 LS
198.351 277.998 LE
207.912 280.138 LS
216.912 280.138 LE
212.412 284.638 LS
212.412 275.638 LE
221.974 275.744 LS
230.974 275.744 LE
226.474 280.244 LS
226.474 271.244 LE
236.035 272.965 LS
245.035 272.965 LE
240.535 277.465 LS
240.535 268.465 LE
250.097 285.299 LS
259.097 285.299 LE
254.597 289.799 LS
254.597 280.799 LE
264.159 284.33 LS
273.159 284.33 LE
268.659 288.83 LS
268.659 279.83 LE
278.22 293.936 LS
287.22 293.936 LE
282.72 298.436 LS
282.72 289.436 LE
292.282 281.162 LS
301.282 281.162 LE
296.782 285.662 LS
296.782 276.662 LE
306.344 277.589 LS
315.344 277.589 LE
310.844 282.089 LS
310.844 273.089 LE
320.405 288.96 LS
329.405 288.96 LE
324.905 293.46 LS
324.905 284.46 LE
334.467 267.232 LS
343.467 267.232 LE
338.967 271.732 LS
338.967 262.732 LE
348.528 282.191 LS
357.528 282.191 LE
353.028 286.691 LS
353.028 277.691 LE
362.59 279.581 LS
371.59 279.581 LE
367.09 284.081 LS
367.09 275.081 LE
376.651 272.273 LS
385.651 272.273 LE
381.151 276.773 LS
381.151 267.773 LE
390.713 279.553 LS
399.713 279.553 LE
395.213 284.053 LS
395.213 275.053 LE
404.775 279.784 LS
413.775 279.784 LE
409.275 284.284 LS
409.275 275.284 LE
418.836 283.184 LS
427.836 283.184 LE
423.336 287.684 LS
423.336 278.684 LE
432.898 280.185 LS
441.898 280.185 LE
437.398 284.685 LS
437.398 275.685 LE
446.959 286.48 LS
455.959 286.48 LE
451.459 290.98 LS
451.459 281.98 LE
461.021 287.286 LS
470.021 287.286 LE
465.521 291.786 LS
465.521 282.786 LE
0.5 0 0 C
97.2004 145.791 LS
119.52 154.448 L
141.84 148.168 L
164.16 142.718 L
186.48 146.894 L
208.8 149.911 L
231.12 143.921 L
253.44 142.447 L
275.76 138.648 L
298.08 139.469 L
320.4 139.089 L
342.72 143.099 L
365.04 145.812 L
387.36 143.692 L
409.68 142.89 L
432 141.771 L
454.32 140.091 L
476.64 140.062 L
498.96 141.321 LE
92.7004 145.791 LS
101.7 145.791 LE
97.2004 150.291 LS
97.2004 141.291 LE
94.0185 148.973 LS
100.382 142.609 LE
94.0185 142.609 LS
100.382 148.973 LE
115.02 154.448 LS
124.02 154.448 LE
119.52 158.948 LS
119.52 149.948 LE
116.338 157.63 LS
122.702 151.266 LE
116.338 151.266 LS
122.702 157.63 LE
137.34 148.168 LS
146.34 148.168 LE
141.84 152.668 LS
141.84 143.668 LE
138.658 151.35 LS
145.022 144.986 LE
138.658 144.986 LS
145.022 151.35 LE
159.66 142.718 LS
168.66 142.718 LE
164.16 147.218 LS
164.16 138.218 LE
160.978 145.9 LS
167.342 139.536 LE
160.978 139.536 LS
167.342 145.9 LE
181.98 146.894 LS
190.98 146.894 LE
186.48 151.394 LS
186.48 142.394 LE
183.298 150.076 LS
189.662 143.712 LE
183.298 143.712 LS
189.662 150.076 LE
204.3 149.911 LS
213.3 149.911 LE
208.8 154.411 LS
208.8 145.411 LE
205.618 153.093 LS
211.982 146.729 LE
205.618 146.729 LS
211.982 153.093 LE
226.62 143.921 LS
235.62 143.921 LE
231.12 148.421 LS
231.12 139.421 LE
227.938 147.103 LS
234.302 140.739 LE
227.938 140.739 LS
234.302 147.103 LE
248.94 142.447 LS
257.94 142.447 LE
253.44 146.947 LS
253.44 137.947 LE
250.258 145.629 LS
256.622 139.265 LE
250.258 139.265 LS
256.622 145.629 LE
271.26 138.648 LS
280.26 138.648 LE
275.76 143.148 LS
275.76 134.148 LE
272.578 141.83 LS
278.942 135.466 LE
272.578 135.466 LS
278.942 141.83 LE
293.58 139.469 LS
302.58 139.469 LE
298.08 143.969 LS
298.08 134.969 LE
294.898 142.651 LS
301.262 136.287 LE
294.898 136.287 LS
301.262 142.651 LE
315.9 139.089 LS
324.9 139.089 LE
320.4 143.589 LS
320.4 134.589 LE
317.218 142.27 LS
323.582 135.907 LE
317.218 135.907 LS
323.582 142.27 LE
338.22 143.099 LS
347.22 143.099 LE
342.72 147.599 LS
342.72 138.599 LE
339.538 146.281 LS
345.902 139.917 LE
339.538 139.917 LS
345.902 146.281 LE
360.54 145.812 LS
369.54 145.812 LE
365.04 150.312 LS
365.04 141.312 LE
361.858 148.994 LS
368.222 142.631 LE
361.858 142.631 LS
368.222 148.994 LE
382.86 143.692 LS
391.86 143.692 LE
387.36 148.192 LS
387.36 139.192 LE
384.178 146.874 LS
390.542 140.51 LE
384.178 140.51 LS
390.542 146.874 LE
405.18 142.89 LS
414.18 142.89 LE
409.68 147.39 LS
409.68 138.39 LE
406.498 146.072 LS
412.862 139.708 LE
406.498 139.708 LS
412.862 146.072 LE
427.5 141.771 LS
436.5 141.771 LE
432 146.271 LS
432 137.271 LE
428.818 144.953 LS
435.182 138.589 LE
428.818 138.589 LS
435.182 144.953 LE
449.82 140.091 LS
458.82 140.091 LE
454.32 144.591 LS
454.32 135.591 LE
451.138 143.273 LS
457.502 136.909 LE
451.138 136.909 LS
457.502 143.273 LE
472.14 140.062 LS
481.14 140.062 LE
476.64 144.562 LS
476.64 135.562 LE
473.458 143.244 LS
479.822 136.88 LE
473.458 136.88 LS
479.822 143.244 LE
494.46 141.321 LS
503.46 141.321 LE
498.96 145.821 LS
498.96 136.821 LE
495.779 144.503 LS
502.142 138.139 LE
495.779 138.139 LS
502.142 144.503 LE
0.5 0.5 0 C
93.4065 276.561 LS
111.675 278.769 L
130.483 283.643 L
148.936 289.885 L
167.366 282.209 L
185.911 284.886 L
204.393 283.213 L
223.012 296.682 L
241.675 281.594 L
260.256 283.551 L
278.704 289.971 L
297.423 290.369 L
316.094 281.176 L
334.406 288.568 L
352.553 290.116 L
371.057 292.892 L
389.603 289.244 L
408.259 287.038 L
427.022 282.768 L
445.085 289.977 L
463.406 283.233 L
481.691 284.318 L
500.261 286.233 L
518.845 290.285 L
521.726 290.033 LE
97.9065 276.561 LS
97.0471 273.916 L
94.7971 272.281 L
92.0159 272.281 L
89.7659 273.916 L
88.9065 276.561 L
89.7659 279.206 L
92.0159 280.84 L
94.7971 280.84 L
97.0471 279.206 L
97.9065 276.561 LE
116.175 278.769 LS
115.316 276.124 L
113.066 274.489 L
110.285 274.489 L
108.035 276.124 L
107.175 278.769 L
108.035 281.414 L
110.285 283.049 L
113.066 283.049 L
115.316 281.414 L
116.175 278.769 LE
134.983 283.643 LS
134.123 280.998 L
131.873 279.363 L
129.092 279.363 L
126.842 280.998 L
125.983 283.643 L
126.842 286.288 L
129.092 287.923 L
131.873 287.923 L
134.123 286.288 L
134.983 283.643 LE
153.436 289.885 LS
152.576 287.24 L
150.326 285.605 L
147.545 285.605 L
145.295 287.24 L
144.436 289.885 L
145.295 292.53 L
147.545 294.165 L
150.326 294.165 L
152.576 292.53 L
153.436 289.885 LE
171.866 282.209 LS
171.007 279.564 L
168.757 277.93 L
165.975 277.93 L
163.725 279.564 L
162.866 282.209 L
163.725 284.854 L
165.975 286.489 L
168.757 286.489 L
171.007 284.854 L
171.866 282.209 LE
190.411 284.886 LS
189.552 282.241 L
187.302 280.606 L
184.521 280.606 L
182.271 282.241 L
181.411 284.886 L
182.271 287.531 L
184.521 289.165 L
187.302 289.165 L
189.552 287.531 L
190.411 284.886 LE
208.893 283.213 LS
208.034 280.568 L
205.784 278.933 L
203.003 278.933 L
200.753 280.568 L
199.893 283.213 L
200.753 285.858 L
203.003 287.492 L
205.784 287.492 L
208.034 285.858 L
208.893 283.213 LE
227.512 296.682 LS
226.653 294.037 L
224.403 292.402 L
221.622 292.402 L
219.372 294.037 L
218.512 296.682 L
219.372 299.327 L
221.622 300.961 L
224.403 300.961 L
226.653 299.327 L
227.512 296.682 LE
246.175 281.594 LS
245.316 278.949 L
243.066 277.314 L
240.285 277.314 L
238.035 278.949 L
237.175 281.594 L
238.035 284.239 L
240.285 285.874 L
243.066 285.874 L
245.316 284.239 L
246.175 281.594 LE
264.756 283.551 LS
263.897 280.906 L
261.647 279.271 L
258.865 279.271 L
256.615 280.906 L
255.756 283.551 L
256.615 286.196 L
258.865 287.831 L
261.647 287.831 L
263.897 286.196 L
264.756 283.551 LE
283.204 289.971 LS
282.344 287.326 L
280.094 285.692 L
277.313 285.692 L
275.063 287.326 L
274.204 289.971 L
275.063 292.616 L
277.313 294.251 L
280.094 294.251 L
282.344 292.616 L
283.204 289.971 LE
301.923 290.369 LS
301.063 287.724 L
298.813 286.089 L
296.032 286.089 L
293.782 287.724 L
292.923 290.369 L
293.782 293.014 L
296.032 294.649 L
298.813 294.649 L
301.063 293.014 L
301.923 290.369 LE
320.594 281.176 LS
319.735 278.53 L
317.485 276.896 L
314.703 276.896 L
312.453 278.53 L
311.594 281.176 L
312.453 283.821 L
314.703 285.455 L
317.485 285.455 L
319.735 283.821 L
320.594 281.176 LE
338.906 288.568 LS
338.046 285.923 L
335.796 284.289 L
333.015 284.289 L
330.765 285.923 L
329.906 288.568 L
330.765 291.213 L
333.015 292.848 L
335.796 292.848 L
338.046 291.213 L
338.906 288.568 LE
357.053 290.116 LS
356.194 287.471 L
353.944 285.836 L
351.163 285.836 L
348.913 287.471 L
348.053 290.116 L
348.913 292.761 L
351.163 294.396 L
353.944 294.396 L
356.194 292.761 L
357.053 290.116 LE
375.557 292.892 LS
374.698 290.247 L
372.448 288.612 L
369.667 288.612 L
367.417 290.247 L
366.557 292.892 L
367.417 295.537 L
369.667 297.171 L
372.448 297.171 L
374.698 295.537 L
375.557 292.892 LE
394.103 289.244 LS
393.244 286.599 L
390.994 284.965 L
388.213 284.965 L
385.963 286.599 L
385.103 289.244 L
385.963 291.889 L
388.213 293.524 L
390.994 293.524 L
393.244 291.889 L
394.103 289.244 LE
412.759 287.038 LS
411.9 284.392 L
409.65 282.758 L
406.869 282.758 L
404.619 284.392 L
403.759 287.038 L
404.619 289.683 L
406.869 291.317 L
409.65 291.317 L
411.9 289.683 L
412.759 287.038 LE
431.522 282.768 LS
430.663 280.123 L
428.413 278.488 L
425.632 278.488 L
423.382 280.123 L
422.522 282.768 L
423.382 285.413 L
425.632 287.047 L
428.413 287.047 L
430.663 285.413 L
431.522 282.768 LE
449.585 289.977 LS
448.726 287.332 L
446.476 285.697 L
443.695 285.697 L
441.445 287.332 L
440.585 289.977 L
441.445 292.622 L
443.695 294.257 L
446.476 294.257 L
448.726 292.622 L
449.585 289.977 LE
467.906 283.233 LS
467.047 280.588 L
464.797 278.953 L
462.016 278.953 L
459.766 280.588 L
458.906 283.233 L
459.766 285.878 L
462.016 287.513 L
464.797 287.513 L
467.047 285.878 L
467.906 283.233 LE
486.191 284.318 LS
485.331 281.673 L
483.081 280.038 L
480.3 280.038 L
478.05 281.673 L
477.191 284.318 L
478.05 286.963 L
480.3 288.598 L
483.081 288.598 L
485.331 286.963 L
486.191 284.318 LE
504.761 286.233 LS
503.901 283.588 L
501.651 281.953 L
498.87 281.953 L
496.62 283.588 L
495.761 286.233 L
496.62 288.878 L
498.87 290.513 L
501.651 290.513 L
503.901 288.878 L
504.761 286.233 LE
523.345 290.285 LS
522.485 287.64 L
520.235 286.005 L
517.454 286.005 L
515.204 287.64 L
514.345 290.285 L
515.204 292.93 L
517.454 294.565 L
520.235 294.565 L
522.485 292.93 L
523.345 290.285 LE
0 0 0.5 C
74.8809 299.932 LS
74.8836 305.943 L
74.8871 303.198 L
74.8943 296.384 L
74.9086 289.808 L
74.9514 291.918 L
75.0514 289.818 L
75.2657 287.254 L
75.7085 284.052 L
76.6085 282.803 L
77.5227 279.874 L
79.3511 276.99 L
84.8365 279.418 L
97.6357 280.645 L
112.263 281.16 L
156.146 280.957 L
258.54 276.873 L
477.954 272.718 LE
77.8809 299.932 75.808 297.079 77.3079 298.169 T
77.8809 299.932 73.9538 297.079 75.808 297.079 T
77.8809 299.932 72.4538 298.169 73.9538 297.079 T
77.8809 299.932 71.8809 299.932 72.4538 298.169 T
77.8809 299.932 72.4538 301.695 71.8809 299.932 T
77.8809 299.932 73.9538 302.785 72.4538 301.695 T
77.8809 299.932 75.808 302.785 73.9538 302.785 T
77.8809 299.932 77.3079 301.695 75.808 302.785 T
77.8836 305.943 75.8106 303.09 77.3106 304.179 T
77.8836 305.943 73.9565 303.09 75.8106 303.09 T
77.8836 305.943 72.4565 304.179 73.9565 303.09 T
77.8836 305.943 71.8836 305.943 72.4565 304.179 T
77.8836 305.943 72.4565 307.706 71.8836 305.943 T
77.8836 305.943 73.9565 308.796 72.4565 307.706 T
77.8836 305.943 75.8106 308.796 73.9565 308.796 T
77.8836 305.943 77.3106 307.706 75.8106 308.796 T
77.8871 303.198 75.8142 300.345 77.3142 301.434 T
77.8871 303.198 73.9601 300.345 75.8142 300.345 T
77.8871 303.198 72.4601 301.434 73.9601 300.345 T
77.8871 303.198 71.8871 303.198 72.4601 301.434 T
77.8871 303.198 72.4601 304.961 71.8871 303.198 T
77.8871 303.198 73.9601 306.051 72.4601 304.961 T
77.8871 303.198 75.8142 306.051 73.9601 306.051 T
77.8871 303.198 77.3142 304.961 75.8142 306.051 T
77.8943 296.384 75.8213 293.531 77.3213 294.621 T
77.8943 296.384 73.9672 293.531 75.8213 293.531 T
77.8943 296.384 72.4672 294.621 73.9672 293.531 T
77.8943 296.384 71.8943 296.384 72.4672 294.621 T
77.8943 296.384 72.4672 298.148 71.8943 296.384 T
77.8943 296.384 73.9672 299.237 72.4672 298.148 T
77.8943 296.384 75.8213 299.237 73.9672 299.237 T
77.8943 296.384 77.3213 298.148 75.8213 299.237 T
77.9086 289.808 75.8356 286.955 77.3356 288.045 T
77.9086 289.808 73.9815 286.955 75.8356 286.955 T
77.9086 289.808 72.4815 288.045 73.9815 286.955 T
77.9086 289.808 71.9086 289.808 72.4815 288.045 T
77.9086 289.808 72.4815 291.571 71.9086 289.808 T
77.9086 289.808 73.9815 292.661 72.4815 291.571 T
77.9086 289.808 75.8356 292.661 73.9815 292.661 T
77.9086 289.808 77.3356 291.571 75.8356 292.661 T
77.9514 291.918 75.8785 289.065 77.3785 290.155 T
77.9514 291.918 74.0244 289.065 75.8785 289.065 T
77.9514 291.918 72.5244 290.155 74.0244 289.065 T
77.9514 291.918 71.9514 291.918 72.5244 290.155 T
77.9514 291.918 72.5244 293.681 71.9514 291.918 T
77.9514 291.918 74.0244 294.771 72.5244 293.681 T
77.9514 291.918 75.8785 294.771 74.0244 294.771 T
77.9514 291.918 77.3785 293.681 75.8785 294.771 T
78.0514 289.818 75.9785 286.965 77.4785 288.055 T
78.0514 289.818 74.1244 286.965 75.9785 286.965 T
78.0514 289.818 72.6244 288.055 74.1244 286.965 T
78.0514 289.818 72.0514 289.818 72.6244 288.055 T
78.0514 289.818 72.6244 291.581 72.0514 289.818 T
78.0514 289.818 74.1244 292.671 72.6244 291.581 T
78.0514 289.818 75.9785 292.671 74.1244 292.671 T
78.0514 289.818 77.4785 291.581 75.9785 292.671 T
78.2657 287.254 76.1927 284.401 77.6927 285.491 T
78.2657 287.254 74.3386 284.401 76.1927 284.401 T
78.2657 287.254 72.8386 285.491 74.3386 284.401 T
78.2657 287.254 72.2657 287.254 72.8386 285.491 T
78.2657 287.254 72.8386 289.017 72.2657 287.254 T
78.2657 287.254 74.3386 290.107 72.8386 289.017 T
78.2657 287.254 76.1927 290.107 74.3386 290.107 T
78.2657 287.254 77.6927 289.017 76.1927 290.107 T
78.7085 284.052 76.6356 281.199 78.1356 282.289 T
78.7085 284.052 74.7815 281.199 76.6356 281.199 T
78.7085 284.052 73.2815 282.289 74.7815 281.199 T
78.7085 284.052 72.7085 284.052 73.2815 282.289 T
78.7085 284.052 73.2815 285.816 72.7085 284.052 T
78.7085 284.052 74.7815 286.905 73.2815 285.816 T
78.7085 284.052 76.6356 286.905 74.7815 286.905 T
78.7085 284.052 78.1356 285.816 76.6356 286.905 T
79.6085 282.803 77.5355 279.949 79.0355 281.039 T
79.6085 282.803 75.6814 279.949 77.5355 279.949 T
79.6085 282.803 74.1814 281.039 75.6814 279.949 T
79.6085 282.803 73.6084 282.803 74.1814 281.039 T
79.6085 282.803 74.1814 284.566 73.6084 282.803 T
79.6085 282.803 75.6814 285.656 74.1814 284.566 T
79.6085 282.803 77.5355 285.656 75.6814 285.656 T
79.6085 282.803 79.0355 284.566 77.5355 285.656 T
80.5227 279.874 78.4498 277.021 79.9497 278.111 T
80.5227 279.874 76.5956 277.021 78.4498 277.021 T
80.5227 279.874 75.0956 278.111 76.5956 277.021 T
80.5227 279.874 74.5227 279.874 75.0956 278.111 T
80.5227 279.874 75.0956 281.638 74.5227 279.874 T
80.5227 279.874 76.5956 282.727 75.0956 281.638 T
80.5227 279.874 78.4498 282.727 76.5956 282.727 T
80.5227 279.874 79.9497 281.638 78.4498 282.727 T
82.3512 276.99 80.2782 274.137 81.7782 275.227 T
82.3512 276.99 78.4241 274.137 80.2782 274.137 T
82.3512 276.99 76.9241 275.227 78.4241 274.137 T
82.3512 276.99 76.3511 276.99 76.9241 275.227 T
82.3512 276.99 76.9241 278.753 76.3511 276.99 T
82.3512 276.99 78.4241 279.843 76.9241 278.753 T
82.3512 276.99 80.2782 279.843 78.4241 279.843 T
82.3512 276.99 81.7782 278.753 80.2782 279.843 T
87.8365 279.418 85.7635 276.565 87.2635 277.655 T
87.8365 279.418 83.9094 276.565 85.7635 276.565 T
87.8365 279.418 82.4094 277.655 83.9094 276.565 T
87.8365 279.418 81.8365 279.418 82.4094 277.655 T
87.8365 279.418 82.4094 281.181 81.8365 279.418 T
87.8365 279.418 83.9094 282.271 82.4094 281.181 T
87.8365 279.418 85.7635 282.271 83.9094 282.271 T
87.8365 279.418 87.2635 281.181 85.7635 282.271 T
100.636 280.645 98.5627 277.791 100.063 278.881 T
100.636 280.645 96.7086 277.791 98.5627 277.791 T
100.636 280.645 95.2086 278.881 96.7086 277.791 T
100.636 280.645 94.6357 280.645 95.2086 278.881 T
100.636 280.645 95.2086 282.408 94.6357 280.645 T
100.636 280.645 96.7086 283.498 95.2086 282.408 T
100.636 280.645 98.5627 283.498 96.7086 283.498 T
100.636 280.645 100.063 282.408 98.5627 283.498 T
115.263 281.16 113.19 278.307 114.69 279.397 T
115.263 281.16 111.336 278.307 113.19 278.307 T
115.263 281.16 109.836 279.397 111.336 278.307 T
115.263 281.16 109.263 281.16 109.836 279.397 T
115.263 281.16 109.836 282.924 109.263 281.16 T
115.263 281.16 111.336 284.014 109.836 282.924 T
115.263 281.16 113.19 284.014 111.336 284.014 T
115.263 281.16 114.69 282.924 113.19 284.014 T
159.146 280.957 157.073 278.104 158.573 279.193 T
159.146 280.957 155.219 278.104 157.073 278.104 T
159.146 280.957 153.719 279.193 155.219 278.104 T
159.146 280.957 153.146 280.957 153.719 279.193 T
159.146 280.957 153.719 282.72 153.146 280.957 T
159.146 280.957 155.219 283.81 153.719 282.72 T
159.146 280.957 157.073 283.81 155.219 283.81 T
159.146 280.957 158.573 282.72 157.073 283.81 T
261.54 276.873 259.467 274.02 260.967 275.11 T
261.54 276.873 257.613 274.02 259.467 274.02 T
261.54 276.873 256.113 275.11 257.613 274.02 T
261.54 276.873 255.54 276.873 256.113 275.11 T
261.54 276.873 256.113 278.637 255.54 276.873 T
261.54 276.873 257.613 279.727 256.113 278.637 T
261.54 276.873 259.467 279.727 257.613 279.727 T
261.54 276.873 260.967 278.637 259.467 279.727 T
480.954 272.718 478.881 269.865 480.381 270.955 T
480.954 272.718 477.027 269.865 478.881 269.865 T
480.954 272.718 475.527 270.955 477.027 269.865 T
480.954 272.718 474.954 272.718 475.527 270.955 T
480.954 272.718 475.527 274.482 474.954 272.718 T
480.954 272.718 477.027 275.572 475.527 274.482 T
480.954 272.718 478.881 275.572 477.027 275.572 T
480.954 272.718 480.381 274.482 478.881 275.572 T
0.5 0.5 0.5 C
74.8818 290.01 LS
92.7378 108.233 L
110.594 104.768 L
128.45 105.453 L
146.306 113.661 L
164.162 112.539 L
182.018 113.233 L
199.874 105.924 L
217.73 101.758 L
235.586 105.74 L
253.442 107.35 L
271.298 110.177 L
289.154 114.514 L
307.01 108.866 L
324.866 111.816 L
342.722 111.513 L
360.578 112.64 L
378.434 117.658 L
396.29 118.37 L
414.146 116.208 L
432.002 114.864 L
449.858 115.305 L
467.714 115.28 L
485.57 115.727 L
503.426 116.546 LE
70.3818 294.51 LS
79.3818 285.51 LE
70.3818 285.51 LS
79.3818 294.51 LE
88.2378 112.733 LS
97.2378 103.733 LE
88.2378 103.733 LS
97.2378 112.733 LE
106.094 109.268 LS
115.094 100.268 LE
106.094 100.268 LS
115.094 109.268 LE
123.95 109.953 LS
132.95 100.953 LE
123.95 100.953 LS
132.95 109.953 LE
141.806 118.161 LS
150.806 109.161 LE
141.806 109.161 LS
150.806 118.161 LE
159.662 117.039 LS
168.662 108.039 LE
159.662 108.039 LS
168.662 117.039 LE
177.518 117.733 LS
186.518 108.733 LE
177.518 108.733 LS
186.518 117.733 LE
195.374 110.424 LS
204.374 101.424 LE
195.374 101.424 LS
204.374 110.424 LE
213.23 106.258 LS
222.23 97.2583 LE
213.23 97.2583 LS
222.23 106.258 LE
231.086 110.24 LS
240.086 101.24 LE
231.086 101.24 LS
240.086 110.24 LE
248.942 111.85 LS
257.942 102.85 LE
248.942 102.85 LS
257.942 111.85 LE
266.798 114.677 LS
275.798 105.677 LE
266.798 105.677 LS
275.798 114.677 LE
284.654 119.014 LS
293.654 110.014 LE
284.654 110.014 LS
293.654 119.014 LE
302.51 113.366 LS
311.51 104.366 LE
302.51 104.366 LS
311.51 113.366 LE
320.366 116.316 LS
329.366 107.316 LE
320.366 107.316 LS
329.366 116.316 LE
338.222 116.013 LS
347.222 107.013 LE
338.222 107.013 LS
347.222 116.013 LE
356.078 117.14 LS
365.078 108.14 LE
356.078 108.14 LS
365.078 117.14 LE
373.934 122.158 LS
382.934 113.158 LE
373.934 113.158 LS
382.934 122.158 LE
391.79 122.87 LS
400.79 113.87 LE
391.79 113.87 LS
400.79 122.87 LE
409.646 120.708 LS
418.646 111.708 LE
409.646 111.708 LS
418.646 120.708 LE
427.502 119.364 LS
436.502 110.364 LE
427.502 110.364 LS
436.502 119.364 LE
445.358 119.805 LS
454.358 110.805 LE
445.358 110.805 LS
454.358 119.805 LE
463.214 119.78 LS
472.214 110.78 LE
463.214 110.78 LS
472.214 119.78 LE
481.07 120.227 LS
490.07 111.227 LE
481.07 111.227 LS
490.07 120.227 LE
498.926 121.046 LS
507.926 112.046 LE
498.926 112.046 LS
507.926 121.046 LE
1 1 1 C
518.208 306.289 518.208 396.528 518.208 306.289 T
518.208 306.289 518.208 396.528 518.208 396.528 T
386.882 396.528 518.208 396.528 386.882 396.528 T
386.882 396.528 518.208 396.528 518.208 396.528 T
386.882 396.528 518.208 306.289 386.882 306.289 T
386.882 396.528 518.208 396.528 518.208 306.289 T
[16 0] 0 setdash
0 0 0 C
386.882 306.289 LS
518.208 306.289 LE
386.882 396.528 LS
518.208 396.528 LE
386.882 396.528 LS
518.208 396.528 LE
386.882 306.289 LS
518.208 306.289 LE
386.882 306.289 LS
386.882 396.528 LE
518.208 306.289 LS
518.208 396.528 LE
518.208 306.289 LS
518.208 396.528 LE
386.882 306.289 LS
386.882 396.528 L
386.882 396.528 LE
518.208 396.528 LS
518.208 396.528 LE
518.208 306.289 LS
518.208 306.289 LE
386.882 306.289 LS
386.882 306.289 LE
(UHCMAES) 416.064 387.504 10 /Helvetica SCL
(Shamir) 416.064 369.456 10 /Helvetica SCL
((1+1)-ES) 416.064 351.409 10 /Helvetica SCL
((1+1)-ES resamp) 416.064 333.361 10 /Helvetica SCL
(Fabian) 416.064 315.313 10 /Helvetica SCL
[] 0 setdash
0 0.5 0 C
389.954 387.504 LS
412.993 387.504 LE
396.973 387.504 LS
405.973 387.504 LE
401.473 392.004 LS
401.473 383.004 LE
0.5 0 0 C
389.954 369.456 LS
412.993 369.456 LE
396.973 369.456 LS
405.973 369.456 LE
401.473 373.956 LS
401.473 364.956 LE
398.291 372.638 LS
404.655 366.274 LE
398.291 366.274 LS
404.655 372.638 LE
0.5 0.5 0 C
389.954 351.409 LS
412.993 351.409 LE
405.973 351.409 LS
405.114 348.764 L
402.864 347.129 L
400.083 347.129 L
397.833 348.764 L
396.973 351.409 L
397.833 354.054 L
400.083 355.688 L
402.864 355.688 L
405.114 354.054 L
405.973 351.409 LE
0 0 0.5 C
389.954 333.361 LS
412.993 333.361 LE
404.473 333.361 402.4 330.508 403.9 331.597 T
404.473 333.361 400.546 330.508 402.4 330.508 T
404.473 333.361 399.046 331.597 400.546 330.508 T
404.473 333.361 398.473 333.361 399.046 331.597 T
404.473 333.361 399.046 335.124 398.473 333.361 T
404.473 333.361 400.546 336.214 399.046 335.124 T
404.473 333.361 402.4 336.214 400.546 336.214 T
404.473 333.361 403.9 335.124 402.4 336.214 T
0.5 0.5 0.5 C
389.954 315.313 LS
412.993 315.313 LE
396.973 319.813 LS
405.973 310.813 LE
396.973 310.813 LS
405.973 319.813 LE
grestore
showpage
cleartomark
%%PageTrailer
%%Trailer
end
%%EOF
